Layer,	Cycles,	% Utilization,
conv1,	25158,	2.63671875,
conv2,	126672,	11.255052418845523,
conv3,	32672,	22.53917727717924,
conv4,	59040,	25.0,
conv5,	16992,	50.0,
conv6,	33984,	50.0,
conv7,	33984,	50.0,
conv8,	13968,	100.0,
conv9,	27936,	100.0,
conv10,	27936,	100.0,
conv11,	17352,	100.0,
conv12,	17352,	100.0,
conv13,	17352,	100.0,
fc1,	603680,	100.0,
fc2,	98560,	100.0,
fc3,	24448,	97.67465641361257,
