,,fwd compute,wg compute,ig compute,fwd exposed comm,wg exposed comm,ig exposed comm,fwd total comm,wg total comm,ig total comm,workload finished at,total comp,total exposed comm,,,,,,,,,,,,,,,,,,,,,,,,,,,,,,,,,,,,
GEMM_Q_GEN,gpt2_8B_megatron_2DP_8MP,1234.944000,1769.472000,1234.944000,0.000000,0.000000,15450.966000,0.000000,899.752000,17220.440000,121073.036000,61038.592000,60034.444000,,,,,,,,,,,,,,,,,,,,,,,,,,,,,,,,,,,,
GEMM_K_GEN,gpt2_8B_megatron_2DP_8MP,1234.944000,1769.472000,1234.944000,0.000000,0.000000,0.000000,0.000000,113.520000,0.000000,121073.036000,,,,,,,,,,,,,,,,,,,,,,,,,,,,,,,,,,,,,,
GEMM_V_GEN,gpt2_8B_megatron_2DP_8MP,1234.944000,1769.472000,1234.944000,0.000000,0.000000,0.000000,0.000000,113.520000,0.000000,121073.036000,,,,,,,,,,,,,,,,,,,,,,,,,,,,,,,,,,,,,,
GEMM_QK,gpt2_8B_megatron_2DP_8MP,411.648000,1703.936000,411.648000,0.000000,0.000000,0.000000,0.000000,16.440000,0.000000,121073.036000,,,,,,,,,,,,,,,,,,,,,,,,,,,,,,,,,,,,,,
GEMM_QKV,gpt2_8B_megatron_2DP_8MP,411.648000,327.680000,411.648000,0.000000,0.000000,0.000000,0.000000,16.440000,0.000000,121073.036000,,,,,,,,,,,,,,,,,,,,,,,,,,,,,,,,,,,,,,
GEMM_Linear,gpt2_8B_megatron_2DP_8MP,1234.944000,5898.240000,1234.944000,17220.440000,0.000000,0.000000,17220.440000,899.752000,0.000000,121073.036000,,,,,,,,,,,,,,,,,,,,,,,,,,,,,,,,,,,,,,
GEMM_MLP_1,gpt2_8B_megatron_2DP_8MP,4939.776000,7077.888000,4939.776000,0.000000,0.000000,10142.550000,0.000000,803.734000,17220.440000,121073.036000,,,,,,,,,,,,,,,,,,,,,,,,,,,,,,,,,,,,,,
GEMM_MLP_2,gpt2_8B_megatron_2DP_8MP,4939.776000,9437.184000,4939.776000,17220.440000,0.000000,0.000000,17220.440000,806.922000,0.000000,121073.036000,,,,,,,,,,,,,,,,,,,,,,,,,,,,,,,,,,,,,,
,,,,,,,,,,,,,,,,,,,,,,,,,,,,,,,,,,,,,,,,,,,,,,,,,
,,,,,,,,,,,,,,,,,,,,,,,,,,,,,,,,,,,,,,,,,,,,,,,,,
,,,,,,,,,,,,,,,,,,,,,,,,,,,,,,,,,,,,,,,,,,,,,,,,,
,,,,,,,,,,,,,,,,,,,,,,,,,,,,,,,,,,,,,,,,,,,,,,,,,
,,,,,,,,,,,,,,,,,,,,,,,,,,,,,,,,,,,,,,,,,,,,,,,,,
,,,,,,,,,,,,,,,,,,,,,,,,,,,,,,,,,,,,,,,,,,,,,,,,,
,,,,,,,,,,,,,,,,,,,,,,,,,,,,,,,,,,,,,,,,,,,,,,,,,
,,,,,,,,,,,,,,,,,,,,,,,,,,,,,,,,,,,,,,,,,,,,,,,,,
,,,,,,,,,,,,,,,,,,,,,,,,,,,,,,,,,,,,,,,,,,,,,,,,,
,,,,,,,,,,,,,,,,,,,,,,,,,,,,,,,,,,,,,,,,,,,,,,,,,
,,,,,,,,,,,,,,,,,,,,,,,,,,,,,,,,,,,,,,,,,,,,,,,,,
,,,,,,,,,,,,,,,,,,,,,,,,,,,,,,,,,,,,,,,,,,,,,,,,,
,,,,,,,,,,,,,,,,,,,,,,,,,,,,,,,,,,,,,,,,,,,,,,,,,
,,,,,,,,,,,,,,,,,,,,,,,,,,,,,,,,,,,,,,,,,,,,,,,,,
,,,,,,,,,,,,,,,,,,,,,,,,,,,,,,,,,,,,,,,,,,,,,,,,,
,,,,,,,,,,,,,,,,,,,,,,,,,,,,,,,,,,,,,,,,,,,,,,,,,
,,,,,,,,,,,,,,,,,,,,,,,,,,,,,,,,,,,,,,,,,,,,,,,,,
,,,,,,,,,,,,,,,,,,,,,,,,,,,,,,,,,,,,,,,,,,,,,,,,,
,,,,,,,,,,,,,,,,,,,,,,,,,,,,,,,,,,,,,,,,,,,,,,,,,
