Layer name,ifmap height,ifmap width,filter height,filter width,channels,num filter,strides,
LSTM_1,256,256,1,256,1,2,1,
LSTM_2,256,256,1,256,1,2,1,
LSTM_3,256,256,1,256,1,2,1,
LSTM_4,256,256,1,256,1,2,1,
LSTM_5,256,256,1,256,1,2,1,
LSTM_6,256,256,1,256,1,2,1,
LSTM_7,256,256,1,256,1,2,1,
LSTM_8,256,256,1,256,1,2,1,
