Layer name,ifmap height,ifmap width,filter height,filter width,channels,num filter,strides,
LSTM_1,1,4,1,4,1,1024,1,
LSTM_2,1,4,1,4,1,1024,1,
LSTM_3,1,4,1,4,1,1024,1,
LSTM_4,1,4,1,4,1,1024,1,
LSTM_5,1,4,1,4,1,1024,1,
LSTM_6,1,4,1,4,1,1024,1,
LSTM_7,1,4,1,4,1,1024,1,
LSTM_8,1,4,1,4,1,1024,1,
