Layer,	Cycles,	% Utilization,
Conv1,	471968,	6.25,
CB2a_1,	109760,	6.25,
CB2a_2,	159936,	6.25,
CB2a_3,	119168,	25.0,
CB2s,	119168,	25.0,
IB2b_1,	128576,	6.25,
IB2b_2,	159936,	6.25,
IB2b_3,	119168,	25.0,
IB2c_1,	128576,	6.25,
IB2c_2,	159936,	6.25,
IB2c_3,	119168,	25.0,
CB3a_1,	32928,	12.5,
CB3a_2,	54880,	12.5,
CB3a_3,	34496,	50.0,
CB3s,	37632,	50.0,
IB3b_1,	39200,	12.5,
IB3b_2,	54880,	12.5,
IB3b_3,	34496,	50.0,
IB3c_1,	39200,	12.5,
IB3c_2,	54880,	12.5,
IB3c_3,	34496,	50.0,
IB3d_1,	39200,	12.5,
IB3d_2,	54880,	12.5,
IB3d_3,	34496,	50.0,
CB4a_1,	10272,	24.649532710280376,
CB4a_2,	21472,	24.571535022354695,
CB4a_3,	11072,	98.55491329479769,
CB4s,	12672,	98.48484848484848,
IB4b_1,	13472,	24.614014251781473,
IB4b_2,	21472,	24.571535022354695,
IB4b_3,	11072,	98.55491329479769,
IB4c_1,	13472,	24.614014251781473,
IB4c_2,	21472,	24.571535022354695,
IB4c_3,	11072,	98.55491329479769,
IB4d_1,	13472,	24.614014251781473,
IB4d_2,	21472,	24.571535022354695,
IB4d_3,	11072,	98.55491329479769,
IB4e_1,	13472,	24.614014251781473,
IB4e_2,	21472,	24.571535022354695,
IB4e_3,	11072,	98.55491329479769,
IB4f_1,	13472,	24.614014251781473,
IB4f_2,	21472,	24.571535022354695,
IB4f_3,	11072,	98.55491329479769,
CB5a_1,	3808,	45.955882352941174,
CB5a_2,	10080,	44.583333333333336,
CB5a_3,	6720,	92.5,
CB5s,	8512,	91.44736842105263,
IB5b_1,	5600,	45.25,
IB5b_2,	10080,	44.583333333333336,
IB5b_3,	6720,	92.5,
IB5c_1,	5600,	45.25,
IB5c_2,	10080,	44.583333333333336,
IB5c_3,	6720,	92.5,
FC6,	669,	12.20703125,
