Layer,	Cycles,	% Utilization,
Conv1,	127400,	25.0,
CB2a_1,	29792,	25.0,
CB2a_2,	42336,	25.0,
CB2a_3,	39200,	100.0,
CB2s,	39200,	100.0,
IB2b_1,	34496,	25.0,
IB2b_2,	42336,	25.0,
IB2b_3,	39200,	100.0,
IB2c_1,	34496,	25.0,
IB2c_2,	42336,	25.0,
IB2c_3,	39200,	100.0,
CB3a_1,	9472,	49.32432432432432,
CB3a_2,	15072,	49.203821656050955,
CB3a_3,	20544,	98.5981308411215,
CB3s,	22144,	98.55491329479769,
IB3b_1,	11072,	49.27745664739884,
IB3b_2,	15072,	49.203821656050955,
IB3b_3,	20544,	98.5981308411215,
IB3c_1,	11072,	49.27745664739884,
IB3c_2,	15072,	49.203821656050955,
IB3c_3,	20544,	98.5981308411215,
IB3d_1,	11072,	49.27745664739884,
IB3d_2,	15072,	49.203821656050955,
IB3d_3,	20544,	98.5981308411215,
CB4a_1,	3360,	92.5,
CB4a_2,	6496,	90.08620689655173,
CB4a_3,	11648,	93.26923076923077,
CB4s,	13440,	92.5,
IB4b_1,	4256,	91.44736842105263,
IB4b_2,	6496,	90.08620689655173,
IB4b_3,	11648,	93.26923076923077,
IB4c_1,	4256,	91.44736842105263,
IB4c_2,	6496,	90.08620689655173,
IB4c_3,	11648,	93.26923076923077,
IB4d_1,	4256,	91.44736842105263,
IB4d_2,	6496,	90.08620689655173,
IB4d_3,	11648,	93.26923076923077,
IB4e_1,	4256,	91.44736842105263,
IB4e_2,	6496,	90.08620689655173,
IB4e_3,	11648,	93.26923076923077,
IB4f_1,	4256,	91.44736842105263,
IB4f_2,	6496,	90.08620689655173,
IB4f_3,	11648,	93.26923076923077,
CB5a_1,	2320,	78.98706896551724,
CB5a_2,	5904,	77.51524390243902,
CB5a_3,	7232,	79.67367256637168,
CB5s,	9280,	78.98706896551724,
IB5b_1,	3344,	78.24461722488039,
IB5b_2,	5904,	77.51524390243902,
IB5b_3,	7232,	79.67367256637168,
IB5c_1,	3344,	78.24461722488039,
IB5c_2,	5904,	77.51524390243902,
IB5c_3,	7232,	79.67367256637168,
FC6,	660,	12.20703125,
