 time (us) ,dim1 util,dim2 util,dim3 util,
10.000000,0.000000,0.000000,0.000000,
20.000000,0.000000,0.000000,0.000000,
30.000000,0.000000,0.000000,0.000000,
40.000000,0.000000,8.270000,0.000000,
50.000000,0.000000,100.000000,25.080000,
60.000000,0.000000,100.000000,100.000000,
70.000000,0.000000,100.000000,100.000000,
80.000000,0.000000,100.000000,100.000000,
90.000000,0.000000,100.000000,100.000000,
100.000000,0.000000,100.000000,100.000000,
110.000000,0.000000,100.000000,100.000000,
120.000000,0.000000,100.000000,100.000000,
130.000000,0.000000,100.000000,100.000000,
140.000000,0.000000,100.000000,100.000000,
150.000000,0.000000,100.000000,100.000000,
160.000000,0.000000,100.000000,100.000000,
170.000000,0.000000,100.000000,100.000000,
180.000000,0.000000,100.000000,100.000000,
190.000000,0.000000,100.000000,100.000000,
200.000000,0.000000,100.000000,100.000000,
210.000000,0.000000,100.000000,100.000000,
220.000000,0.000000,100.000000,100.000000,
230.000000,0.000000,100.000000,100.000000,
240.000000,0.000000,100.000000,100.000000,
250.000000,0.000000,100.000000,100.000000,
260.000000,0.000000,100.000000,100.000000,
270.000000,0.000000,100.000000,100.000000,
280.000000,0.000000,100.000000,100.000000,
290.000000,0.000000,100.000000,100.000000,
300.000000,0.000000,100.000000,100.000000,
310.000000,0.000000,100.000000,100.000000,
320.000000,0.000000,100.000000,100.000000,
330.000000,0.000000,100.000000,100.000000,
340.000000,0.000000,89.290000,100.000000,
350.000000,0.000000,0.000000,100.000000,
360.000000,0.000000,70.390000,100.000000,
370.000000,0.000000,12.810000,100.000000,
380.000000,0.000000,0.000000,100.000000,
390.000000,0.000000,63.970000,100.000000,
400.000000,0.000000,19.230000,100.000000,
410.000000,0.000000,0.000000,100.000000,
420.000000,0.000000,57.550000,100.000000,
430.000000,0.000000,25.650000,100.000000,
440.000000,0.000000,0.000000,100.000000,
450.000000,0.000000,51.120000,100.000000,
460.000000,0.000000,32.070000,100.000000,
470.000000,0.000000,0.000000,100.000000,
480.000000,0.000000,44.700000,100.000000,
490.000000,0.000000,38.500000,100.000000,
500.000000,0.000000,0.000000,100.000000,
510.000000,0.000000,41.500000,100.000000,
520.000000,0.000000,29.690000,100.000000,
530.000000,0.000000,0.000000,100.000000,
540.000000,0.000000,38.300000,100.000000,
550.000000,0.000000,32.890000,100.000000,
560.000000,0.000000,0.000000,100.000000,
570.000000,0.000000,35.090000,100.000000,
580.000000,0.000000,36.100000,100.000000,
590.000000,0.000000,0.000000,100.000000,
600.000000,0.000000,31.890000,100.000000,
610.000000,0.000000,39.300000,100.000000,
620.000000,0.000000,0.000000,100.000000,
630.000000,0.000000,22.040000,100.000000,
640.000000,0.000000,73.940000,100.000000,
650.000000,0.000000,0.000000,100.000000,
660.000000,0.000000,12.200000,100.000000,
670.000000,0.000000,83.790000,100.000000,
680.000000,0.000000,0.000000,100.000000,
690.000000,0.000000,2.350000,100.000000,
700.000000,0.000000,93.630000,100.000000,
710.000000,0.000000,0.000000,100.000000,
720.000000,0.000000,0.000000,100.000000,
730.000000,0.000000,83.200000,100.000000,
740.000000,0.000000,0.000000,100.000000,
750.000000,0.000000,0.000000,100.000000,
760.000000,0.000000,83.200000,100.000000,
770.000000,0.000000,0.000000,100.000000,
780.000000,0.000000,0.000000,100.000000,
790.000000,0.000000,83.090000,100.000000,
800.000000,0.000000,0.110000,100.000000,
810.000000,0.000000,0.000000,100.000000,
820.000000,0.000000,76.670000,100.000000,
830.000000,0.000000,6.530000,100.000000,
840.000000,0.000000,0.000000,100.000000,
850.000000,0.000000,70.240000,100.000000,
860.000000,0.000000,12.950000,100.000000,
870.000000,0.000000,0.000000,100.000000,
880.000000,0.000000,63.820000,100.000000,
890.000000,0.000000,19.370000,100.000000,
900.000000,0.000000,0.000000,100.000000,
910.000000,0.000000,57.400000,42.600000,
920.000000,0.000000,25.800000,0.000000,
930.000000,0.000000,99.590000,16.400000,
940.000000,0.000000,100.000000,100.000000,
950.000000,0.000000,100.000000,100.000000,
960.000000,0.000000,100.000000,100.000000,
970.000000,0.000000,100.000000,100.000000,
980.000000,0.000000,100.000000,100.000000,
990.000000,0.000000,100.000000,100.000000,
1000.000000,0.000000,100.000000,100.000000,
1010.000000,0.000000,100.000000,100.000000,
1020.000000,0.000000,100.000000,100.000000,
1030.000000,0.000000,100.000000,100.000000,
1040.000000,0.000000,100.000000,100.000000,
1050.000000,0.000000,100.000000,100.000000,
1060.000000,0.000000,100.000000,100.000000,
1070.000000,0.000000,100.000000,100.000000,
1080.000000,0.000000,100.000000,100.000000,
1090.000000,0.000000,100.000000,100.000000,
1100.000000,0.000000,100.000000,100.000000,
1110.000000,0.000000,100.000000,100.000000,
1120.000000,0.000000,100.000000,100.000000,
1130.000000,0.000000,100.000000,100.000000,
1140.000000,0.000000,100.000000,100.000000,
1150.000000,0.000000,100.000000,100.000000,
1160.000000,0.000000,100.000000,100.000000,
1170.000000,0.000000,100.000000,100.000000,
1180.000000,0.000000,100.000000,100.000000,
1190.000000,0.000000,100.000000,100.000000,
1200.000000,0.000000,100.000000,100.000000,
1210.000000,0.000000,100.000000,100.000000,
1220.000000,0.000000,97.970000,100.000000,
1230.000000,0.000000,0.000000,100.000000,
1240.000000,0.000000,61.710000,100.000000,
1250.000000,0.000000,21.490000,100.000000,
1260.000000,0.000000,0.000000,100.000000,
1270.000000,0.000000,55.290000,100.000000,
1280.000000,0.000000,27.910000,100.000000,
1290.000000,0.000000,0.000000,100.000000,
1300.000000,0.000000,48.860000,100.000000,
1310.000000,0.000000,34.330000,100.000000,
1320.000000,0.000000,0.000000,100.000000,
1330.000000,0.000000,42.440000,100.000000,
1340.000000,0.000000,40.760000,100.000000,
1350.000000,0.000000,0.000000,100.000000,
1360.000000,0.000000,36.020000,100.000000,
1370.000000,0.000000,47.180000,100.000000,
1380.000000,0.000000,0.000000,100.000000,
1390.000000,0.000000,32.820000,100.000000,
1400.000000,0.000000,38.370000,100.000000,
1410.000000,0.000000,0.000000,100.000000,
1420.000000,0.000000,29.610000,100.000000,
1430.000000,0.000000,41.570000,100.000000,
1440.000000,0.000000,0.000000,100.000000,
1450.000000,0.000000,26.410000,100.000000,
1460.000000,0.000000,44.780000,100.000000,
1470.000000,0.000000,0.000000,100.000000,
1480.000000,0.000000,23.210000,100.000000,
1490.000000,0.000000,47.980000,100.000000,
1500.000000,0.000000,0.000000,100.000000,
1510.000000,0.000000,13.360000,100.000000,
1520.000000,0.000000,82.620000,100.000000,
1530.000000,0.000000,0.000000,100.000000,
1540.000000,0.000000,3.520000,100.000000,
1550.000000,0.000000,92.470000,100.000000,
1560.000000,0.000000,0.000000,100.000000,
1570.000000,0.000000,0.000000,100.000000,
1580.000000,0.000000,93.670000,100.000000,
1590.000000,0.000000,2.320000,100.000000,
1600.000000,0.000000,0.000000,100.000000,
1610.000000,0.000000,83.200000,100.000000,
1620.000000,0.000000,0.000000,100.000000,
1630.000000,0.000000,0.000000,100.000000,
1640.000000,0.000000,80.830000,100.000000,
1650.000000,0.000000,2.370000,100.000000,
1660.000000,0.000000,0.000000,100.000000,
1670.000000,0.000000,74.410000,100.000000,
1680.000000,0.000000,8.790000,100.000000,
1690.000000,0.000000,0.000000,100.000000,
1700.000000,0.000000,67.990000,100.000000,
1710.000000,0.000000,15.210000,100.000000,
1720.000000,0.000000,0.000000,100.000000,
1730.000000,0.000000,61.560000,100.000000,
1740.000000,0.000000,21.630000,100.000000,
1750.000000,0.000000,0.000000,100.000000,
1760.000000,0.000000,55.140000,100.000000,
1770.000000,0.000000,28.060000,100.000000,
1780.000000,0.000000,0.000000,100.000000,
1790.000000,0.000000,48.720000,51.280000,
,,,
