,,fwd compute,wg compute,ig compute,fwd exposed comm,wg exposed comm,ig exposed comm,fwd total comm,wg total comm,ig total comm,workload finished at,total comp,total exposed comm,,,,,,,,,,,,,,,,,,,,,,,,,,,,,,,,,,,,
GEMM_Q_GEN,gpt2_8B_megatron,344.064000,589.824000,0.000000,0.000000,180.399000,0.000000,0.000000,180.401000,0.000000,9445.597000,9265.152000,180.445000,,,,,,,,,,,,,,,,,,,,,,,,,,,,,,,,,,,,
GEMM_K_GEN,gpt2_8B_megatron,344.064000,589.824000,172.032000,0.000000,0.000000,0.000000,0.000000,180.401000,0.000000,9445.597000,,,,,,,,,,,,,,,,,,,,,,,,,,,,,,,,,,,,,,
GEMM_V_GEN,gpt2_8B_megatron,344.064000,589.824000,172.032000,0.000000,0.000000,0.000000,0.000000,180.401000,0.000000,9445.597000,,,,,,,,,,,,,,,,,,,,,,,,,,,,,,,,,,,,,,
GEMM_QK,gpt2_8B_megatron,86.016000,0.000000,172.032000,0.000000,0.000000,0.000000,0.000000,152.740000,0.000000,9445.597000,,,,,,,,,,,,,,,,,,,,,,,,,,,,,,,,,,,,,,
GEMM_QKV,gpt2_8B_megatron,172.032000,0.000000,86.016000,0.000000,0.000000,0.000000,0.000000,125.560000,0.000000,9445.597000,,,,,,,,,,,,,,,,,,,,,,,,,,,,,,,,,,,,,,
GEMM_Linear,gpt2_8B_megatron,180.224000,327.680000,180.224000,0.000000,0.000000,0.000000,0.000000,180.401000,0.000000,9445.597000,,,,,,,,,,,,,,,,,,,,,,,,,,,,,,,,,,,,,,
GEMM_MLP_1,gpt2_8B_megatron,720.896000,1310.720000,720.896000,0.000000,0.000000,0.000000,0.000000,629.088000,0.000000,9445.597000,,,,,,,,,,,,,,,,,,,,,,,,,,,,,,,,,,,,,,
GEMM_MLP_2,gpt2_8B_megatron,720.896000,720.896000,720.896000,0.000000,0.000000,0.000000,0.000000,629.088000,0.000000,9445.597000,,,,,,,,,,,,,,,,,,,,,,,,,,,,,,,,,,,,,,
,,,,,,,,,,,,,,,,,,,,,,,,,,,,,,,,,,,,,,,,,,,,,,,,,
,,,,,,,,,,,,,,,,,,,,,,,,,,,,,,,,,,,,,,,,,,,,,,,,,
,,,,,,,,,,,,,,,,,,,,,,,,,,,,,,,,,,,,,,,,,,,,,,,,,
,,,,,,,,,,,,,,,,,,,,,,,,,,,,,,,,,,,,,,,,,,,,,,,,,
,,,,,,,,,,,,,,,,,,,,,,,,,,,,,,,,,,,,,,,,,,,,,,,,,
,,,,,,,,,,,,,,,,,,,,,,,,,,,,,,,,,,,,,,,,,,,,,,,,,
,,,,,,,,,,,,,,,,,,,,,,,,,,,,,,,,,,,,,,,,,,,,,,,,,
,,,,,,,,,,,,,,,,,,,,,,,,,,,,,,,,,,,,,,,,,,,,,,,,,
,,,,,,,,,,,,,,,,,,,,,,,,,,,,,,,,,,,,,,,,,,,,,,,,,
,,,,,,,,,,,,,,,,,,,,,,,,,,,,,,,,,,,,,,,,,,,,,,,,,
,,,,,,,,,,,,,,,,,,,,,,,,,,,,,,,,,,,,,,,,,,,,,,,,,
,,,,,,,,,,,,,,,,,,,,,,,,,,,,,,,,,,,,,,,,,,,,,,,,,
,,,,,,,,,,,,,,,,,,,,,,,,,,,,,,,,,,,,,,,,,,,,,,,,,
,,,,,,,,,,,,,,,,,,,,,,,,,,,,,,,,,,,,,,,,,,,,,,,,,
,,,,,,,,,,,,,,,,,,,,,,,,,,,,,,,,,,,,,,,,,,,,,,,,,
,,,,,,,,,,,,,,,,,,,,,,,,,,,,,,,,,,,,,,,,,,,,,,,,,
,,,,,,,,,,,,,,,,,,,,,,,,,,,,,,,,,,,,,,,,,,,,,,,,,
,,,,,,,,,,,,,,,,,,,,,,,,,,,,,,,,,,,,,,,,,,,,,,,,,
,,,,,,,,,,,,,,,,,,,,,,,,,,,,,,,,,,,,,,,,,,,,,,,,,
