Layer,	Cycles,	% Utilization,
LSTM_1,	2312,	0.78125,
LSTM_2,	2312,	0.78125,
LSTM_3,	2312,	0.78125,
LSTM_4,	2312,	0.78125,
LSTM_5,	2312,	0.78125,
LSTM_6,	2312,	0.78125,
LSTM_7,	2312,	0.78125,
LSTM_8,	2312,	0.78125,
