,,fwd compute,wg compute,ig compute,fwd exposed comm,wg exposed comm,ig exposed comm,fwd total comm,wg total comm,ig total comm,workload finished at,total comp,total exposed comm,,,,,,,,,,,,,,,,,,,,,,,,,,,,,,,,,,,,
GEMM_Q_GEN,bert_4B_megatron_64DP_4MP,230.400000,153.600000,115.200000,0.000000,76.170000,243.302000,0.000000,319.474000,396.904000,6545.624000,4769.320000,1776.304000,,,,,,,,,,,,,,,,,,,,,,,,,,,,,,,,,,,,
GEMM_K_GEN,bert_4B_megatron_64DP_4MP,230.400000,153.600000,115.200000,0.000000,0.000000,0.000000,0.000000,604.334000,0.000000,6545.624000,,,,,,,,,,,,,,,,,,,,,,,,,,,,,,,,,,,,,,
GEMM_V_GEN,bert_4B_megatron_64DP_4MP,230.400000,153.600000,115.200000,0.000000,0.000000,0.000000,0.000000,291.762000,0.000000,6545.624000,,,,,,,,,,,,,,,,,,,,,,,,,,,,,,,,,,,,,,
GEMM_QK,bert_4B_megatron_64DP_4MP,23.040000,0.020000,46.080000,0.000000,0.000000,0.000000,0.000000,205.222000,0.000000,6545.624000,,,,,,,,,,,,,,,,,,,,,,,,,,,,,,,,,,,,,,
GEMM_QKV,bert_4B_megatron_64DP_4MP,46.080000,0.020000,23.040000,0.000000,0.000000,0.000000,0.000000,1202.206000,0.000000,6545.624000,,,,,,,,,,,,,,,,,,,,,,,,,,,,,,,,,,,,,,
GEMM_Linear,bert_4B_megatron_64DP_4MP,128.000000,174.080000,128.000000,396.904000,0.000000,0.000000,396.904000,1427.230000,0.000000,6545.624000,,,,,,,,,,,,,,,,,,,,,,,,,,,,,,,,,,,,,,
GEMM_MLP_1,bert_4B_megatron_64DP_4MP,512.000000,327.680000,512.000000,0.000000,0.000000,69.222000,0.000000,2617.404000,396.904000,6545.624000,,,,,,,,,,,,,,,,,,,,,,,,,,,,,,,,,,,,,,
GEMM_MLP_2,bert_4B_megatron_64DP_4MP,512.000000,327.680000,512.000000,396.904000,0.000000,0.000000,396.904000,3593.552000,0.000000,6545.624000,,,,,,,,,,,,,,,,,,,,,,,,,,,,,,,,,,,,,,
,,,,,,,,,,,,,,,,,,,,,,,,,,,,,,,,,,,,,,,,,,,,,,,,,
,,,,,,,,,,,,,,,,,,,,,,,,,,,,,,,,,,,,,,,,,,,,,,,,,
,,,,,,,,,,,,,,,,,,,,,,,,,,,,,,,,,,,,,,,,,,,,,,,,,
,,,,,,,,,,,,,,,,,,,,,,,,,,,,,,,,,,,,,,,,,,,,,,,,,
,,,,,,,,,,,,,,,,,,,,,,,,,,,,,,,,,,,,,,,,,,,,,,,,,
,,,,,,,,,,,,,,,,,,,,,,,,,,,,,,,,,,,,,,,,,,,,,,,,,
,,,,,,,,,,,,,,,,,,,,,,,,,,,,,,,,,,,,,,,,,,,,,,,,,
,,,,,,,,,,,,,,,,,,,,,,,,,,,,,,,,,,,,,,,,,,,,,,,,,
,,,,,,,,,,,,,,,,,,,,,,,,,,,,,,,,,,,,,,,,,,,,,,,,,
,,,,,,,,,,,,,,,,,,,,,,,,,,,,,,,,,,,,,,,,,,,,,,,,,
,,,,,,,,,,,,,,,,,,,,,,,,,,,,,,,,,,,,,,,,,,,,,,,,,
,,,,,,,,,,,,,,,,,,,,,,,,,,,,,,,,,,,,,,,,,,,,,,,,,
,,,,,,,,,,,,,,,,,,,,,,,,,,,,,,,,,,,,,,,,,,,,,,,,,
,,,,,,,,,,,,,,,,,,,,,,,,,,,,,,,,,,,,,,,,,,,,,,,,,
,,,,,,,,,,,,,,,,,,,,,,,,,,,,,,,,,,,,,,,,,,,,,,,,,
,,,,,,,,,,,,,,,,,,,,,,,,,,,,,,,,,,,,,,,,,,,,,,,,,
,,,,,,,,,,,,,,,,,,,,,,,,,,,,,,,,,,,,,,,,,,,,,,,,,
,,,,,,,,,,,,,,,,,,,,,,,,,,,,,,,,,,,,,,,,,,,,,,,,,
,,,,,,,,,,,,,,,,,,,,,,,,,,,,,,,,,,,,,,,,,,,,,,,,,
