Layer name,ifmap height,ifmap width,filter height,filter width,channels,num filter,strides,
LSTM_1,32,1,1,1,1,1024,1,
LSTM_2,32,1,1,1,1,1024,1,
LSTM_3,32,1,1,1,1,1024,1,
LSTM_4,32,1,1,1,1,1024,1,
LSTM_5,32,1,1,1,1,1024,1,
LSTM_6,32,1,1,1,1,1024,1,
LSTM_7,32,1,1,1,1,1024,1,
LSTM_8,32,1,1,1,1,1024,1,
