Layer name,ifmap height,ifmap width,filter height,filter width,channels,num filter,strides,
GEMM_Q_GEN,256,32,1,32,1,1024,1,
GEMM_K_GEN,256,32,1,32,1,1024,1,
GEMM_V_GEN,256,32,1,32,1,1024,1,
GEMM_QK,256,256,1,256,1,64,1,
GEMM_QKV,256,32,1,32,1,512,1,
GEMM_Linear,256,512,1,512,1,1024,1,
GEMM_MLP_1,256,2048,1,2048,1,1024,1,
GEMM_MLP_2,256,512,1,512,1,4096,1,
