Layer,	Cycles,	% Utilization,
conv1,	3399424,	6.25,
conv2,	5117952,	6.25,
conv3,	1304576,	12.5,
conv4,	1756160,	12.5,
conv5,	451584,	25.0,
conv6,	677376,	25.0,
conv7,	677376,	25.0,
conv8,	175616,	50.0,
conv9,	288512,	50.0,
conv10,	288512,	50.0,
conv11,	72128,	50.0,
conv12,	72128,	50.0,
conv13,	72128,	50.0,
fc1,	6560,	100.0,
fc2,	1312,	100.0,
fc3,	1213,	24.4140625,
