Layer,	Cycles,	% Utilization,
conv1,	50331,	10.546875,
conv2,	151360,	75.04228329809726,
conv3,	64576,	90.0396432111001,
conv4,	116352,	100.0,
conv5,	63360,	100.0,
conv6,	126720,	100.0,
conv7,	126720,	100.0,
conv8,	84096,	100.0,
conv9,	168192,	100.0,
conv10,	168192,	100.0,
conv11,	83520,	100.0,
conv12,	83520,	100.0,
conv13,	83520,	100.0,
fc1,	2414720,	100.0,
fc2,	394240,	100.0,
fc3,	97024,	97.91597955145119,
