Layer name,ifmap height,ifmap width,filter height,filter width,channels,num filter,strides,
conv1,1605632,27,1,27,1,1,1,
conv2,1605632,576,1,576,1,1,1,
conv3,401408,576,1,576,1,2,1,
conv4,401408,1152,1,1152,1,2,1,
conv5,100352,1152,1,1152,1,4,1,
conv6,100352,2304,1,2304,1,4,1,
conv7,100352,2304,1,2304,1,4,1,
conv8,25088,2304,1,2304,1,8,1,
conv9,25088,4608,1,4608,1,8,1,
conv10,25088,4608,1,4608,1,8,1,
conv11,6272,4608,1,4608,1,8,1,
conv12,6272,4608,1,4608,1,8,1,
conv13,6272,4608,1,4608,1,8,1,
fc1,32,25088,1,25088,1,64,1,
fc2,32,4096,1,4096,1,64,1,
fc3,32,4096,1,4096,1,16,1,
