Layer name,ifmap height,ifmap width,filter height,filter width,channels,num filter,strides,
LSTM_1,256,16,1,16,1,4,1,
LSTM_2,256,16,1,16,1,4,1,
LSTM_3,256,16,1,16,1,4,1,
LSTM_4,256,16,1,16,1,4,1,
LSTM_5,256,16,1,16,1,4,1,
LSTM_6,256,16,1,16,1,4,1,
LSTM_7,256,16,1,16,1,4,1,
LSTM_8,256,16,1,16,1,4,1,
