Layer,	Cycles,	% Utilization,
Conv1,	1888,	57.421875,
CB2a_1,	584,	25.0,
CB2a_2,	2008,	78.18725099601593,
CB2a_3,	1424,	50.0,
CB2s,	1424,	50.0,
IB2b_1,	712,	100.0,
IB2b_2,	2008,	78.18725099601593,
IB2b_3,	1424,	50.0,
IB2c_1,	712,	100.0,
IB2c_2,	2008,	78.18725099601593,
IB2c_3,	1424,	50.0,
CB3a_1,	964,	100.0,
CB3a_2,	4338,	100.0,
CB3a_3,	1928,	100.0,
CB3s,	3856,	100.0,
IB3b_1,	1928,	100.0,
IB3b_2,	4338,	100.0,
IB3b_3,	1928,	100.0,
IB3c_1,	1928,	100.0,
IB3c_2,	4338,	100.0,
IB3c_3,	1928,	100.0,
IB3d_1,	1928,	100.0,
IB3d_2,	4338,	100.0,
IB3d_3,	1928,	100.0,
CB4a_1,	3272,	100.0,
CB4a_2,	14724,	100.0,
CB4a_3,	6544,	100.0,
CB4s,	13088,	100.0,
IB4b_1,	6544,	100.0,
IB4b_2,	14724,	100.0,
IB4b_3,	6544,	100.0,
IB4c_1,	6544,	100.0,
IB4c_2,	14724,	100.0,
IB4c_3,	6544,	100.0,
IB4d_1,	6544,	100.0,
IB4d_2,	14724,	100.0,
IB4d_3,	6544,	100.0,
IB4e_1,	6544,	100.0,
IB4e_2,	14724,	100.0,
IB4e_3,	6544,	100.0,
IB4f_1,	6544,	100.0,
IB4f_2,	14724,	100.0,
IB4f_3,	6544,	100.0,
RPN_Conv1,	117792,	100.0,
RPN_Conv_bbox,	522,	60.129310344827594,
RPN_Conv3_cls,	243,	56.25,
