Layer name,ifmap height,ifmap width,filter height,filter width,channels,num filter,strides,
conv1,7,100352,1,100352,1,32,1,
conv2,144,100352,1,100352,1,32,1,
conv3,144,25088,1,25088,1,64,1,
conv4,288,25088,1,25088,1,64,1,
conv5,288,6272,1,6272,1,128,1,
conv6,576,6272,1,6272,1,128,1,
conv7,576,6272,1,6272,1,128,1,
conv8,576,1568,1,1568,1,256,1,
conv9,1152,1568,1,1568,1,256,1,
conv10,1152,1568,1,1568,1,256,1,
conv11,1152,392,1,392,1,256,1,
conv12,1152,392,1,392,1,256,1,
conv13,1152,392,1,392,1,256,1,
fc1,6272,2,1,2,1,2048,1,
fc2,1024,2,1,2,1,2048,1,
fc3,1024,2,1,2,1,500,1,
