Layer name,ifmap height,ifmap width,filter height,filter width,channels,num filter,strides,
LSTM_1,4,1024,1,1024,1,1,1,
LSTM_2,4,1024,1,1024,1,1,1,
LSTM_3,4,1024,1,1024,1,1,1,
LSTM_4,4,1024,1,1024,1,1,1,
LSTM_5,4,1024,1,1024,1,1,1,
LSTM_6,4,1024,1,1024,1,1,1,
LSTM_7,4,1024,1,1024,1,1,1,
LSTM_8,4,1024,1,1024,1,1,1,
