LayerID, Total Cycles, Stall Cycles, Overall Util %, Mapping Efficiency %, Compute Util %,
0, 270680, 64905, 72.63484557410965, 100.0, 94.15009768992067,
1, 270680, 64905, 72.63484557410965, 100.0, 94.15009768992067,
