Layer,	Cycles,	% Utilization,
Conv1,	969024,	12.5,
CB2a_1,	225792,	12.5,
CB2a_2,	326144,	12.5,
CB2a_3,	263424,	50.0,
CB2s,	263424,	50.0,
IB2b_1,	263424,	12.5,
IB2b_2,	326144,	12.5,
IB2b_3,	263424,	50.0,
IB2c_1,	263424,	12.5,
IB2c_2,	326144,	12.5,
IB2c_3,	263424,	50.0,
CB3a_1,	68992,	25.0,
CB3a_2,	112896,	25.0,
CB3a_3,	81536,	100.0,
CB3s,	87808,	100.0,
IB3b_1,	81536,	25.0,
IB3b_2,	112896,	25.0,
IB3b_3,	81536,	100.0,
IB3c_1,	81536,	25.0,
IB3c_2,	112896,	25.0,
IB3c_3,	81536,	100.0,
IB3d_1,	81536,	25.0,
IB3d_2,	112896,	25.0,
IB3d_3,	81536,	100.0,
CB4a_1,	21952,	50.0,
CB4a_2,	43904,	50.0,
CB4a_3,	43904,	100.0,
CB4s,	50176,	100.0,
IB4b_1,	28224,	50.0,
IB4b_2,	43904,	50.0,
IB4b_3,	43904,	100.0,
IB4c_1,	28224,	50.0,
IB4c_2,	43904,	50.0,
IB4c_3,	43904,	100.0,
IB4d_1,	28224,	50.0,
IB4d_2,	43904,	50.0,
IB4d_3,	43904,	100.0,
IB4e_1,	28224,	50.0,
IB4e_2,	43904,	50.0,
IB4e_3,	43904,	100.0,
IB4f_1,	28224,	50.0,
IB4f_2,	43904,	50.0,
IB4f_3,	43904,	100.0,
CB5a_1,	8128,	95.86614173228347,
CB5a_2,	19776,	94.90291262135922,
CB5a_3,	25856,	96.28712871287128,
CB5s,	32512,	95.86614173228347,
IB5b_1,	11456,	95.39106145251397,
IB5b_2,	19776,	94.90291262135922,
IB5b_3,	25856,	96.28712871287128,
IB5c_1,	11456,	95.39106145251397,
IB5c_2,	19776,	94.90291262135922,
IB5c_3,	25856,	96.28712871287128,
FC6,	736,	48.828125,
