Layer,	Cycles,	% Utilization,
LSTM_1,	1026,	0.78125,
LSTM_2,	1026,	0.78125,
LSTM_3,	1026,	0.78125,
LSTM_4,	1026,	0.78125,
LSTM_5,	1026,	0.78125,
LSTM_6,	1026,	0.78125,
LSTM_7,	1026,	0.78125,
LSTM_8,	1026,	0.78125,
