Layer,	Cycles,	% Utilization,
Conv1,	254800,	25.0,
CB2a_1,	59584,	25.0,
CB2a_2,	84672,	25.0,
CB2a_3,	78400,	100.0,
CB2s,	78400,	100.0,
IB2b_1,	68992,	25.0,
IB2b_2,	84672,	25.0,
IB2b_3,	78400,	100.0,
IB2c_1,	68992,	25.0,
IB2c_2,	84672,	25.0,
IB2c_3,	78400,	100.0,
CB3a_1,	18816,	50.0,
CB3a_2,	29792,	50.0,
CB3a_3,	40768,	100.0,
CB3s,	43904,	100.0,
IB3b_1,	21952,	50.0,
IB3b_2,	29792,	50.0,
IB3b_3,	40768,	100.0,
IB3c_1,	21952,	50.0,
IB3c_2,	29792,	50.0,
IB3c_3,	40768,	100.0,
IB3d_1,	21952,	50.0,
IB3d_2,	29792,	50.0,
IB3d_3,	40768,	100.0,
CB4a_1,	6464,	96.28712871287128,
CB4a_2,	12288,	95.3125,
CB4a_3,	22528,	96.5909090909091,
CB4s,	25856,	96.28712871287128,
IB4b_1,	8128,	95.86614173228347,
IB4b_2,	12288,	95.3125,
IB4b_3,	22528,	96.5909090909091,
IB4c_1,	8128,	95.86614173228347,
IB4c_2,	12288,	95.3125,
IB4c_3,	22528,	96.5909090909091,
IB4d_1,	8128,	95.86614173228347,
IB4d_2,	12288,	95.3125,
IB4d_3,	22528,	96.5909090909091,
IB4e_1,	8128,	95.86614173228347,
IB4e_2,	12288,	95.3125,
IB4e_3,	22528,	96.5909090909091,
IB4f_1,	8128,	95.86614173228347,
IB4f_2,	12288,	95.3125,
IB4f_3,	22528,	96.5909090909091,
RPN_Conv1,	69504,	94.61325966850829,
RPN_Conv_bbox,	5034,	13.62252309296782,
RPN_Conv3_cls,	4917,	6.8156793395363025,
