Layer,	Cycles,	% Utilization,
Conv1,	25312,	28.7109375,
CB2a_1,	6400,	12.5,
CB2a_2,	12960,	56.79012345679012,
CB2a_3,	6592,	50.0,
CB2s,	6592,	50.0,
IB2b_1,	6496,	50.0,
IB2b_2,	12960,	56.79012345679012,
IB2b_3,	6592,	50.0,
IB2c_1,	6496,	50.0,
IB2c_2,	12960,	56.79012345679012,
IB2c_3,	6592,	50.0,
CB3a_1,	1888,	100.0,
CB3a_2,	9376,	90.27303754266211,
CB3a_3,	3904,	100.0,
CB3s,	7808,	100.0,
IB3b_1,	3776,	100.0,
IB3b_2,	9376,	90.27303754266211,
IB3b_3,	3904,	100.0,
IB3c_1,	3776,	100.0,
IB3c_2,	9376,	90.27303754266211,
IB3c_3,	3904,	100.0,
IB3d_1,	3776,	100.0,
IB3d_2,	9376,	90.27303754266211,
IB3d_3,	3904,	100.0,
CB4a_1,	3104,	100.0,
CB4a_2,	13968,	100.0,
CB4a_3,	6208,	100.0,
CB4s,	12416,	100.0,
IB4b_1,	6208,	100.0,
IB4b_2,	13968,	100.0,
IB4b_3,	6208,	100.0,
IB4c_1,	6208,	100.0,
IB4c_2,	13968,	100.0,
IB4c_3,	6208,	100.0,
IB4d_1,	6208,	100.0,
IB4d_2,	13968,	100.0,
IB4d_3,	6208,	100.0,
IB4e_1,	6208,	100.0,
IB4e_2,	13968,	100.0,
IB4e_3,	6208,	100.0,
IB4f_1,	6208,	100.0,
IB4f_2,	13968,	100.0,
IB4f_3,	6208,	100.0,
RPN_Conv1,	111744,	100.0,
RPN_Conv_bbox,	610,	56.25,
RPN_Conv3_cls,	565,	28.125,
