Layer,	Cycles,	% Utilization,
MLP_Bottom_0,	58,	1.26953125,
MLP_Bottom_1,	1152,	12.5,
MLP_Bottom_2,	1152,	12.5,
MLP_Bottom_3,	1092,	0.78125,
MLP_Top_0,	2368,	12.204391891891891,
MLP_Top_1,	1152,	12.5,
MLP_Top_2,	1152,	12.5,
