Layer name,ifmap height,ifmap width,filter height,filter width,channels,num filter,strides,
GEMM_Q_GEN,128,3072,1,3072,1,128,1,
GEMM_K_GEN,128,3072,1,3072,1,128,1,
GEMM_V_GEN,128,3072,1,3072,1,128,1,
GEMM_QK,128,128,1,128,1,1024,1,
GEMM_QKV,128,1024,1,1024,1,128,1,
GEMM_Linear,128,384,1,384,1,3072,1,
GEMM_MLP_1,128,3072,1,3072,1,1536,1,
GEMM_MLP_2,128,1536,1,1536,1,3072,1,
