Layer name,ifmap height,ifmap width,filter height,filter width,channels,num filter,strides,
GEMM_Q_GEN,512,2560,1,2560,1,64,1,
GEMM_K_GEN,512,2560,1,2560,1,64,1,
GEMM_V_GEN,512,2560,1,2560,1,64,1,
GEMM_QK,512,64,1,64,1,512,1,
GEMM_QKV,512,512,1,512,1,64,1,
GEMM_Linear,512,320,1,320,1,2560,1,
GEMM_MLP_1,512,2560,1,2560,1,1280,1,
GEMM_MLP_2,512,1280,1,1280,1,2560,1,
