,,fwd compute,wg compute,ig compute,fwd exposed comm,wg exposed comm,ig exposed comm,fwd total comm,wg total comm,ig total comm,workload finished at,total comp,total exposed comm,,,,,,,,,,,,,,,,,,,,,,,,,,,,,,,,,,,,
GEMM_Q_GEN,bert_4B_megatron_32DP_8MP,166.400000,153.600000,83.200000,0.000000,0.000000,765.574000,0.000000,200.826000,919.176000,7221.108000,4025.640000,3195.468000,,,,,,,,,,,,,,,,,,,,,,,,,,,,,,,,,,,,
GEMM_K_GEN,bert_4B_megatron_32DP_8MP,166.400000,153.600000,83.200000,0.000000,0.000000,0.000000,0.000000,160.066000,0.000000,7221.108000,,,,,,,,,,,,,,,,,,,,,,,,,,,,,,,,,,,,,,
GEMM_V_GEN,bert_4B_megatron_32DP_8MP,166.400000,153.600000,83.200000,0.000000,0.000000,0.000000,0.000000,164.042000,0.000000,7221.108000,,,,,,,,,,,,,,,,,,,,,,,,,,,,,,,,,,,,,,
GEMM_QK,bert_4B_megatron_32DP_8MP,16.640000,0.020000,33.280000,0.000000,0.000000,0.000000,0.000000,145.570000,0.000000,7221.108000,,,,,,,,,,,,,,,,,,,,,,,,,,,,,,,,,,,,,,
GEMM_QKV,bert_4B_megatron_32DP_8MP,33.280000,0.020000,16.640000,0.000000,0.000000,0.000000,0.000000,263.774000,0.000000,7221.108000,,,,,,,,,,,,,,,,,,,,,,,,,,,,,,,,,,,,,,
GEMM_Linear,bert_4B_megatron_32DP_8MP,102.400000,296.960000,104.960000,919.176000,0.000000,0.000000,919.176000,555.924000,0.000000,7221.108000,,,,,,,,,,,,,,,,,,,,,,,,,,,,,,,,,,,,,,
GEMM_MLP_1,bert_4B_megatron_32DP_8MP,358.400000,327.680000,358.400000,0.000000,0.000000,591.494000,0.000000,509.000000,919.176000,7221.108000,,,,,,,,,,,,,,,,,,,,,,,,,,,,,,,,,,,,,,
GEMM_MLP_2,bert_4B_megatron_32DP_8MP,358.400000,450.560000,358.400000,919.176000,0.000000,0.000000,919.176000,509.000000,0.000000,7221.108000,,,,,,,,,,,,,,,,,,,,,,,,,,,,,,,,,,,,,,
,,,,,,,,,,,,,,,,,,,,,,,,,,,,,,,,,,,,,,,,,,,,,,,,,
,,,,,,,,,,,,,,,,,,,,,,,,,,,,,,,,,,,,,,,,,,,,,,,,,
,,,,,,,,,,,,,,,,,,,,,,,,,,,,,,,,,,,,,,,,,,,,,,,,,
,,,,,,,,,,,,,,,,,,,,,,,,,,,,,,,,,,,,,,,,,,,,,,,,,
,,,,,,,,,,,,,,,,,,,,,,,,,,,,,,,,,,,,,,,,,,,,,,,,,
,,,,,,,,,,,,,,,,,,,,,,,,,,,,,,,,,,,,,,,,,,,,,,,,,
,,,,,,,,,,,,,,,,,,,,,,,,,,,,,,,,,,,,,,,,,,,,,,,,,
,,,,,,,,,,,,,,,,,,,,,,,,,,,,,,,,,,,,,,,,,,,,,,,,,
,,,,,,,,,,,,,,,,,,,,,,,,,,,,,,,,,,,,,,,,,,,,,,,,,
,,,,,,,,,,,,,,,,,,,,,,,,,,,,,,,,,,,,,,,,,,,,,,,,,
,,,,,,,,,,,,,,,,,,,,,,,,,,,,,,,,,,,,,,,,,,,,,,,,,
,,,,,,,,,,,,,,,,,,,,,,,,,,,,,,,,,,,,,,,,,,,,,,,,,
,,,,,,,,,,,,,,,,,,,,,,,,,,,,,,,,,,,,,,,,,,,,,,,,,
,,,,,,,,,,,,,,,,,,,,,,,,,,,,,,,,,,,,,,,,,,,,,,,,,
,,,,,,,,,,,,,,,,,,,,,,,,,,,,,,,,,,,,,,,,,,,,,,,,,
,,,,,,,,,,,,,,,,,,,,,,,,,,,,,,,,,,,,,,,,,,,,,,,,,
,,,,,,,,,,,,,,,,,,,,,,,,,,,,,,,,,,,,,,,,,,,,,,,,,
,,,,,,,,,,,,,,,,,,,,,,,,,,,,,,,,,,,,,,,,,,,,,,,,,
,,,,,,,,,,,,,,,,,,,,,,,,,,,,,,,,,,,,,,,,,,,,,,,,,
