,,fwd compute,wg compute,ig compute,fwd exposed comm,wg exposed comm,ig exposed comm,fwd total comm,wg total comm,ig total comm,workload finished at,total comp,total exposed comm,,,,,,,,,,,,,,,,,,,,,,,,,,,,,,,,,,,,
GEMM_Q_GEN,gpt2_8B_megatron,350.208000,442.368000,350.208000,0.000000,0.000000,3515.824000,0.000000,0.000000,3958.194000,32691.956000,19070.976000,13620.980000,,,,,,,,,,,,,,,,,,,,,,,,,,,,,,,,,,,,
GEMM_K_GEN,gpt2_8B_megatron,350.208000,442.368000,350.208000,0.000000,0.000000,0.000000,0.000000,0.000000,0.000000,32691.956000,,,,,,,,,,,,,,,,,,,,,,,,,,,,,,,,,,,,,,
GEMM_V_GEN,gpt2_8B_megatron,350.208000,442.368000,350.208000,0.000000,0.000000,0.000000,0.000000,0.000000,0.000000,32691.956000,,,,,,,,,,,,,,,,,,,,,,,,,,,,,,,,,,,,,,
GEMM_QK,gpt2_8B_megatron,933.888000,0.000000,933.888000,0.000000,0.000000,0.000000,0.000000,0.000000,0.000000,32691.956000,,,,,,,,,,,,,,,,,,,,,,,,,,,,,,,,,,,,,,
GEMM_QKV,gpt2_8B_megatron,933.888000,0.000000,933.888000,0.000000,0.000000,0.000000,0.000000,0.000000,0.000000,32691.956000,,,,,,,,,,,,,,,,,,,,,,,,,,,,,,,,,,,,,,
GEMM_Linear,gpt2_8B_megatron,350.208000,1474.560000,350.208000,3958.194000,0.000000,0.000000,3958.194000,0.000000,0.000000,32691.956000,,,,,,,,,,,,,,,,,,,,,,,,,,,,,,,,,,,,,,
GEMM_MLP_1,gpt2_8B_megatron,1400.832000,1769.472000,1400.832000,0.000000,0.000000,2188.720000,0.000000,0.000000,3958.194000,32691.956000,,,,,,,,,,,,,,,,,,,,,,,,,,,,,,,,,,,,,,
GEMM_MLP_2,gpt2_8B_megatron,1400.832000,2359.296000,1400.832000,3958.194000,0.000000,0.000000,3958.194000,0.000000,0.000000,32691.956000,,,,,,,,,,,,,,,,,,,,,,,,,,,,,,,,,,,,,,
,,,,,,,,,,,,,,,,,,,,,,,,,,,,,,,,,,,,,,,,,,,,,,,,,
,,,,,,,,,,,,,,,,,,,,,,,,,,,,,,,,,,,,,,,,,,,,,,,,,
,,,,,,,,,,,,,,,,,,,,,,,,,,,,,,,,,,,,,,,,,,,,,,,,,
,,,,,,,,,,,,,,,,,,,,,,,,,,,,,,,,,,,,,,,,,,,,,,,,,
,,,,,,,,,,,,,,,,,,,,,,,,,,,,,,,,,,,,,,,,,,,,,,,,,
,,,,,,,,,,,,,,,,,,,,,,,,,,,,,,,,,,,,,,,,,,,,,,,,,
,,,,,,,,,,,,,,,,,,,,,,,,,,,,,,,,,,,,,,,,,,,,,,,,,
,,,,,,,,,,,,,,,,,,,,,,,,,,,,,,,,,,,,,,,,,,,,,,,,,
,,,,,,,,,,,,,,,,,,,,,,,,,,,,,,,,,,,,,,,,,,,,,,,,,
,,,,,,,,,,,,,,,,,,,,,,,,,,,,,,,,,,,,,,,,,,,,,,,,,
,,,,,,,,,,,,,,,,,,,,,,,,,,,,,,,,,,,,,,,,,,,,,,,,,
,,,,,,,,,,,,,,,,,,,,,,,,,,,,,,,,,,,,,,,,,,,,,,,,,
,,,,,,,,,,,,,,,,,,,,,,,,,,,,,,,,,,,,,,,,,,,,,,,,,
,,,,,,,,,,,,,,,,,,,,,,,,,,,,,,,,,,,,,,,,,,,,,,,,,
,,,,,,,,,,,,,,,,,,,,,,,,,,,,,,,,,,,,,,,,,,,,,,,,,
,,,,,,,,,,,,,,,,,,,,,,,,,,,,,,,,,,,,,,,,,,,,,,,,,
,,,,,,,,,,,,,,,,,,,,,,,,,,,,,,,,,,,,,,,,,,,,,,,,,
,,,,,,,,,,,,,,,,,,,,,,,,,,,,,,,,,,,,,,,,,,,,,,,,,
,,,,,,,,,,,,,,,,,,,,,,,,,,,,,,,,,,,,,,,,,,,,,,,,,
