Layer name,ifmap height,ifmap width,filter height,filter width,channels,num filter,strides,
Conv1,37,802816,1,802816,1,8,1,
CB2a_1,16,200704,1,200704,1,8,1,
CB2a_2,144,200704,1,200704,1,8,1,
CB2a_3,16,200704,1,200704,1,32,1,
CB2s,16,200704,1,200704,1,32,1,
IB2b_1,64,200704,1,200704,1,8,1,
IB2b_2,144,200704,1,200704,1,8,1,
IB2b_3,16,200704,1,200704,1,32,1,
IB2c_1,64,200704,1,200704,1,8,1,
IB2c_2,144,200704,1,200704,1,8,1,
IB2c_3,16,200704,1,200704,1,32,1,
CB3a_1,64,50176,1,50176,1,16,1,
CB3a_2,288,50176,1,50176,1,16,1,
CB3a_3,32,50176,1,50176,1,64,1,
CB3s,64,50176,1,50176,1,64,1,
IB3b_1,128,50176,1,50176,1,16,1,
IB3b_2,288,50176,1,50176,1,16,1,
IB3b_3,32,50176,1,50176,1,64,1,
IB3c_1,128,50176,1,50176,1,16,1,
IB3c_2,288,50176,1,50176,1,16,1,
IB3c_3,32,50176,1,50176,1,64,1,
IB3d_1,128,50176,1,50176,1,16,1,
IB3d_2,288,50176,1,50176,1,16,1,
IB3d_3,32,50176,1,50176,1,64,1,
CB4a_1,128,12544,1,12544,1,32,1,
CB4a_2,576,12544,1,12544,1,32,1,
CB4a_3,64,12544,1,12544,1,128,1,
CB4s,128,12544,1,12544,1,128,1,
IB4b_1,256,12544,1,12544,1,32,1,
IB4b_2,576,12544,1,12544,1,32,1,
IB4b_3,64,12544,1,12544,1,128,1,
IB4c_1,256,12544,1,12544,1,32,1,
IB4c_2,576,12544,1,12544,1,32,1,
IB4c_3,64,12544,1,12544,1,128,1,
IB4d_1,256,12544,1,12544,1,32,1,
IB4d_2,576,12544,1,12544,1,32,1,
IB4d_3,64,12544,1,12544,1,128,1,
IB4e_1,256,12544,1,12544,1,32,1,
IB4e_2,576,12544,1,12544,1,32,1,
IB4e_3,64,12544,1,12544,1,128,1,
IB4f_1,256,12544,1,12544,1,32,1,
IB4f_2,576,12544,1,12544,1,32,1,
IB4f_3,64,12544,1,12544,1,128,1,
CB5a_1,256,3136,1,3136,1,64,1,
CB5a_2,1152,3136,1,3136,1,64,1,
CB5a_3,128,3136,1,3136,1,256,1,
CB5s,256,3136,1,3136,1,256,1,
IB5b_1,512,3136,1,3136,1,64,1,
IB5b_2,1152,3136,1,3136,1,64,1,
IB5b_3,128,3136,1,3136,1,256,1,
IB5c_1,512,3136,1,3136,1,64,1,
IB5c_2,1152,3136,1,3136,1,64,1,
IB5c_3,128,3136,1,3136,1,256,1,
FC6,512,64,1,64,1,125,1,
