Layer name,ifmap height,ifmap width,filter height,filter width,channels,num filter,strides,
MLP_Bottom_0,4,4,1,4,1,256,1,
MLP_Bottom_1,128,4,1,4,1,256,1,
MLP_Bottom_2,128,4,1,4,1,256,1,
MLP_Bottom_3,128,4,1,4,1,8,1,
MLP_Top_0,260,4,1,4,1,256,1,
MLP_Top_1,128,4,1,4,1,256,1,
MLP_Top_2,128,4,1,4,1,256,1,
