Layer,	Cycles,	% Utilization,
MLP_Bottom_0,	168,	20.3125,
MLP_Bottom_1,	3080,	100.0,
MLP_Bottom_2,	3080,	100.0,
MLP_Bottom_3,	1060,	6.25,
MLP_Top_0,	6482,	95.65334773218143,
MLP_Top_1,	3080,	100.0,
MLP_Top_2,	3080,	100.0,
