,,queuing delay phase 0,queuing delay phase 1,queuing delay phase 2,queuing delay phase 3,network delay phase 1,network delay phase 2,network delay phase 3,avg chunk delay dimension 1,avg chunk delay dimension 2,avg chunk delay dimension 3,,,,,,,,,,,,,,,,,,,,,,,,,,,,,,,,,,,,,,
conv1,gpt2_8B_megatron,0.000000,4.570500,4.539500,0.777250,1.002333,1.000583,1.002333,-nan,76.739414,40.997656,,,,,,,,,,,,,,,,,,,,,,,,,,,,,,,,,,,,,,
conv2,gpt2_8B_megatron,0.000000,4.783750,4.433000,0.973000,1.049750,1.012458,1.049833,,,,,,,,,,,,,,,,,,,,,,,,,,,,,,,,,,,,,,,,,
conv3,gpt2_8B_megatron,0.000000,5.007750,4.321000,1.178500,1.099583,1.024917,1.099667,,,,,,,,,,,,,,,,,,,,,,,,,,,,,,,,,,,,,,,,,
conv4,gpt2_8B_megatron,0.000000,5.456250,4.096500,1.589500,1.199250,1.049833,1.199250,,,,,,,,,,,,,,,,,,,,,,,,,,,,,,,,,,,,,,,,,
conv5,gpt2_8B_megatron,0.000000,6.353000,3.648250,2.705000,1.398500,1.099625,1.398583,,,,,,,,,,,,,,,,,,,,,,,,,,,,,,,,,,,,,,,,,
conv6,gpt2_8B_megatron,0.000000,132.628000,70.958000,86.264500,1.916000,1.199250,1.916000,,,,,,,,,,,,,,,,,,,,,,,,,,,,,,,,,,,,,,,,,
conv7,gpt2_8B_megatron,0.000000,259.322000,2.216000,7.882500,1.916000,1.199250,1.916000,,,,,,,,,,,,,,,,,,,,,,,,,,,,,,,,,,,,,,,,,
conv8,gpt2_8B_megatron,0.000000,287.762500,0.000000,24.356000,3.633000,1.398500,3.633000,,,,,,,,,,,,,,,,,,,,,,,,,,,,,,,,,,,,,,,,,
conv9,gpt2_8B_megatron,0.000000,33.678500,0.000000,52.161500,7.066000,1.916000,7.066000,,,,,,,,,,,,,,,,,,,,,,,,,,,,,,,,,,,,,,,,,
conv10,gpt2_8B_megatron,0.000000,887.780500,0.000000,52.161500,7.066000,1.916000,7.066000,,,,,,,,,,,,,,,,,,,,,,,,,,,,,,,,,,,,,,,,,
conv11,gpt2_8B_megatron,0.000000,505.302500,414.217500,875.680000,7.066000,1.916000,7.066000,,,,,,,,,,,,,,,,,,,,,,,,,,,,,,,,,,,,,,,,,
conv12,gpt2_8B_megatron,0.000000,911.572500,375.493500,1084.308000,7.066000,1.916000,7.066000,,,,,,,,,,,,,,,,,,,,,,,,,,,,,,,,,,,,,,,,,
conv13,gpt2_8B_megatron,0.000000,164.563500,414.217500,706.235000,7.066000,1.916000,7.066000,,,,,,,,,,,,,,,,,,,,,,,,,,,,,,,,,,,,,,,,,
fc1,gpt2_8B_megatron,0.000000,1393.093500,0.000000,3000.609500,299.272000,74.968000,299.272000,,,,,,,,,,,,,,,,,,,,,,,,,,,,,,,,,,,,,,,,,
fc2,gpt2_8B_megatron,0.000000,2269.120000,0.000000,6533.616000,49.028000,12.407000,49.028000,,,,,,,,,,,,,,,,,,,,,,,,,,,,,,,,,,,,,,,,,
fc3,gpt2_8B_megatron,0.000000,2402.573000,0.000000,7133.915000,12.120000,3.180000,12.120000,,,,,,,,,,,,,,,,,,,,,,,,,,,,,,,,,,,,,,,,,
,,,,,,,,,,,,,,,,,,,,,,,,,,,,,,,,,,,,,,,,,,,,,,,,,
,,,,,,,,,,,,,,,,,,,,,,,,,,,,,,,,,,,,,,,,,,,,,,,,,
,,,,,,,,,,,,,,,,,,,,,,,,,,,,,,,,,,,,,,,,,,,,,,,,,
,,,,,,,,,,,,,,,,,,,,,,,,,,,,,,,,,,,,,,,,,,,,,,,,,
,,,,,,,,,,,,,,,,,,,,,,,,,,,,,,,,,,,,,,,,,,,,,,,,,
,,,,,,,,,,,,,,,,,,,,,,,,,,,,,,,,,,,,,,,,,,,,,,,,,
,,,,,,,,,,,,,,,,,,,,,,,,,,,,,,,,,,,,,,,,,,,,,,,,,
,,,,,,,,,,,,,,,,,,,,,,,,,,,,,,,,,,,,,,,,,,,,,,,,,
,,,,,,,,,,,,,,,,,,,,,,,,,,,,,,,,,,,,,,,,,,,,,,,,,
,,,,,,,,,,,,,,,,,,,,,,,,,,,,,,,,,,,,,,,,,,,,,,,,,
,,,,,,,,,,,,,,,,,,,,,,,,,,,,,,,,,,,,,,,,,,,,,,,,,
,,,,,,,,,,,,,,,,,,,,,,,,,,,,,,,,,,,,,,,,,,,,,,,,,
,,,,,,,,,,,,,,,,,,,,,,,,,,,,,,,,,,,,,,,,,,,,,,,,,
,,,,,,,,,,,,,,,,,,,,,,,,,,,,,,,,,,,,,,,,,,,,,,,,,
,,,,,,,,,,,,,,,,,,,,,,,,,,,,,,,,,,,,,,,,,,,,,,,,,
,,,,,,,,,,,,,,,,,,,,,,,,,,,,,,,,,,,,,,,,,,,,,,,,,
,,,,,,,,,,,,,,,,,,,,,,,,,,,,,,,,,,,,,,,,,,,,,,,,,
,,,,,,,,,,,,,,,,,,,,,,,,,,,,,,,,,,,,,,,,,,,,,,,,,
,,,,,,,,,,,,,,,,,,,,,,,,,,,,,,,,,,,,,,,,,,,,,,,,,
