Layer,	Cycles,	% Utilization,
LSTM_1,	513,	0.78125,
LSTM_2,	513,	0.78125,
LSTM_3,	513,	0.78125,
LSTM_4,	513,	0.78125,
LSTM_5,	513,	0.78125,
LSTM_6,	513,	0.78125,
LSTM_7,	513,	0.78125,
LSTM_8,	513,	0.78125,
