Layer,	Cycles,	% Utilization,
GEMM_Q_GEN,	205824,	100.0,
GEMM_K_GEN,	205824,	100.0,
GEMM_V_GEN,	205824,	100.0,
GEMM_QK,	68608,	100.0,
GEMM_QKV,	68608,	100.0,
GEMM_Linear,	617472,	100.0,
GEMM_MLP_1,	2469888,	100.0,
GEMM_MLP_2,	2469888,	100.0,
