Layer name,ifmap height,ifmap width,filter height,filter width,channels,num filter,strides,
GEMM_Q_GEN,768,32768,1,32768,1,128,1,
GEMM_K_GEN,768,32768,1,32768,1,128,1,
GEMM_V_GEN,768,32768,1,32768,1,128,1,
GEMM_QK,32,32768,1,32768,1,1024,1,
GEMM_QKV,256,32768,1,32768,1,128,1,
GEMM_Linear,96,32768,1,32768,1,3072,1,
GEMM_MLP_1,768,32768,1,32768,1,1536,1,
GEMM_MLP_2,384,32768,1,32768,1,3072,1,
