Layer name,ifmap height,ifmap width,filter height,filter width,channels,num filter,strides,
Conv1,200704,147,1,147,1,4,1,
CB2a_1,50176,64,1,64,1,4,1,
CB2a_2,50176,576,1,576,1,4,1,
CB2a_3,50176,64,1,64,1,16,1,
CB2s,50176,64,1,64,1,16,1,
IB2b_1,50176,256,1,256,1,4,1,
IB2b_2,50176,576,1,576,1,4,1,
IB2b_3,50176,64,1,64,1,16,1,
IB2c_1,50176,256,1,256,1,4,1,
IB2c_2,50176,576,1,576,1,4,1,
IB2c_3,50176,64,1,64,1,16,1,
CB3a_1,12544,256,1,256,1,8,1,
CB3a_2,12544,1152,1,1152,1,8,1,
CB3a_3,12544,128,1,128,1,32,1,
CB3s,12544,256,1,256,1,32,1,
IB3b_1,12544,512,1,512,1,8,1,
IB3b_2,12544,1152,1,1152,1,8,1,
IB3b_3,12544,128,1,128,1,32,1,
IB3c_1,12544,512,1,512,1,8,1,
IB3c_2,12544,1152,1,1152,1,8,1,
IB3c_3,12544,128,1,128,1,32,1,
IB3d_1,12544,512,1,512,1,8,1,
IB3d_2,12544,1152,1,1152,1,8,1,
IB3d_3,12544,128,1,128,1,32,1,
CB4a_1,3136,512,1,512,1,16,1,
CB4a_2,3136,2304,1,2304,1,16,1,
CB4a_3,3136,256,1,256,1,64,1,
CB4s,3136,512,1,512,1,64,1,
IB4b_1,3136,1024,1,1024,1,16,1,
IB4b_2,3136,2304,1,2304,1,16,1,
IB4b_3,3136,256,1,256,1,64,1,
IB4c_1,3136,1024,1,1024,1,16,1,
IB4c_2,3136,2304,1,2304,1,16,1,
IB4c_3,3136,256,1,256,1,64,1,
IB4d_1,3136,1024,1,1024,1,16,1,
IB4d_2,3136,2304,1,2304,1,16,1,
IB4d_3,3136,256,1,256,1,64,1,
IB4e_1,3136,1024,1,1024,1,16,1,
IB4e_2,3136,2304,1,2304,1,16,1,
IB4e_3,3136,256,1,256,1,64,1,
IB4f_1,3136,1024,1,1024,1,16,1,
IB4f_2,3136,2304,1,2304,1,16,1,
IB4f_3,3136,256,1,256,1,64,1,
CB5a_1,784,1024,1,1024,1,32,1,
CB5a_2,784,4608,1,4608,1,32,1,
CB5a_3,784,512,1,512,1,128,1,
CB5s,784,1024,1,1024,1,128,1,
IB5b_1,784,2048,1,2048,1,32,1,
IB5b_2,784,4608,1,4608,1,32,1,
IB5b_3,784,512,1,512,1,128,1,
IB5c_1,784,2048,1,2048,1,32,1,
IB5c_2,784,4608,1,4608,1,32,1,
IB5c_3,784,512,1,512,1,128,1,
FC6,16,2048,1,2048,1,63,1,
