Layer,	Cycles,	% Utilization,
conv1,	6999552,	12.5,
conv2,	10436608,	12.5,
conv3,	2709504,	25.0,
conv4,	3612672,	25.0,
conv5,	953344,	50.0,
conv6,	1404928,	50.0,
conv7,	1404928,	50.0,
conv8,	376320,	100.0,
conv9,	602112,	100.0,
conv10,	602112,	100.0,
conv11,	150528,	100.0,
conv12,	150528,	100.0,
conv13,	150528,	100.0,
fc1,	26368,	100.0,
fc2,	5376,	100.0,
fc3,	1344,	97.65625,
