Layer,	Cycles,	% Utilization,
GEMM_Q_GEN,	1296,	100.0,
GEMM_K_GEN,	1296,	100.0,
GEMM_V_GEN,	1296,	100.0,
GEMM_QK,	1344,	50.0,
GEMM_QKV,	1232,	50.0,
GEMM_Linear,	22528,	100.0,
GEMM_MLP_1,	90112,	100.0,
GEMM_MLP_2,	90112,	100.0,
