Layer,	Cycles,	% Utilization,
Conv1,	6448,	14.35546875,
CB2a_1,	1664,	6.25,
CB2a_2,	1792,	56.25,
CB2a_3,	1760,	25.0,
CB2s,	1760,	25.0,
IB2b_1,	1744,	25.0,
IB2b_2,	1792,	56.25,
IB2b_3,	1760,	25.0,
IB2c_1,	1744,	25.0,
IB2c_2,	1792,	56.25,
IB2c_3,	1760,	25.0,
CB3a_1,	616,	50.0,
CB3a_2,	1944,	77.46913580246914,
CB3a_3,	776,	100.0,
CB3s,	1552,	100.0,
IB3b_1,	680,	100.0,
IB3b_2,	1944,	77.46913580246914,
IB3b_3,	776,	100.0,
IB3c_1,	680,	100.0,
IB3c_2,	1944,	77.46913580246914,
IB3c_3,	776,	100.0,
IB3d_1,	680,	100.0,
IB3d_2,	1944,	77.46913580246914,
IB3d_3,	776,	100.0,
CB4a_1,	836,	100.0,
CB4a_2,	3762,	100.0,
CB4a_3,	1928,	100.0,
CB4s,	3856,	100.0,
IB4b_1,	1672,	100.0,
IB4b_2,	3762,	100.0,
IB4b_3,	1928,	100.0,
IB4c_1,	1672,	100.0,
IB4c_2,	3762,	100.0,
IB4c_3,	1928,	100.0,
IB4d_1,	1672,	100.0,
IB4d_2,	3762,	100.0,
IB4d_3,	1928,	100.0,
IB4e_1,	1672,	100.0,
IB4e_2,	3762,	100.0,
IB4e_3,	1928,	100.0,
IB4f_1,	1672,	100.0,
IB4f_2,	3762,	100.0,
IB4f_3,	1928,	100.0,
CB5a_1,	3272,	100.0,
CB5a_2,	14724,	100.0,
CB5a_3,	6544,	100.0,
CB5s,	13088,	100.0,
IB5b_1,	6544,	100.0,
IB5b_2,	14724,	100.0,
IB5b_3,	6544,	100.0,
IB5c_1,	6544,	100.0,
IB5c_2,	14724,	100.0,
IB5c_3,	6544,	100.0,
FC6,	12128,	97.69335422163589,
