Layer,	Cycles,	% Utilization,
Conv1,	25414,	7.223388498957267,
CB2a_1,	3280,	6.25,
CB2a_2,	16912,	11.287842951750235,
CB2a_3,	3328,	25.0,
CB2s,	3328,	25.0,
IB2b_1,	6816,	12.5,
IB2b_2,	16912,	11.287842951750235,
IB2b_3,	3328,	25.0,
IB2c_1,	6816,	12.5,
IB2c_2,	16912,	11.287842951750235,
IB2c_3,	3328,	25.0,
CB3a_1,	2144,	25.0,
CB3a_2,	9648,	25.0,
CB3a_3,	1168,	100.0,
CB3s,	2336,	100.0,
IB3b_1,	4288,	25.0,
IB3b_2,	9648,	25.0,
IB3b_3,	1168,	100.0,
IB3c_1,	4288,	25.0,
IB3c_2,	9648,	25.0,
IB3c_3,	1168,	100.0,
IB3d_1,	4288,	25.0,
IB3d_2,	9648,	25.0,
IB3d_3,	1168,	100.0,
CB4a_1,	2064,	50.0,
CB4a_2,	9288,	50.0,
CB4a_3,	2320,	100.0,
CB4s,	4640,	100.0,
IB4b_1,	4128,	50.0,
IB4b_2,	9288,	50.0,
IB4b_3,	2320,	100.0,
IB4c_1,	4128,	50.0,
IB4c_2,	9288,	50.0,
IB4c_3,	2320,	100.0,
IB4d_1,	4128,	50.0,
IB4d_2,	9288,	50.0,
IB4d_3,	2320,	100.0,
IB4e_1,	4128,	50.0,
IB4e_2,	9288,	50.0,
IB4e_3,	2320,	100.0,
IB4f_1,	4128,	50.0,
IB4f_2,	9288,	50.0,
IB4f_3,	2320,	100.0,
CB5a_1,	3464,	100.0,
CB5a_2,	15588,	100.0,
CB5a_3,	6928,	100.0,
CB5s,	13856,	100.0,
IB5b_1,	6928,	100.0,
IB5b_2,	15588,	100.0,
IB5b_3,	6928,	100.0,
IB5c_1,	6928,	100.0,
IB5c_2,	15588,	100.0,
IB5c_3,	6928,	100.0,
FC6,	12224,	97.67465641361257,
