Layer name,ifmap height,ifmap width,filter height,filter width,channels,num filter,strides,
GEMM_Q_GEN,256,2560,1,2560,1,64,1,
GEMM_K_GEN,256,2560,1,2560,1,64,1,
GEMM_V_GEN,256,2560,1,2560,1,64,1,
GEMM_QK,256,64,1,64,1,512,1,
GEMM_QKV,256,512,1,512,1,64,1,
GEMM_Linear,256,640,1,640,1,2560,1,
GEMM_MLP_1,256,2560,1,2560,1,2560,1,
GEMM_MLP_2,256,2560,1,2560,1,2560,1,
