Layer,	Cycles,	% Utilization,
conv1,	25206,	10.546875,
conv2,	126912,	45.0201714573878,
conv3,	33152,	90.15444015444015,
conv4,	59904,	100.0,
conv5,	35136,	100.0,
conv6,	70272,	100.0,
conv7,	70272,	100.0,
conv8,	55872,	100.0,
conv9,	111744,	100.0,
conv10,	111744,	100.0,
conv11,	69408,	100.0,
conv12,	69408,	100.0,
conv13,	69408,	100.0,
fc1,	2414720,	100.0,
fc2,	394240,	100.0,
fc3,	97792,	97.78509489528795,
