Layer name,ifmap height,ifmap width,filter height,filter width,channels,num filter,strides,
conv1,802816,1,1,1,1,27,1,
conv2,802816,1,1,1,1,576,1,
conv3,200704,2,1,2,1,576,1,
conv4,200704,2,1,2,1,1152,1,
conv5,50176,4,1,4,1,1152,1,
conv6,50176,4,1,4,1,2304,1,
conv7,50176,4,1,4,1,2304,1,
conv8,12544,8,1,8,1,2304,1,
conv9,12544,8,1,8,1,4608,1,
conv10,12544,8,1,8,1,4608,1,
conv11,3136,8,1,8,1,4608,1,
conv12,3136,8,1,8,1,4608,1,
conv13,3136,8,1,8,1,4608,1,
fc1,16,64,1,64,1,25088,1,
fc2,16,64,1,64,1,4096,1,
fc3,16,16,1,16,1,4096,1,
