Layer,	Cycles,	% Utilization,
GEMM_Q_GEN,	15360,	100.0,
GEMM_K_GEN,	15360,	100.0,
GEMM_V_GEN,	15360,	100.0,
GEMM_QK,	5120,	100.0,
GEMM_QKV,	5120,	100.0,
GEMM_Linear,	46080,	100.0,
GEMM_MLP_1,	184320,	100.0,
GEMM_MLP_2,	184320,	100.0,
