,,queuing delay phase 0,queuing delay phase 1,queuing delay phase 2,queuing delay phase 3,network delay phase 1,network delay phase 2,network delay phase 3,avg chunk delay dimension 1,avg chunk delay dimension 2,avg chunk delay dimension 3,,,,,,,,,,,,,,,,,,,,,,,,,,,,,,,,,,,,,,
Conv1,gpt2_8B_megatron,0.000000,1.567875,1.515000,0.288000,1.025375,1.012750,1.025500,-nan,3.249013,3.988572,,,,,,,,,,,,,,,,,,,,,,,,,,,,,,,,,,,,,,
CB2a_1,gpt2_8B_megatron,0.000000,1.546500,1.515000,0.273500,1.011000,1.005500,1.011000,,,,,,,,,,,,,,,,,,,,,,,,,,,,,,,,,,,,,,,,,
CB2a_2,gpt2_8B_megatron,0.000000,1.679250,1.515000,0.362250,1.099625,1.049813,1.099500,,,,,,,,,,,,,,,,,,,,,,,,,,,,,,,,,,,,,,,,,
CB2a_3,gpt2_8B_megatron,0.000000,1.596250,1.515000,0.306750,1.044250,1.022125,1.044250,,,,,,,,,,,,,,,,,,,,,,,,,,,,,,,,,,,,,,,,,
CB2s,gpt2_8B_megatron,0.000000,1.596250,1.515000,0.306750,1.044250,1.022125,1.044250,,,,,,,,,,,,,,,,,,,,,,,,,,,,,,,,,,,,,,,,,
IB2b_1,gpt2_8B_megatron,0.000000,1.596250,1.515000,0.306750,1.044250,1.022125,1.044250,,,,,,,,,,,,,,,,,,,,,,,,,,,,,,,,,,,,,,,,,
IB2b_2,gpt2_8B_megatron,0.000000,1.679250,1.515000,0.362250,1.099625,1.049813,1.099500,,,,,,,,,,,,,,,,,,,,,,,,,,,,,,,,,,,,,,,,,
IB2b_3,gpt2_8B_megatron,0.000000,1.596250,1.515000,0.306750,1.044250,1.022125,1.044250,,,,,,,,,,,,,,,,,,,,,,,,,,,,,,,,,,,,,,,,,
IB2c_1,gpt2_8B_megatron,0.000000,1.596250,1.515000,0.306750,1.044250,1.022125,1.044250,,,,,,,,,,,,,,,,,,,,,,,,,,,,,,,,,,,,,,,,,
IB2c_2,gpt2_8B_megatron,0.000000,1.679250,1.515000,0.362250,1.099625,1.049813,1.099500,,,,,,,,,,,,,,,,,,,,,,,,,,,,,,,,,,,,,,,,,
IB2c_3,gpt2_8B_megatron,0.000000,1.596250,1.515000,0.306750,1.044250,1.022125,1.044250,,,,,,,,,,,,,,,,,,,,,,,,,,,,,,,,,,,,,,,,,
CB3a_1,gpt2_8B_megatron,0.000000,1.662750,1.515000,0.351000,1.088500,1.044250,1.088500,,,,,,,,,,,,,,,,,,,,,,,,,,,,,,,,,,,,,,,,,
CB3a_2,gpt2_8B_megatron,0.000000,2.127750,1.515000,0.661000,1.398500,1.199250,1.398500,,,,,,,,,,,,,,,,,,,,,,,,,,,,,,,,,,,,,,,,,
CB3a_3,gpt2_8B_megatron,0.000000,1.795500,1.515000,0.439750,1.177125,1.088563,1.177000,,,,,,,,,,,,,,,,,,,,,,,,,,,,,,,,,,,,,,,,,
CB3s,gpt2_8B_megatron,0.000000,2.061250,1.515000,0.616625,1.354125,1.177125,1.354500,,,,,,,,,,,,,,,,,,,,,,,,,,,,,,,,,,,,,,,,,
IB3b_1,gpt2_8B_megatron,0.000000,1.795500,1.515000,0.439750,1.177125,1.088563,1.177000,,,,,,,,,,,,,,,,,,,,,,,,,,,,,,,,,,,,,,,,,
IB3b_2,gpt2_8B_megatron,0.000000,2.127750,1.515000,0.661000,1.398500,1.199250,1.398500,,,,,,,,,,,,,,,,,,,,,,,,,,,,,,,,,,,,,,,,,
IB3b_3,gpt2_8B_megatron,0.000000,1.795500,1.515000,0.439750,1.177125,1.088563,1.177000,,,,,,,,,,,,,,,,,,,,,,,,,,,,,,,,,,,,,,,,,
IB3c_1,gpt2_8B_megatron,0.000000,1.795500,1.515000,0.439750,1.177125,1.088563,1.177000,,,,,,,,,,,,,,,,,,,,,,,,,,,,,,,,,,,,,,,,,
IB3c_2,gpt2_8B_megatron,0.000000,2.127750,1.515000,0.661000,1.398500,1.199250,1.398500,,,,,,,,,,,,,,,,,,,,,,,,,,,,,,,,,,,,,,,,,
IB3c_3,gpt2_8B_megatron,0.000000,1.795500,1.515000,0.439750,1.177125,1.088563,1.177000,,,,,,,,,,,,,,,,,,,,,,,,,,,,,,,,,,,,,,,,,
IB3d_1,gpt2_8B_megatron,0.000000,1.795500,1.515000,0.439750,1.177125,1.088563,1.177000,,,,,,,,,,,,,,,,,,,,,,,,,,,,,,,,,,,,,,,,,
IB3d_2,gpt2_8B_megatron,0.000000,2.127750,1.515000,0.661000,1.398500,1.199250,1.398500,,,,,,,,,,,,,,,,,,,,,,,,,,,,,,,,,,,,,,,,,
IB3d_3,gpt2_8B_megatron,0.000000,1.795500,1.515000,0.439750,1.177125,1.088563,1.177000,,,,,,,,,,,,,,,,,,,,,,,,,,,,,,,,,,,,,,,,,
CB4a_1,gpt2_8B_megatron,0.000000,2.061250,1.515000,0.616625,1.354125,1.177125,1.354500,,,,,,,,,,,,,,,,,,,,,,,,,,,,,,,,,,,,,,,,,
CB4a_2,gpt2_8B_megatron,0.000000,5.479500,0.313500,6.783500,3.633000,1.916000,3.633000,,,,,,,,,,,,,,,,,,,,,,,,,,,,,,,,,,,,,,,,,
CB4a_3,gpt2_8B_megatron,0.000000,2.617500,1.490125,1.127375,1.725000,1.354188,1.725000,,,,,,,,,,,,,,,,,,,,,,,,,,,,,,,,,,,,,,,,,
CB4s,gpt2_8B_megatron,0.000000,4.906500,0.313500,6.019500,3.251000,1.725000,3.251000,,,,,,,,,,,,,,,,,,,,,,,,,,,,,,,,,,,,,,,,,
IB4b_1,gpt2_8B_megatron,0.000000,2.617500,1.490125,1.127375,1.725000,1.354188,1.725000,,,,,,,,,,,,,,,,,,,,,,,,,,,,,,,,,,,,,,,,,
IB4b_2,gpt2_8B_megatron,0.000000,5.479500,0.313500,6.783500,3.633000,1.916000,3.633000,,,,,,,,,,,,,,,,,,,,,,,,,,,,,,,,,,,,,,,,,
IB4b_3,gpt2_8B_megatron,0.000000,2.617500,1.490125,1.127375,1.725000,1.354188,1.725000,,,,,,,,,,,,,,,,,,,,,,,,,,,,,,,,,,,,,,,,,
IB4c_1,gpt2_8B_megatron,0.000000,2.617500,1.490125,1.127375,1.725000,1.354188,1.725000,,,,,,,,,,,,,,,,,,,,,,,,,,,,,,,,,,,,,,,,,
IB4c_2,gpt2_8B_megatron,0.000000,5.479500,0.313500,6.783500,3.633000,1.916000,3.633000,,,,,,,,,,,,,,,,,,,,,,,,,,,,,,,,,,,,,,,,,
IB4c_3,gpt2_8B_megatron,0.000000,2.617500,1.490125,1.127375,1.725000,1.354188,1.725000,,,,,,,,,,,,,,,,,,,,,,,,,,,,,,,,,,,,,,,,,
IB4d_1,gpt2_8B_megatron,0.000000,2.617500,1.490125,1.127375,1.725000,1.354188,1.725000,,,,,,,,,,,,,,,,,,,,,,,,,,,,,,,,,,,,,,,,,
IB4d_2,gpt2_8B_megatron,0.000000,5.479500,0.313500,6.783500,3.633000,1.916000,3.633000,,,,,,,,,,,,,,,,,,,,,,,,,,,,,,,,,,,,,,,,,
IB4d_3,gpt2_8B_megatron,0.000000,2.617500,1.490125,1.127375,1.725000,1.354188,1.725000,,,,,,,,,,,,,,,,,,,,,,,,,,,,,,,,,,,,,,,,,
IB4e_1,gpt2_8B_megatron,0.000000,2.617500,1.490125,1.127375,1.725000,1.354188,1.725000,,,,,,,,,,,,,,,,,,,,,,,,,,,,,,,,,,,,,,,,,
IB4e_2,gpt2_8B_megatron,0.000000,5.479500,0.313500,6.783500,3.633000,1.916000,3.633000,,,,,,,,,,,,,,,,,,,,,,,,,,,,,,,,,,,,,,,,,
IB4e_3,gpt2_8B_megatron,0.000000,2.617500,1.490125,1.127375,1.725000,1.354188,1.725000,,,,,,,,,,,,,,,,,,,,,,,,,,,,,,,,,,,,,,,,,
IB4f_1,gpt2_8B_megatron,0.000000,2.617500,1.490125,1.127375,1.725000,1.354188,1.725000,,,,,,,,,,,,,,,,,,,,,,,,,,,,,,,,,,,,,,,,,
IB4f_2,gpt2_8B_megatron,0.000000,5.479500,0.313500,6.783500,3.633000,1.916000,3.633000,,,,,,,,,,,,,,,,,,,,,,,,,,,,,,,,,,,,,,,,,
IB4f_3,gpt2_8B_megatron,0.000000,2.617500,1.490125,1.127375,1.725000,1.354188,1.725000,,,,,,,,,,,,,,,,,,,,,,,,,,,,,,,,,,,,,,,,,
CB5a_1,gpt2_8B_megatron,0.000000,4.906500,0.313500,6.019500,3.251000,1.725000,3.251000,,,,,,,,,,,,,,,,,,,,,,,,,,,,,,,,,,,,,,,,,
CB5a_2,gpt2_8B_megatron,0.000000,20.937000,0.310500,27.389500,13.932000,7.066000,13.932000,,,,,,,,,,,,,,,,,,,,,,,,,,,,,,,,,,,,,,,,,
CB5a_3,gpt2_8B_megatron,0.000000,9.489000,0.309000,12.132500,6.303000,3.251000,6.303000,,,,,,,,,,,,,,,,,,,,,,,,,,,,,,,,,,,,,,,,,
CB5s,gpt2_8B_megatron,0.000000,18.649500,0.309000,24.342000,12.407000,6.303000,12.407000,,,,,,,,,,,,,,,,,,,,,,,,,,,,,,,,,,,,,,,,,
IB5b_1,gpt2_8B_megatron,0.000000,9.489000,0.309000,12.132500,6.303000,3.251000,6.303000,,,,,,,,,,,,,,,,,,,,,,,,,,,,,,,,,,,,,,,,,
IB5b_2,gpt2_8B_megatron,0.000000,20.937000,0.310500,27.389500,13.932000,7.066000,13.932000,,,,,,,,,,,,,,,,,,,,,,,,,,,,,,,,,,,,,,,,,
IB5b_3,gpt2_8B_megatron,0.000000,9.489000,0.309000,12.132500,6.303000,3.251000,6.303000,,,,,,,,,,,,,,,,,,,,,,,,,,,,,,,,,,,,,,,,,
IB5c_1,gpt2_8B_megatron,0.000000,9.489000,0.309000,12.132500,6.303000,3.251000,6.303000,,,,,,,,,,,,,,,,,,,,,,,,,,,,,,,,,,,,,,,,,
IB5c_2,gpt2_8B_megatron,0.000000,20.937000,0.310500,27.389500,13.932000,7.066000,13.932000,,,,,,,,,,,,,,,,,,,,,,,,,,,,,,,,,,,,,,,,,
IB5c_3,gpt2_8B_megatron,0.000000,9.489000,0.309000,12.132500,6.303000,3.251000,6.303000,,,,,,,,,,,,,,,,,,,,,,,,,,,,,,,,,,,,,,,,,
FC6,gpt2_8B_megatron,0.000000,18.219000,0.310500,23.765500,12.120000,6.160000,12.120000,,,,,,,,,,,,,,,,,,,,,,,,,,,,,,,,,,,,,,,,,
,,,,,,,,,,,,,,,,,,,,,,,,,,,,,,,,,,,,,,,,,,,,,,,,,
,,,,,,,,,,,,,,,,,,,,,,,,,,,,,,,,,,,,,,,,,,,,,,,,,
,,,,,,,,,,,,,,,,,,,,,,,,,,,,,,,,,,,,,,,,,,,,,,,,,
,,,,,,,,,,,,,,,,,,,,,,,,,,,,,,,,,,,,,,,,,,,,,,,,,
,,,,,,,,,,,,,,,,,,,,,,,,,,,,,,,,,,,,,,,,,,,,,,,,,
,,,,,,,,,,,,,,,,,,,,,,,,,,,,,,,,,,,,,,,,,,,,,,,,,
,,,,,,,,,,,,,,,,,,,,,,,,,,,,,,,,,,,,,,,,,,,,,,,,,
,,,,,,,,,,,,,,,,,,,,,,,,,,,,,,,,,,,,,,,,,,,,,,,,,
,,,,,,,,,,,,,,,,,,,,,,,,,,,,,,,,,,,,,,,,,,,,,,,,,
,,,,,,,,,,,,,,,,,,,,,,,,,,,,,,,,,,,,,,,,,,,,,,,,,
,,,,,,,,,,,,,,,,,,,,,,,,,,,,,,,,,,,,,,,,,,,,,,,,,
,,,,,,,,,,,,,,,,,,,,,,,,,,,,,,,,,,,,,,,,,,,,,,,,,
,,,,,,,,,,,,,,,,,,,,,,,,,,,,,,,,,,,,,,,,,,,,,,,,,
,,,,,,,,,,,,,,,,,,,,,,,,,,,,,,,,,,,,,,,,,,,,,,,,,
,,,,,,,,,,,,,,,,,,,,,,,,,,,,,,,,,,,,,,,,,,,,,,,,,
,,,,,,,,,,,,,,,,,,,,,,,,,,,,,,,,,,,,,,,,,,,,,,,,,
,,,,,,,,,,,,,,,,,,,,,,,,,,,,,,,,,,,,,,,,,,,,,,,,,
,,,,,,,,,,,,,,,,,,,,,,,,,,,,,,,,,,,,,,,,,,,,,,,,,
,,,,,,,,,,,,,,,,,,,,,,,,,,,,,,,,,,,,,,,,,,,,,,,,,
