Layer,	Cycles,	% Utilization,
conv1,	802859,	1.318359375,
conv2,	802992,	28.125,
conv3,	200928,	56.25,
conv4,	401840,	56.26219390802309,
conv5,	151296,	75.03172588832487,
conv6,	252256,	90.01014842065203,
conv7,	252256,	90.01014842065203,
conv8,	115776,	100.0,
conv9,	231552,	100.0,
conv10,	231552,	100.0,
conv11,	62208,	100.0,
conv12,	62208,	100.0,
conv13,	62208,	100.0,
fc1,	313600,	100.0,
fc2,	51200,	100.0,
fc3,	12608,	97.65625,
