Layer,	Cycles,	% Utilization,
GEMM_Q_GEN,	528,	100.0,
GEMM_K_GEN,	528,	100.0,
GEMM_V_GEN,	528,	100.0,
GEMM_QK,	576,	50.0,
GEMM_QKV,	464,	50.0,
GEMM_Linear,	10240,	100.0,
GEMM_MLP_1,	40960,	100.0,
GEMM_MLP_2,	40960,	100.0,
