Layer name,ifmap height,ifmap width,filter height,filter width,channels,num filter,strides,
conv1,7,200704,1,200704,1,8,1,
conv2,144,200704,1,200704,1,8,1,
conv3,144,50176,1,50176,1,16,1,
conv4,288,50176,1,50176,1,16,1,
conv5,288,12544,1,12544,1,32,1,
conv6,576,12544,1,12544,1,32,1,
conv7,576,12544,1,12544,1,32,1,
conv8,576,3136,1,3136,1,64,1,
conv9,1152,3136,1,3136,1,64,1,
conv10,1152,3136,1,3136,1,64,1,
conv11,1152,784,1,784,1,64,1,
conv12,1152,784,1,784,1,64,1,
conv13,1152,784,1,784,1,64,1,
fc1,6272,4,1,4,1,512,1,
fc2,1024,4,1,4,1,512,1,
fc3,1024,4,1,4,1,125,1,
