,,queuing delay phase 0,queuing delay phase 1,queuing delay phase 2,queuing delay phase 3,network delay phase 1,network delay phase 2,network delay phase 3,avg chunk delay dimension 1,avg chunk delay dimension 2,avg chunk delay dimension 3,,,,,,,,,,,,,,,,,,,,,,,,,,,,,,,,,,,,,,
LSTM_1,gpt2_8B_megatron,0.000000,1.703500,2.482875,0.116125,1.011125,1.005500,1.011000,-nan,1.031062,2.041062,,,,,,,,,,,,,,,,,,,,,,,,,,,,,,,,,,,,,,
LSTM_2,gpt2_8B_megatron,0.000000,9.119625,3.945125,0.200125,1.011125,1.005562,1.011000,,,,,,,,,,,,,,,,,,,,,,,,,,,,,,,,,,,,,,,,,
LSTM_3,gpt2_8B_megatron,0.000000,12.926750,9.016250,0.284500,1.011125,1.005562,1.011000,,,,,,,,,,,,,,,,,,,,,,,,,,,,,,,,,,,,,,,,,
LSTM_4,gpt2_8B_megatron,0.000000,18.022875,4.634250,6.213000,1.011125,1.005500,1.011125,,,,,,,,,,,,,,,,,,,,,,,,,,,,,,,,,,,,,,,,,
LSTM_5,gpt2_8B_megatron,0.000000,33.945125,3.713375,0.432125,1.011000,1.005562,1.011000,,,,,,,,,,,,,,,,,,,,,,,,,,,,,,,,,,,,,,,,,
LSTM_6,gpt2_8B_megatron,0.000000,31.566000,14.970875,0.516125,1.011125,1.005500,1.011125,,,,,,,,,,,,,,,,,,,,,,,,,,,,,,,,,,,,,,,,,
LSTM_7,gpt2_8B_megatron,0.000000,36.662000,4.465750,12.568125,1.011000,1.005562,1.011000,,,,,,,,,,,,,,,,,,,,,,,,,,,,,,,,,,,,,,,,,
LSTM_8,gpt2_8B_megatron,0.000000,43.304750,2.619125,14.856000,1.011125,1.005500,1.011000,,,,,,,,,,,,,,,,,,,,,,,,,,,,,,,,,,,,,,,,,
,,,,,,,,,,,,,,,,,,,,,,,,,,,,,,,,,,,,,,,,,,,,,,,,,
,,,,,,,,,,,,,,,,,,,,,,,,,,,,,,,,,,,,,,,,,,,,,,,,,
,,,,,,,,,,,,,,,,,,,,,,,,,,,,,,,,,,,,,,,,,,,,,,,,,
,,,,,,,,,,,,,,,,,,,,,,,,,,,,,,,,,,,,,,,,,,,,,,,,,
,,,,,,,,,,,,,,,,,,,,,,,,,,,,,,,,,,,,,,,,,,,,,,,,,
,,,,,,,,,,,,,,,,,,,,,,,,,,,,,,,,,,,,,,,,,,,,,,,,,
,,,,,,,,,,,,,,,,,,,,,,,,,,,,,,,,,,,,,,,,,,,,,,,,,
,,,,,,,,,,,,,,,,,,,,,,,,,,,,,,,,,,,,,,,,,,,,,,,,,
,,,,,,,,,,,,,,,,,,,,,,,,,,,,,,,,,,,,,,,,,,,,,,,,,
,,,,,,,,,,,,,,,,,,,,,,,,,,,,,,,,,,,,,,,,,,,,,,,,,
,,,,,,,,,,,,,,,,,,,,,,,,,,,,,,,,,,,,,,,,,,,,,,,,,
,,,,,,,,,,,,,,,,,,,,,,,,,,,,,,,,,,,,,,,,,,,,,,,,,
,,,,,,,,,,,,,,,,,,,,,,,,,,,,,,,,,,,,,,,,,,,,,,,,,
,,,,,,,,,,,,,,,,,,,,,,,,,,,,,,,,,,,,,,,,,,,,,,,,,
,,,,,,,,,,,,,,,,,,,,,,,,,,,,,,,,,,,,,,,,,,,,,,,,,
,,,,,,,,,,,,,,,,,,,,,,,,,,,,,,,,,,,,,,,,,,,,,,,,,
,,,,,,,,,,,,,,,,,,,,,,,,,,,,,,,,,,,,,,,,,,,,,,,,,
,,,,,,,,,,,,,,,,,,,,,,,,,,,,,,,,,,,,,,,,,,,,,,,,,
,,,,,,,,,,,,,,,,,,,,,,,,,,,,,,,,,,,,,,,,,,,,,,,,,
