,,fwd compute,wg compute,ig compute,fwd exposed comm,wg exposed comm,ig exposed comm,fwd total comm,wg total comm,ig total comm,workload finished at,total comp,total exposed comm,,,,,,,,,,,,,,,,,,,,,,,,,,,,,,,,,,,,
LSTM_1,gpt2_8B_megatron,4.672000,1.032000,0.000000,0.000000,23.028000,0.000000,0.000000,23.030000,0.000000,156.849000,48.376000,108.473000,,,,,,,,,,,,,,,,,,,,,,,,,,,,,,,,,,,,
LSTM_2,gpt2_8B_megatron,4.672000,1.032000,0.392000,0.000000,5.911000,0.000000,0.000000,40.955000,0.000000,156.849000,,,,,,,,,,,,,,,,,,,,,,,,,,,,,,,,,,,,,,
LSTM_3,gpt2_8B_megatron,4.672000,1.032000,0.392000,0.000000,5.912000,0.000000,0.000000,58.880000,0.000000,156.849000,,,,,,,,,,,,,,,,,,,,,,,,,,,,,,,,,,,,,,
LSTM_4,gpt2_8B_megatron,4.672000,1.032000,0.392000,0.000000,3.849000,0.000000,0.000000,72.681000,0.000000,156.849000,,,,,,,,,,,,,,,,,,,,,,,,,,,,,,,,,,,,,,
LSTM_5,gpt2_8B_megatron,4.672000,1.032000,0.392000,0.000000,5.912000,0.000000,0.000000,90.606000,0.000000,156.849000,,,,,,,,,,,,,,,,,,,,,,,,,,,,,,,,,,,,,,
LSTM_6,gpt2_8B_megatron,4.672000,1.032000,0.392000,0.000000,5.911000,0.000000,0.000000,108.531000,0.000000,156.849000,,,,,,,,,,,,,,,,,,,,,,,,,,,,,,,,,,,,,,
LSTM_7,gpt2_8B_megatron,4.672000,1.032000,0.392000,0.000000,3.850000,0.000000,0.000000,122.332000,0.000000,156.849000,,,,,,,,,,,,,,,,,,,,,,,,,,,,,,,,,,,,,,
LSTM_8,gpt2_8B_megatron,4.672000,1.032000,0.392000,0.000000,3.175000,0.000000,0.000000,134.784000,0.000000,156.849000,,,,,,,,,,,,,,,,,,,,,,,,,,,,,,,,,,,,,,
,,,,,,,,,,,,,,,,,,,,,,,,,,,,,,,,,,,,,,,,,,,,,,,,,
,,,,,,,,,,,,,,,,,,,,,,,,,,,,,,,,,,,,,,,,,,,,,,,,,
,,,,,,,,,,,,,,,,,,,,,,,,,,,,,,,,,,,,,,,,,,,,,,,,,
,,,,,,,,,,,,,,,,,,,,,,,,,,,,,,,,,,,,,,,,,,,,,,,,,
,,,,,,,,,,,,,,,,,,,,,,,,,,,,,,,,,,,,,,,,,,,,,,,,,
,,,,,,,,,,,,,,,,,,,,,,,,,,,,,,,,,,,,,,,,,,,,,,,,,
,,,,,,,,,,,,,,,,,,,,,,,,,,,,,,,,,,,,,,,,,,,,,,,,,
,,,,,,,,,,,,,,,,,,,,,,,,,,,,,,,,,,,,,,,,,,,,,,,,,
,,,,,,,,,,,,,,,,,,,,,,,,,,,,,,,,,,,,,,,,,,,,,,,,,
,,,,,,,,,,,,,,,,,,,,,,,,,,,,,,,,,,,,,,,,,,,,,,,,,
,,,,,,,,,,,,,,,,,,,,,,,,,,,,,,,,,,,,,,,,,,,,,,,,,
,,,,,,,,,,,,,,,,,,,,,,,,,,,,,,,,,,,,,,,,,,,,,,,,,
,,,,,,,,,,,,,,,,,,,,,,,,,,,,,,,,,,,,,,,,,,,,,,,,,
,,,,,,,,,,,,,,,,,,,,,,,,,,,,,,,,,,,,,,,,,,,,,,,,,
,,,,,,,,,,,,,,,,,,,,,,,,,,,,,,,,,,,,,,,,,,,,,,,,,
,,,,,,,,,,,,,,,,,,,,,,,,,,,,,,,,,,,,,,,,,,,,,,,,,
,,,,,,,,,,,,,,,,,,,,,,,,,,,,,,,,,,,,,,,,,,,,,,,,,
,,,,,,,,,,,,,,,,,,,,,,,,,,,,,,,,,,,,,,,,,,,,,,,,,
,,,,,,,,,,,,,,,,,,,,,,,,,,,,,,,,,,,,,,,,,,,,,,,,,
