 time (us) ,dim1 util,dim2 util,dim3 util,
10.000000,0.000000,0.000000,0.000000,
20.000000,0.000000,7.880000,0.000000,
30.000000,0.000000,100.000000,97.570000,
40.000000,0.000000,100.000000,100.000000,
50.000000,0.000000,100.000000,100.000000,
60.000000,0.000000,100.000000,100.000000,
70.000000,0.000000,100.000000,100.000000,
80.000000,0.000000,100.000000,100.000000,
90.000000,0.000000,57.430000,55.570000,
100.000000,0.000000,100.000000,95.120000,
110.000000,0.000000,100.000000,100.000000,
120.000000,0.000000,100.000000,100.000000,
130.000000,0.000000,100.000000,100.000000,
140.000000,0.000000,100.000000,100.000000,
150.000000,0.000000,100.000000,100.000000,
,,,
