Layer,	Cycles,	% Utilization,
MLP_Bottom_0,	74,	1.26953125,
MLP_Bottom_1,	1216,	12.5,
MLP_Bottom_2,	1216,	12.5,
MLP_Bottom_3,	1156,	0.78125,
MLP_Top_0,	2512,	12.151671974522294,
MLP_Top_1,	1216,	12.5,
MLP_Top_2,	1216,	12.5,
