Layer,	Cycles,	% Utilization,
conv1,	231280,	25.0,
conv2,	338688,	25.0,
conv3,	90944,	50.0,
conv4,	119168,	50.0,
conv5,	32928,	100.0,
conv6,	47040,	100.0,
conv7,	47040,	100.0,
conv8,	24576,	95.3125,
conv9,	39552,	94.90291262135922,
conv10,	39552,	94.90291262135922,
conv11,	11808,	79.42073170731707,
conv12,	11808,	79.42073170731707,
conv13,	11808,	79.42073170731707,
fc1,	6434,	25.0,
fc2,	1186,	25.0,
fc3,	1162,	6.103515625,
