Layer name,ifmap height,ifmap width,filter height,filter width,channels,num filter,strides,
GEMM_Q_GEN,256,512,1,512,1,64,1,
GEMM_K_GEN,256,512,1,512,1,64,1,
GEMM_V_GEN,256,512,1,512,1,64,1,
GEMM_QK,16,512,1,512,1,512,1,
GEMM_QKV,128,512,1,512,1,64,1,
GEMM_Linear,256,512,1,512,1,1024,1,
GEMM_MLP_1,256,512,1,512,1,4096,1,
GEMM_MLP_2,1024,512,1,512,1,1024,1,
