Layer,	Cycles,	% Utilization,
GEMM_Q_GEN,	18432,	100.0,
GEMM_K_GEN,	18432,	100.0,
GEMM_V_GEN,	18432,	100.0,
GEMM_QK,	53248,	100.0,
GEMM_QKV,	10240,	100.0,
GEMM_Linear,	184320,	100.0,
GEMM_MLP_1,	221184,	100.0,
GEMM_MLP_2,	294912,	100.0,
