Layer,	Cycles,	% Utilization,
MLP_Bottom_0,	554,	10.15625,
MLP_Bottom_1,	3136,	100.0,
MLP_Bottom_2,	3136,	100.0,
MLP_Bottom_3,	176,	25.0,
MLP_Top_0,	6832,	92.82786885245902,
MLP_Top_1,	3136,	100.0,
MLP_Top_2,	3136,	100.0,
