Layer,	Cycles,	% Utilization,
MLP_Bottom_0,	175,	20.3125,
MLP_Bottom_1,	3136,	100.0,
MLP_Bottom_2,	3136,	100.0,
MLP_Bottom_3,	1088,	6.25,
MLP_Top_0,	6608,	95.55084745762711,
MLP_Top_1,	3136,	100.0,
MLP_Top_2,	3136,	100.0,
