Layer name,ifmap height,ifmap width,filter height,filter width,channels,num filter,strides,
GEMM_Q_GEN,2048,1024,1,1024,1,64,1,
GEMM_K_GEN,2048,1024,1,1024,1,64,1,
GEMM_V_GEN,2048,1024,1,1024,1,64,1,
GEMM_QK,2048,64,1,64,1,512,1,
GEMM_QKV,2048,512,1,512,1,64,1,
GEMM_Linear,2048,1024,1,1024,1,1024,1,
GEMM_MLP_1,2048,1024,1,1024,1,4096,1,
GEMM_MLP_2,2048,4096,1,4096,1,1024,1,
