Layer name,ifmap height,ifmap width,filter height,filter width,channels,num filter,strides,
MLP_Bottom_0,64,4,1,4,1,13,1,
MLP_Bottom_1,64,4,1,4,1,512,1,
MLP_Bottom_2,64,4,1,4,1,512,1,
MLP_Bottom_3,64,1,1,1,1,512,1,
MLP_Top_0,64,4,1,4,1,1040,1,
MLP_Top_1,64,4,1,4,1,512,1,
MLP_Top_2,64,4,1,4,1,512,1,
