Layer,	Cycles,	% Utilization,
Conv1,	100710,	14.378510233591502,
CB2a_1,	12704,	12.5,
CB2a_2,	64032,	22.5199900049975,
CB2a_3,	12800,	50.0,
CB2s,	12800,	50.0,
IB2b_1,	25664,	25.0,
IB2b_2,	64032,	22.5199900049975,
IB2b_3,	12800,	50.0,
IB2c_1,	25664,	25.0,
IB2c_2,	64032,	22.5199900049975,
IB2c_3,	12800,	50.0,
CB3a_1,	6912,	50.0,
CB3a_2,	31104,	50.0,
CB3a_3,	7040,	100.0,
CB3s,	14080,	100.0,
IB3b_1,	13824,	50.0,
IB3b_2,	31104,	50.0,
IB3b_3,	7040,	100.0,
IB3c_1,	13824,	50.0,
IB3c_2,	31104,	50.0,
IB3c_3,	7040,	100.0,
IB3d_1,	13824,	50.0,
IB3d_2,	31104,	50.0,
IB3d_3,	7040,	100.0,
CB4a_1,	4672,	100.0,
CB4a_2,	21024,	100.0,
CB4a_3,	9344,	100.0,
CB4s,	18688,	100.0,
IB4b_1,	9344,	100.0,
IB4b_2,	21024,	100.0,
IB4b_3,	9344,	100.0,
IB4c_1,	9344,	100.0,
IB4c_2,	21024,	100.0,
IB4c_3,	9344,	100.0,
IB4d_1,	9344,	100.0,
IB4d_2,	21024,	100.0,
IB4d_3,	9344,	100.0,
IB4e_1,	9344,	100.0,
IB4e_2,	21024,	100.0,
IB4e_3,	9344,	100.0,
IB4f_1,	9344,	100.0,
IB4f_2,	21024,	100.0,
IB4f_3,	9344,	100.0,
CB5a_1,	9280,	100.0,
CB5a_2,	41760,	100.0,
CB5a_3,	18560,	100.0,
CB5s,	37120,	100.0,
IB5b_1,	18560,	100.0,
IB5b_2,	41760,	100.0,
IB5b_3,	18560,	100.0,
IB5c_1,	18560,	100.0,
IB5c_2,	41760,	100.0,
IB5c_3,	18560,	100.0,
FC6,	24640,	97.71103896103897,
