Layer,	Cycles,	% Utilization,
Conv1,	50400,	28.7109375,
CB2a_1,	12672,	12.5,
CB2a_2,	25504,	56.52446675031367,
CB2a_3,	12864,	50.0,
CB2s,	12864,	50.0,
IB2b_1,	12768,	50.0,
IB2b_2,	25504,	56.52446675031367,
IB2b_3,	12864,	50.0,
IB2c_1,	12768,	50.0,
IB2c_2,	25504,	56.52446675031367,
IB2c_3,	12864,	50.0,
CB3a_1,	3456,	100.0,
CB3a_2,	17216,	90.14869888475836,
CB3a_3,	7040,	100.0,
CB3s,	14080,	100.0,
IB3b_1,	6912,	100.0,
IB3b_2,	17216,	90.14869888475836,
IB3b_3,	7040,	100.0,
IB3c_1,	6912,	100.0,
IB3c_2,	17216,	90.14869888475836,
IB3c_3,	7040,	100.0,
IB3d_1,	6912,	100.0,
IB3d_2,	17216,	90.14869888475836,
IB3d_3,	7040,	100.0,
CB4a_1,	4672,	100.0,
CB4a_2,	21024,	100.0,
CB4a_3,	9344,	100.0,
CB4s,	18688,	100.0,
IB4b_1,	9344,	100.0,
IB4b_2,	21024,	100.0,
IB4b_3,	9344,	100.0,
IB4c_1,	9344,	100.0,
IB4c_2,	21024,	100.0,
IB4c_3,	9344,	100.0,
IB4d_1,	9344,	100.0,
IB4d_2,	21024,	100.0,
IB4d_3,	9344,	100.0,
IB4e_1,	9344,	100.0,
IB4e_2,	21024,	100.0,
IB4e_3,	9344,	100.0,
IB4f_1,	9344,	100.0,
IB4f_2,	21024,	100.0,
IB4f_3,	9344,	100.0,
CB5a_1,	9280,	100.0,
CB5a_2,	41760,	100.0,
CB5a_3,	18560,	100.0,
CB5s,	37120,	100.0,
IB5b_1,	18560,	100.0,
IB5b_2,	41760,	100.0,
IB5b_3,	18560,	100.0,
IB5c_1,	18560,	100.0,
IB5c_2,	41760,	100.0,
IB5c_3,	18560,	100.0,
FC6,	24448,	97.76668848167539,
