Layer name,ifmap height,ifmap width,filter height,filter width,channels,num filter,strides,
MLP_Bottom_0,32,256,1,256,1,13,1,
MLP_Bottom_1,32,256,1,256,1,512,1,
MLP_Bottom_2,32,256,1,256,1,512,1,
MLP_Bottom_3,32,8,1,8,1,512,1,
MLP_Top_0,32,256,1,256,1,1040,1,
MLP_Top_1,32,256,1,256,1,512,1,
MLP_Top_2,32,256,1,256,1,512,1,
