Layer,	Cycles,	% Utilization,
Conv1,	127400,	50.0,
CB2a_1,	27440,	12.5,
CB2a_2,	33124,	50.0,
CB2a_3,	29792,	25.0,
CB2s,	29792,	25.0,
IB2b_1,	32144,	50.0,
IB2b_2,	33124,	50.0,
IB2b_3,	29792,	25.0,
IB2c_1,	32144,	50.0,
IB2c_2,	33124,	50.0,
IB2c_3,	29792,	25.0,
CB3a_1,	8272,	49.37137330754352,
CB3a_2,	10372,	98.59236405707674,
CB3a_3,	8672,	49.35424354243542,
CB3s,	10272,	98.5981308411215,
IB3b_1,	9872,	98.6223662884927,
IB3b_2,	10372,	98.59236405707674,
IB3b_3,	8672,	49.35424354243542,
IB3c_1,	9872,	98.6223662884927,
IB3c_2,	10372,	98.59236405707674,
IB3c_3,	8672,	49.35424354243542,
IB3d_1,	9872,	98.6223662884927,
IB3d_2,	10372,	98.59236405707674,
IB3d_3,	8672,	49.35424354243542,
CB4a_1,	2688,	93.75,
CB4a_2,	5936,	93.16037735849056,
CB4a_3,	2912,	93.26923076923077,
CB4s,	5824,	93.26923076923077,
IB4b_1,	5376,	93.75,
IB4b_2,	5936,	93.16037735849056,
IB4b_3,	2912,	93.26923076923077,
IB4c_1,	5376,	93.75,
IB4c_2,	5936,	93.16037735849056,
IB4c_3,	2912,	93.26923076923077,
IB4d_1,	5376,	93.75,
IB4d_2,	5936,	93.16037735849056,
IB4d_3,	2912,	93.26923076923077,
IB4e_1,	5376,	93.75,
IB4e_2,	5936,	93.16037735849056,
IB4e_3,	2912,	93.26923076923077,
IB4f_1,	5376,	93.75,
IB4f_2,	5936,	93.16037735849056,
IB4f_3,	2912,	93.26923076923077,
CB5a_1,	1552,	80.1868556701031,
CB5a_2,	3744,	79.5673076923077,
CB5a_3,	1808,	79.67367256637168,
CB5s,	3616,	79.67367256637168,
IB5b_1,	3104,	80.1868556701031,
IB5b_2,	3744,	79.5673076923077,
IB5b_3,	1808,	79.67367256637168,
IB5c_1,	3104,	80.1868556701031,
IB5c_2,	3744,	79.5673076923077,
IB5c_3,	1808,	79.67367256637168,
FC6,	228,	24.4140625,
