DATA
8
GEMM_Q_GEN	-1	1089536	NONE	0	544768	NONE	0	2359296	ALLREDUCE	4194304	4096
GEMM_K_GEN	-1	1089536	NONE	0	544768	NONE	0	2359296	ALLREDUCE	4194304	4096
GEMM_V_GEN	-1	1089536	NONE	0	544768	NONE	0	2359296	ALLREDUCE	4194304	4096
GEMM_QK	-1	272384	NONE	0	544768	NONE	0	0	ALLREDUCE	4	100
GEMM_QKV	-1	544768	NONE	0	272384	NONE	0	0	ALLREDUCE	4	100
GEMM_Linear	-1	548864	NONE	0	548864	NONE	0	1310720	ALLREDUCE	4194304	4096
GEMM_MLP_1	-1	2195456	NONE	0	2195456	NONE	0	5242880	ALLREDUCE	16777216	16384
GEMM_MLP_2	-1	2195456	NONE	0	2195456	NONE	0	2883584	ALLREDUCE	16777216	16384