TRANSFORMER_HYBRID_DATA_MODEL
8
GEMM_Q_GEN	-1	67584	ALLGATHER	1048576	8448	REDUCESCATTER	67108864	67584	ALLREDUCE	1048576	1024
GEMM_K_GEN	-1	67584	ALLGATHER	1048576	8448	REDUCESCATTER	67108864	67584	ALLREDUCE	1048576	1024
GEMM_V_GEN	-1	67584	ALLGATHER	4	8448	REDUCESCATTER	67108864	67584	ALLREDUCE	1048576	1024
GEMM_QK	-1	8192	ALLGATHER	8388608	9216	REDUCESCATTER	4194304	3200	ALLREDUCE	4	100
GEMM_QKV	-1	33792	ALLGATHER	1048576	7424	REDUCESCATTER	33554432	3200	ALLREDUCE	4	100
GEMM_Linear	-1	10240	ALLGATHER	1048576	10240	REDUCESCATTER	4194304	10240	ALLREDUCE	1048576	1024
GEMM_MLP_1	-1	40960	ALLGATHER	4194304	40960	REDUCESCATTER	4194304	40960	ALLREDUCE	4194304	4096
GEMM_MLP_2	-1	40960	ALLGATHER	1048576	40960	REDUCESCATTER	16777216	22528	ALLREDUCE	4194304	4096