HYBRID_DATA_MODEL
7
MLP_Bottom_0	-1	66	ALLGATHER	4096	85	REDUCESCATTER	1664	100	ALLREDUCE	1664	1
MLP_Bottom_1	-1	1184	ALLGATHER	4096	296	REDUCESCATTER	65536	224	ALLREDUCE	65536	64
MLP_Bottom_2	-1	1184	ALLGATHER	4096	296	REDUCESCATTER	65536	224	ALLREDUCE	65536	64
MLP_Bottom_3	-1	1060	ALLGATHER	128	141	REDUCESCATTER	65536	193	ALLREDUCE	2048	2
MLP_Top_0	-1	2440	ALLGATHER	4096	680	REDUCESCATTER	133120	356	ALLREDUCE	133120	130
MLP_Top_1	-1	1184	ALLGATHER	4096	296	REDUCESCATTER	65536	224	ALLREDUCE	65536	64
MLP_Top_2	-1	1184	ALLGATHER	4096	296	REDUCESCATTER	65536	224	ALLREDUCE	65536	64