HYBRID_DATA_MODEL
7
MLP_Bottom_0	-1	156	ALLGATHER	4096	145	REDUCESCATTER	26624	1048	ALLREDUCE	104	0
MLP_Bottom_1	-1	1544	ALLGATHER	4096	266	REDUCESCATTER	1048576	1544	ALLREDUCE	4096	4
MLP_Bottom_2	-1	1544	ALLGATHER	4096	266	REDUCESCATTER	1048576	1544	ALLREDUCE	4096	4
MLP_Bottom_3	-1	1540	ALLGATHER	128	261	REDUCESCATTER	1048576	1540	ALLREDUCE	128	0
MLP_Top_0	-1	3250	ALLGATHER	4096	276	REDUCESCATTER	2129920	2072	ALLREDUCE	8320	8
MLP_Top_1	-1	1544	ALLGATHER	4096	266	REDUCESCATTER	1048576	1544	ALLREDUCE	4096	4
MLP_Top_2	-1	1544	ALLGATHER	4096	266	REDUCESCATTER	1048576	1544	ALLREDUCE	4096	4