HYBRID_DATA_MODEL
46
Conv1	-1	25414	ALLGATHER	3211264	12720	REDUCESCATTER	29503488	121128	ALLREDUCE	9408	9
CB2a_1	-1	3280	ALLGATHER	802816	3232	REDUCESCATTER	3211264	28224	ALLREDUCE	4096	4
CB2a_2	-1	16912	ALLGATHER	802816	3360	REDUCESCATTER	28901376	40768	ALLREDUCE	36864	36
CB2a_3	-1	3328	ALLGATHER	3211264	3328	REDUCESCATTER	3211264	32928	ALLREDUCE	16384	16
CB2s	-1	3328	ALLGATHER	3211264	3328	REDUCESCATTER	3211264	32928	ALLREDUCE	16384	16
IB2b_1	-1	6816	ALLGATHER	802816	3312	REDUCESCATTER	12845056	32928	ALLREDUCE	16384	16
IB2b_2	-1	16912	ALLGATHER	802816	3360	REDUCESCATTER	28901376	40768	ALLREDUCE	36864	36
IB2b_3	-1	3328	ALLGATHER	3211264	3328	REDUCESCATTER	3211264	32928	ALLREDUCE	16384	16
IB2c_1	-1	6816	ALLGATHER	802816	3312	REDUCESCATTER	12845056	32928	ALLREDUCE	16384	16
IB2c_2	-1	16912	ALLGATHER	802816	3360	REDUCESCATTER	28901376	40768	ALLREDUCE	36864	36
IB2c_3	-1	3328	ALLGATHER	3211264	3328	REDUCESCATTER	3211264	32928	ALLREDUCE	16384	16
CB3a_1	-1	2144	ALLGATHER	401408	1008	REDUCESCATTER	3211264	8672	ALLREDUCE	32768	32
CB3a_2	-1	9648	ALLGATHER	401408	3120	REDUCESCATTER	14450688	14272	ALLREDUCE	147456	144
CB3a_3	-1	1168	ALLGATHER	1605632	1168	REDUCESCATTER	1605632	10272	ALLREDUCE	65536	64
CB3s	-1	2336	ALLGATHER	1605632	2336	REDUCESCATTER	3211264	11072	ALLREDUCE	131072	128
IB3b_1	-1	4288	ALLGATHER	401408	1072	REDUCESCATTER	6422528	10272	ALLREDUCE	65536	64
IB3b_2	-1	9648	ALLGATHER	401408	3120	REDUCESCATTER	14450688	14272	ALLREDUCE	147456	144
IB3b_3	-1	1168	ALLGATHER	1605632	1168	REDUCESCATTER	1605632	10272	ALLREDUCE	65536	64
IB3c_1	-1	4288	ALLGATHER	401408	1072	REDUCESCATTER	6422528	10272	ALLREDUCE	65536	64
IB3c_2	-1	9648	ALLGATHER	401408	3120	REDUCESCATTER	14450688	14272	ALLREDUCE	147456	144
IB3c_3	-1	1168	ALLGATHER	1605632	1168	REDUCESCATTER	1605632	10272	ALLREDUCE	65536	64
IB3d_1	-1	4288	ALLGATHER	401408	1072	REDUCESCATTER	6422528	10272	ALLREDUCE	65536	64
IB3d_2	-1	9648	ALLGATHER	401408	3120	REDUCESCATTER	14450688	14272	ALLREDUCE	147456	144
IB3d_3	-1	1168	ALLGATHER	1605632	1168	REDUCESCATTER	1605632	10272	ALLREDUCE	65536	64
CB4a_1	-1	2064	ALLGATHER	200704	1032	REDUCESCATTER	1605632	2912	ALLREDUCE	131072	128
CB4a_2	-1	9288	ALLGATHER	200704	4644	REDUCESCATTER	7225344	6048	ALLREDUCE	589824	576
CB4a_3	-1	2320	ALLGATHER	802816	2320	REDUCESCATTER	802816	5824	ALLREDUCE	262144	256
CB4s	-1	4640	ALLGATHER	802816	4640	REDUCESCATTER	1605632	6720	ALLREDUCE	524288	512
IB4b_1	-1	4128	ALLGATHER	200704	2064	REDUCESCATTER	3211264	3808	ALLREDUCE	262144	256
IB4b_2	-1	9288	ALLGATHER	200704	4644	REDUCESCATTER	7225344	6048	ALLREDUCE	589824	576
IB4b_3	-1	2320	ALLGATHER	802816	2320	REDUCESCATTER	802816	5824	ALLREDUCE	262144	256
IB4c_1	-1	4128	ALLGATHER	200704	2064	REDUCESCATTER	3211264	3808	ALLREDUCE	262144	256
IB4c_2	-1	9288	ALLGATHER	200704	4644	REDUCESCATTER	7225344	6048	ALLREDUCE	589824	576
IB4c_3	-1	2320	ALLGATHER	802816	2320	REDUCESCATTER	802816	5824	ALLREDUCE	262144	256
IB4d_1	-1	4128	ALLGATHER	200704	2064	REDUCESCATTER	3211264	3808	ALLREDUCE	262144	256
IB4d_2	-1	9288	ALLGATHER	200704	4644	REDUCESCATTER	7225344	6048	ALLREDUCE	589824	576
IB4d_3	-1	2320	ALLGATHER	802816	2320	REDUCESCATTER	802816	5824	ALLREDUCE	262144	256
IB4e_1	-1	4128	ALLGATHER	200704	2064	REDUCESCATTER	3211264	3808	ALLREDUCE	262144	256
IB4e_2	-1	9288	ALLGATHER	200704	4644	REDUCESCATTER	7225344	6048	ALLREDUCE	589824	576
IB4e_3	-1	2320	ALLGATHER	802816	2320	REDUCESCATTER	802816	5824	ALLREDUCE	262144	256
IB4f_1	-1	4128	ALLGATHER	200704	2064	REDUCESCATTER	3211264	3808	ALLREDUCE	262144	256
IB4f_2	-1	9288	ALLGATHER	200704	4644	REDUCESCATTER	7225344	6048	ALLREDUCE	589824	576
IB4f_3	-1	2320	ALLGATHER	802816	2320	REDUCESCATTER	802816	5824	ALLREDUCE	262144	256
RPN_Conv1	-1	41760	ALLGATHER	401408	41760	REDUCESCATTER	28901376	18592	ALLREDUCE	4718592	4608
RPN_Conv_bbox	-1	1844	ALLGATHER	28224	369	REDUCESCATTER	1605632	2527	ALLREDUCE	18432	18
RPN_Conv3_cls	-1	1828	ALLGATHER	14112	349	REDUCESCATTER	1605632	2499	ALLREDUCE	9216	9