HYBRID_DATA_MODEL
46
Conv1	-1	12870	ALLGATHER	1605632	6448	REDUCESCATTER	14751744	60564	ALLREDUCE	9408	9
CB2a_1	-1	1712	ALLGATHER	401408	1664	REDUCESCATTER	1605632	14112	ALLREDUCE	4096	4
CB2a_2	-1	9072	ALLGATHER	401408	1792	REDUCESCATTER	14450688	20384	ALLREDUCE	36864	36
CB2a_3	-1	1760	ALLGATHER	1605632	1760	REDUCESCATTER	1605632	16464	ALLREDUCE	16384	16
CB2s	-1	1760	ALLGATHER	1605632	1760	REDUCESCATTER	1605632	16464	ALLREDUCE	16384	16
IB2b_1	-1	3680	ALLGATHER	401408	1744	REDUCESCATTER	6422528	16464	ALLREDUCE	16384	16
IB2b_2	-1	9072	ALLGATHER	401408	1792	REDUCESCATTER	14450688	20384	ALLREDUCE	36864	36
IB2b_3	-1	1760	ALLGATHER	1605632	1760	REDUCESCATTER	1605632	16464	ALLREDUCE	16384	16
IB2c_1	-1	3680	ALLGATHER	401408	1744	REDUCESCATTER	6422528	16464	ALLREDUCE	16384	16
IB2c_2	-1	9072	ALLGATHER	401408	1792	REDUCESCATTER	14450688	20384	ALLREDUCE	36864	36
IB2c_3	-1	1760	ALLGATHER	1605632	1760	REDUCESCATTER	1605632	16464	ALLREDUCE	16384	16
CB3a_1	-1	1360	ALLGATHER	200704	616	REDUCESCATTER	1605632	4384	ALLREDUCE	32768	32
CB3a_2	-1	6120	ALLGATHER	200704	1944	REDUCESCATTER	7225344	7296	ALLREDUCE	147456	144
CB3a_3	-1	776	ALLGATHER	802816	776	REDUCESCATTER	802816	5216	ALLREDUCE	65536	64
CB3s	-1	1552	ALLGATHER	802816	1552	REDUCESCATTER	1605632	5632	ALLREDUCE	131072	128
IB3b_1	-1	2720	ALLGATHER	200704	680	REDUCESCATTER	3211264	5216	ALLREDUCE	65536	64
IB3b_2	-1	6120	ALLGATHER	200704	1944	REDUCESCATTER	7225344	7296	ALLREDUCE	147456	144
IB3b_3	-1	776	ALLGATHER	802816	776	REDUCESCATTER	802816	5216	ALLREDUCE	65536	64
IB3c_1	-1	2720	ALLGATHER	200704	680	REDUCESCATTER	3211264	5216	ALLREDUCE	65536	64
IB3c_2	-1	6120	ALLGATHER	200704	1944	REDUCESCATTER	7225344	7296	ALLREDUCE	147456	144
IB3c_3	-1	776	ALLGATHER	802816	776	REDUCESCATTER	802816	5216	ALLREDUCE	65536	64
IB3d_1	-1	2720	ALLGATHER	200704	680	REDUCESCATTER	3211264	5216	ALLREDUCE	65536	64
IB3d_2	-1	6120	ALLGATHER	200704	1944	REDUCESCATTER	7225344	7296	ALLREDUCE	147456	144
IB3d_3	-1	776	ALLGATHER	802816	776	REDUCESCATTER	802816	5216	ALLREDUCE	65536	64
CB4a_1	-1	1672	ALLGATHER	100352	836	REDUCESCATTER	802816	1552	ALLREDUCE	131072	128
CB4a_2	-1	7524	ALLGATHER	100352	3762	REDUCESCATTER	3612672	3344	ALLREDUCE	589824	576
CB4a_3	-1	1928	ALLGATHER	401408	1928	REDUCESCATTER	401408	3104	ALLREDUCE	262144	256
CB4s	-1	3856	ALLGATHER	401408	3856	REDUCESCATTER	802816	3616	ALLREDUCE	524288	512
IB4b_1	-1	3344	ALLGATHER	100352	1672	REDUCESCATTER	1605632	2064	ALLREDUCE	262144	256
IB4b_2	-1	7524	ALLGATHER	100352	3762	REDUCESCATTER	3612672	3344	ALLREDUCE	589824	576
IB4b_3	-1	1928	ALLGATHER	401408	1928	REDUCESCATTER	401408	3104	ALLREDUCE	262144	256
IB4c_1	-1	3344	ALLGATHER	100352	1672	REDUCESCATTER	1605632	2064	ALLREDUCE	262144	256
IB4c_2	-1	7524	ALLGATHER	100352	3762	REDUCESCATTER	3612672	3344	ALLREDUCE	589824	576
IB4c_3	-1	1928	ALLGATHER	401408	1928	REDUCESCATTER	401408	3104	ALLREDUCE	262144	256
IB4d_1	-1	3344	ALLGATHER	100352	1672	REDUCESCATTER	1605632	2064	ALLREDUCE	262144	256
IB4d_2	-1	7524	ALLGATHER	100352	3762	REDUCESCATTER	3612672	3344	ALLREDUCE	589824	576
IB4d_3	-1	1928	ALLGATHER	401408	1928	REDUCESCATTER	401408	3104	ALLREDUCE	262144	256
IB4e_1	-1	3344	ALLGATHER	100352	1672	REDUCESCATTER	1605632	2064	ALLREDUCE	262144	256
IB4e_2	-1	7524	ALLGATHER	100352	3762	REDUCESCATTER	3612672	3344	ALLREDUCE	589824	576
IB4e_3	-1	1928	ALLGATHER	401408	1928	REDUCESCATTER	401408	3104	ALLREDUCE	262144	256
IB4f_1	-1	3344	ALLGATHER	100352	1672	REDUCESCATTER	1605632	2064	ALLREDUCE	262144	256
IB4f_2	-1	7524	ALLGATHER	100352	3762	REDUCESCATTER	3612672	3344	ALLREDUCE	589824	576
IB4f_3	-1	1928	ALLGATHER	401408	1928	REDUCESCATTER	401408	3104	ALLREDUCE	262144	256
RPN_Conv1	-1	34704	ALLGATHER	200704	34704	REDUCESCATTER	14450688	10512	ALLREDUCE	4718592	4608
RPN_Conv_bbox	-1	1452	ALLGATHER	14112	271	REDUCESCATTER	802816	1332	ALLREDUCE	18432	18
RPN_Conv3_cls	-1	1436	ALLGATHER	7056	251	REDUCESCATTER	802816	1316	ALLREDUCE	9216	9