DATA
46
Conv1	-1	100774	NONE	0	50496	NONE	0	559776	ALLREDUCE	37632	36
CB2a_1	-1	12736	NONE	0	12736	NONE	0	131712	ALLREDUCE	16384	16
CB2a_2	-1	64192	NONE	0	38464	NONE	0	181888	ALLREDUCE	147456	144
CB2a_3	-1	12864	NONE	0	25728	NONE	0	313600	ALLREDUCE	65536	64
CB2s	-1	12864	NONE	0	25728	NONE	0	313600	ALLREDUCE	65536	64
IB2b_1	-1	25728	NONE	0	12864	NONE	0	150528	ALLREDUCE	65536	64
IB2b_2	-1	64192	NONE	0	38464	NONE	0	181888	ALLREDUCE	147456	144
IB2b_3	-1	12864	NONE	0	25728	NONE	0	313600	ALLREDUCE	65536	64
IB2c_1	-1	25728	NONE	0	12864	NONE	0	150528	ALLREDUCE	65536	64
IB2c_2	-1	64192	NONE	0	38464	NONE	0	181888	ALLREDUCE	147456	144
IB2c_3	-1	12864	NONE	0	25728	NONE	0	313600	ALLREDUCE	65536	64
CB3a_1	-1	7040	NONE	0	7040	NONE	0	43904	ALLREDUCE	131072	128
CB3a_2	-1	31680	NONE	0	31680	NONE	0	65856	ALLREDUCE	589824	576
CB3a_3	-1	14080	NONE	0	14080	NONE	0	163072	ALLREDUCE	262144	256
CB3s	-1	28160	NONE	0	28160	NONE	0	175616	ALLREDUCE	524288	512
IB3b_1	-1	14080	NONE	0	14080	NONE	0	50176	ALLREDUCE	262144	256
IB3b_2	-1	31680	NONE	0	31680	NONE	0	65856	ALLREDUCE	589824	576
IB3b_3	-1	14080	NONE	0	14080	NONE	0	163072	ALLREDUCE	262144	256
IB3c_1	-1	14080	NONE	0	14080	NONE	0	50176	ALLREDUCE	262144	256
IB3c_2	-1	31680	NONE	0	31680	NONE	0	65856	ALLREDUCE	589824	576
IB3c_3	-1	14080	NONE	0	14080	NONE	0	163072	ALLREDUCE	262144	256
IB3d_1	-1	14080	NONE	0	14080	NONE	0	50176	ALLREDUCE	262144	256
IB3d_2	-1	31680	NONE	0	31680	NONE	0	65856	ALLREDUCE	589824	576
IB3d_3	-1	14080	NONE	0	14080	NONE	0	163072	ALLREDUCE	262144	256
CB4a_1	-1	9344	NONE	0	9344	NONE	0	25344	ALLREDUCE	524288	512
CB4a_2	-1	42048	NONE	0	42048	NONE	0	47744	ALLREDUCE	2359296	2304
CB4a_3	-1	18688	NONE	0	18688	NONE	0	88576	ALLREDUCE	1048576	1024
CB4s	-1	37376	NONE	0	37376	NONE	0	101376	ALLREDUCE	2097152	2048
IB4b_1	-1	18688	NONE	0	18688	NONE	0	31744	ALLREDUCE	1048576	1024
IB4b_2	-1	42048	NONE	0	42048	NONE	0	47744	ALLREDUCE	2359296	2304
IB4b_3	-1	18688	NONE	0	18688	NONE	0	88576	ALLREDUCE	1048576	1024
IB4c_1	-1	18688	NONE	0	18688	NONE	0	31744	ALLREDUCE	1048576	1024
IB4c_2	-1	42048	NONE	0	42048	NONE	0	47744	ALLREDUCE	2359296	2304
IB4c_3	-1	18688	NONE	0	18688	NONE	0	88576	ALLREDUCE	1048576	1024
IB4d_1	-1	18688	NONE	0	18688	NONE	0	31744	ALLREDUCE	1048576	1024
IB4d_2	-1	42048	NONE	0	42048	NONE	0	47744	ALLREDUCE	2359296	2304
IB4d_3	-1	18688	NONE	0	18688	NONE	0	88576	ALLREDUCE	1048576	1024
IB4e_1	-1	18688	NONE	0	18688	NONE	0	31744	ALLREDUCE	1048576	1024
IB4e_2	-1	42048	NONE	0	42048	NONE	0	47744	ALLREDUCE	2359296	2304
IB4e_3	-1	18688	NONE	0	18688	NONE	0	88576	ALLREDUCE	1048576	1024
IB4f_1	-1	18688	NONE	0	18688	NONE	0	31744	ALLREDUCE	1048576	1024
IB4f_2	-1	42048	NONE	0	42048	NONE	0	47744	ALLREDUCE	2359296	2304
IB4f_3	-1	18688	NONE	0	18688	NONE	0	88576	ALLREDUCE	1048576	1024
RPN_Conv1	-1	336384	NONE	0	336384	NONE	0	268288	ALLREDUCE	18874368	18432
RPN_Conv_bbox	-1	4304	NONE	0	2040	NONE	0	10372	ALLREDUCE	73728	72
RPN_Conv3_cls	-1	4232	NONE	0	1002	NONE	0	9922	ALLREDUCE	36864	36