HYBRID_DATA_MODEL
8
LSTM_1	-1	2072	ALLGATHER	32	139	REDUCESCATTER	32768	273	ALLREDUCE	4096	4
LSTM_2	-1	2072	ALLGATHER	32	139	REDUCESCATTER	32768	273	ALLREDUCE	4096	4
LSTM_3	-1	2072	ALLGATHER	32	139	REDUCESCATTER	32768	273	ALLREDUCE	4096	4
LSTM_4	-1	2072	ALLGATHER	32	139	REDUCESCATTER	32768	273	ALLREDUCE	4096	4
LSTM_5	-1	2072	ALLGATHER	32	139	REDUCESCATTER	32768	273	ALLREDUCE	4096	4
LSTM_6	-1	2072	ALLGATHER	32	139	REDUCESCATTER	32768	273	ALLREDUCE	4096	4
LSTM_7	-1	2072	ALLGATHER	32	139	REDUCESCATTER	32768	273	ALLREDUCE	4096	4
LSTM_8	-1	2072	ALLGATHER	32	139	REDUCESCATTER	32768	273	ALLREDUCE	4096	4