MEGATRON_HYBRID_DATA_MODEL
8
GEMM_Q_GEN	-1	175104	NONE	0	175104	ALLREDUCE	100663296	221184	ALLREDUCE	4718592	98304
GEMM_K_GEN	-1	175104	NONE	0	175104	None	0	221184	ALLREDUCE	4718592	100
GEMM_V_GEN	-1	175104	NONE	0	175104	None	0	221184	ALLREDUCE	4718592	100
GEMM_QK	-1	58368	NONE	0	58368	None	0	212992	ALLREDUCE	4	100
GEMM_QKV	-1	58368	NONE	0	58368	None	0	40960	ALLREDUCE	4	100
GEMM_Linear	-1	175104	ALLREDUCE	100663296	175104	None	0	737280	ALLREDUCE	4718592	98304
GEMM_MLP_1	-1	700416	NONE	0	700416	ALLREDUCE	100663296	884736	ALLREDUCE	98304	98304
GEMM_MLP_2	-1	700416	ALLREDUCE	100663296	700416	NONE	0	1179648	ALLREDUCE	393216	98304