HYBRID_DATA_MODEL
54
Conv1	-1	50486	ALLGATHER	3211264	25240	REDUCESCATTER	59006976	235984	ALLREDUCE	4704	4
CB2a_1	-1	6408	ALLGATHER	802816	6352	REDUCESCATTER	6422528	54880	ALLREDUCE	2048	2
CB2a_2	-1	32552	ALLGATHER	802816	6448	REDUCESCATTER	57802752	79968	ALLREDUCE	18432	18
CB2a_3	-1	6432	ALLGATHER	3211264	6400	REDUCESCATTER	6422528	59584	ALLREDUCE	8192	8
CB2s	-1	6432	ALLGATHER	3211264	6400	REDUCESCATTER	6422528	59584	ALLREDUCE	8192	8
IB2b_1	-1	13072	ALLGATHER	802816	6424	REDUCESCATTER	25690112	64288	ALLREDUCE	8192	8
IB2b_2	-1	32552	ALLGATHER	802816	6448	REDUCESCATTER	57802752	79968	ALLREDUCE	18432	18
IB2b_3	-1	6432	ALLGATHER	3211264	6400	REDUCESCATTER	6422528	59584	ALLREDUCE	8192	8
IB2c_1	-1	13072	ALLGATHER	802816	6424	REDUCESCATTER	25690112	64288	ALLREDUCE	8192	8
IB2c_2	-1	32552	ALLGATHER	802816	6448	REDUCESCATTER	57802752	79968	ALLREDUCE	18432	18
IB2c_3	-1	6432	ALLGATHER	3211264	6400	REDUCESCATTER	6422528	59584	ALLREDUCE	8192	8
CB3a_1	-1	3680	ALLGATHER	401408	1744	REDUCESCATTER	6422528	16464	ALLREDUCE	16384	16
CB3a_2	-1	16560	ALLGATHER	401408	3568	REDUCESCATTER	28901376	27440	ALLREDUCE	73728	72
CB3a_3	-1	1888	ALLGATHER	1605632	1824	REDUCESCATTER	3211264	17248	ALLREDUCE	32768	32
CB3s	-1	3776	ALLGATHER	1605632	1888	REDUCESCATTER	6422528	18816	ALLREDUCE	65536	64
IB3b_1	-1	7360	ALLGATHER	401408	1776	REDUCESCATTER	12845056	19600	ALLREDUCE	32768	32
IB3b_2	-1	16560	ALLGATHER	401408	3568	REDUCESCATTER	28901376	27440	ALLREDUCE	73728	72
IB3b_3	-1	1888	ALLGATHER	1605632	1824	REDUCESCATTER	3211264	17248	ALLREDUCE	32768	32
IB3c_1	-1	7360	ALLGATHER	401408	1776	REDUCESCATTER	12845056	19600	ALLREDUCE	32768	32
IB3c_2	-1	16560	ALLGATHER	401408	3568	REDUCESCATTER	28901376	27440	ALLREDUCE	73728	72
IB3c_3	-1	1888	ALLGATHER	1605632	1824	REDUCESCATTER	3211264	17248	ALLREDUCE	32768	32
IB3d_1	-1	7360	ALLGATHER	401408	1776	REDUCESCATTER	12845056	19600	ALLREDUCE	32768	32
IB3d_2	-1	16560	ALLGATHER	401408	3568	REDUCESCATTER	28901376	27440	ALLREDUCE	73728	72
IB3d_3	-1	1888	ALLGATHER	1605632	1824	REDUCESCATTER	3211264	17248	ALLREDUCE	32768	32
CB4a_1	-1	2720	ALLGATHER	200704	680	REDUCESCATTER	3211264	5216	ALLREDUCE	65536	64
CB4a_2	-1	12240	ALLGATHER	200704	3336	REDUCESCATTER	14450688	11040	ALLREDUCE	294912	288
CB4a_3	-1	1552	ALLGATHER	802816	1552	REDUCESCATTER	1605632	5632	ALLREDUCE	131072	128
CB4s	-1	3104	ALLGATHER	802816	3104	REDUCESCATTER	3211264	6464	ALLREDUCE	262144	256
IB4b_1	-1	5440	ALLGATHER	200704	1360	REDUCESCATTER	6422528	6880	ALLREDUCE	131072	128
IB4b_2	-1	12240	ALLGATHER	200704	3336	REDUCESCATTER	14450688	11040	ALLREDUCE	294912	288
IB4b_3	-1	1552	ALLGATHER	802816	1552	REDUCESCATTER	1605632	5632	ALLREDUCE	131072	128
IB4c_1	-1	5440	ALLGATHER	200704	1360	REDUCESCATTER	6422528	6880	ALLREDUCE	131072	128
IB4c_2	-1	12240	ALLGATHER	200704	3336	REDUCESCATTER	14450688	11040	ALLREDUCE	294912	288
IB4c_3	-1	1552	ALLGATHER	802816	1552	REDUCESCATTER	1605632	5632	ALLREDUCE	131072	128
IB4d_1	-1	5440	ALLGATHER	200704	1360	REDUCESCATTER	6422528	6880	ALLREDUCE	131072	128
IB4d_2	-1	12240	ALLGATHER	200704	3336	REDUCESCATTER	14450688	11040	ALLREDUCE	294912	288
IB4d_3	-1	1552	ALLGATHER	802816	1552	REDUCESCATTER	1605632	5632	ALLREDUCE	131072	128
IB4e_1	-1	5440	ALLGATHER	200704	1360	REDUCESCATTER	6422528	6880	ALLREDUCE	131072	128
IB4e_2	-1	12240	ALLGATHER	200704	3336	REDUCESCATTER	14450688	11040	ALLREDUCE	294912	288
IB4e_3	-1	1552	ALLGATHER	802816	1552	REDUCESCATTER	1605632	5632	ALLREDUCE	131072	128
IB4f_1	-1	5440	ALLGATHER	200704	1360	REDUCESCATTER	6422528	6880	ALLREDUCE	131072	128
IB4f_2	-1	12240	ALLGATHER	200704	3336	REDUCESCATTER	14450688	11040	ALLREDUCE	294912	288
IB4f_3	-1	1552	ALLGATHER	802816	1552	REDUCESCATTER	1605632	5632	ALLREDUCE	131072	128
CB5a_1	-1	3344	ALLGATHER	100352	1672	REDUCESCATTER	1605632	2064	ALLREDUCE	262144	256
CB5a_2	-1	15048	ALLGATHER	100352	7524	REDUCESCATTER	7225344	5648	ALLREDUCE	1179648	1152
CB5a_3	-1	3856	ALLGATHER	401408	3856	REDUCESCATTER	802816	3616	ALLREDUCE	524288	512
CB5s	-1	7712	ALLGATHER	401408	7712	REDUCESCATTER	1605632	4640	ALLREDUCE	1048576	1024
IB5b_1	-1	6688	ALLGATHER	100352	3344	REDUCESCATTER	3211264	3088	ALLREDUCE	524288	512
IB5b_2	-1	15048	ALLGATHER	100352	7524	REDUCESCATTER	7225344	5648	ALLREDUCE	1179648	1152
IB5b_3	-1	3856	ALLGATHER	401408	3856	REDUCESCATTER	802816	3616	ALLREDUCE	524288	512
IB5c_1	-1	6688	ALLGATHER	100352	3344	REDUCESCATTER	3211264	3088	ALLREDUCE	524288	512
IB5c_2	-1	15048	ALLGATHER	100352	7524	REDUCESCATTER	7225344	5648	ALLREDUCE	1179648	1152
IB5c_3	-1	3856	ALLGATHER	401408	3856	REDUCESCATTER	802816	3616	ALLREDUCE	524288	512
FC6	-1	6128	ALLGATHER	4000	6080	REDUCESCATTER	65536	653	ALLREDUCE	1024000	1000