DATA
54
Conv1	-1	201126	NONE	0	100672	NONE	0	1119552	ALLREDUCE	37632	36
CB2a_1	-1	25280	NONE	0	25280	NONE	0	263424	ALLREDUCE	16384	16
CB2a_2	-1	126912	NONE	0	76096	NONE	0	363776	ALLREDUCE	147456	144
CB2a_3	-1	25408	NONE	0	50816	NONE	0	627200	ALLREDUCE	65536	64
CB2s	-1	25408	NONE	0	50816	NONE	0	627200	ALLREDUCE	65536	64
IB2b_1	-1	50816	NONE	0	25408	NONE	0	301056	ALLREDUCE	65536	64
IB2b_2	-1	126912	NONE	0	76096	NONE	0	363776	ALLREDUCE	147456	144
IB2b_3	-1	25408	NONE	0	50816	NONE	0	627200	ALLREDUCE	65536	64
IB2c_1	-1	50816	NONE	0	25408	NONE	0	301056	ALLREDUCE	65536	64
IB2c_2	-1	126912	NONE	0	76096	NONE	0	363776	ALLREDUCE	147456	144
IB2c_3	-1	25408	NONE	0	50816	NONE	0	627200	ALLREDUCE	65536	64
CB3a_1	-1	13312	NONE	0	13312	NONE	0	87808	ALLREDUCE	131072	128
CB3a_2	-1	59904	NONE	0	59904	NONE	0	131712	ALLREDUCE	589824	576
CB3a_3	-1	26624	NONE	0	26624	NONE	0	326144	ALLREDUCE	262144	256
CB3s	-1	53248	NONE	0	53248	NONE	0	351232	ALLREDUCE	524288	512
IB3b_1	-1	26624	NONE	0	26624	NONE	0	100352	ALLREDUCE	262144	256
IB3b_2	-1	59904	NONE	0	59904	NONE	0	131712	ALLREDUCE	589824	576
IB3b_3	-1	26624	NONE	0	26624	NONE	0	326144	ALLREDUCE	262144	256
IB3c_1	-1	26624	NONE	0	26624	NONE	0	100352	ALLREDUCE	262144	256
IB3c_2	-1	59904	NONE	0	59904	NONE	0	131712	ALLREDUCE	589824	576
IB3c_3	-1	26624	NONE	0	26624	NONE	0	326144	ALLREDUCE	262144	256
IB3d_1	-1	26624	NONE	0	26624	NONE	0	100352	ALLREDUCE	262144	256
IB3d_2	-1	59904	NONE	0	59904	NONE	0	131712	ALLREDUCE	589824	576
IB3d_3	-1	26624	NONE	0	26624	NONE	0	326144	ALLREDUCE	262144	256
CB4a_1	-1	15616	NONE	0	15616	NONE	0	50176	ALLREDUCE	524288	512
CB4a_2	-1	70272	NONE	0	70272	NONE	0	94080	ALLREDUCE	2359296	2304
CB4a_3	-1	31232	NONE	0	31232	NONE	0	175616	ALLREDUCE	1048576	1024
CB4s	-1	62464	NONE	0	62464	NONE	0	200704	ALLREDUCE	2097152	2048
IB4b_1	-1	31232	NONE	0	31232	NONE	0	62720	ALLREDUCE	1048576	1024
IB4b_2	-1	70272	NONE	0	70272	NONE	0	94080	ALLREDUCE	2359296	2304
IB4b_3	-1	31232	NONE	0	31232	NONE	0	175616	ALLREDUCE	1048576	1024
IB4c_1	-1	31232	NONE	0	31232	NONE	0	62720	ALLREDUCE	1048576	1024
IB4c_2	-1	70272	NONE	0	70272	NONE	0	94080	ALLREDUCE	2359296	2304
IB4c_3	-1	31232	NONE	0	31232	NONE	0	175616	ALLREDUCE	1048576	1024
IB4d_1	-1	31232	NONE	0	31232	NONE	0	62720	ALLREDUCE	1048576	1024
IB4d_2	-1	70272	NONE	0	70272	NONE	0	94080	ALLREDUCE	2359296	2304
IB4d_3	-1	31232	NONE	0	31232	NONE	0	175616	ALLREDUCE	1048576	1024
IB4e_1	-1	31232	NONE	0	31232	NONE	0	62720	ALLREDUCE	1048576	1024
IB4e_2	-1	70272	NONE	0	70272	NONE	0	94080	ALLREDUCE	2359296	2304
IB4e_3	-1	31232	NONE	0	31232	NONE	0	175616	ALLREDUCE	1048576	1024
IB4f_1	-1	31232	NONE	0	31232	NONE	0	62720	ALLREDUCE	1048576	1024
IB4f_2	-1	70272	NONE	0	70272	NONE	0	94080	ALLREDUCE	2359296	2304
IB4f_3	-1	31232	NONE	0	31232	NONE	0	175616	ALLREDUCE	1048576	1024
CB5a_1	-1	24832	NONE	0	24832	NONE	0	32512	ALLREDUCE	2097152	2048
CB5a_2	-1	111744	NONE	0	111744	NONE	0	79104	ALLREDUCE	9437184	9216
CB5a_3	-1	49664	NONE	0	49664	NONE	0	103424	ALLREDUCE	4194304	4096
CB5s	-1	99328	NONE	0	99328	NONE	0	130048	ALLREDUCE	8388608	8192
IB5b_1	-1	49664	NONE	0	49664	NONE	0	45824	ALLREDUCE	4194304	4096
IB5b_2	-1	111744	NONE	0	111744	NONE	0	79104	ALLREDUCE	9437184	9216
IB5b_3	-1	49664	NONE	0	49664	NONE	0	103424	ALLREDUCE	4194304	4096
IB5c_1	-1	49664	NONE	0	49664	NONE	0	45824	ALLREDUCE	4194304	4096
IB5c_2	-1	111744	NONE	0	111744	NONE	0	79104	ALLREDUCE	9437184	9216
IB5c_3	-1	49664	NONE	0	49664	NONE	0	103424	ALLREDUCE	4194304	4096
FC6	-1	49792	NONE	0	49408	NONE	0	1600	ALLREDUCE	8192000	8000