HYBRID_DATA_MODEL
54
Conv1	-1	201006	ALLGATHER	6422528	100492	REDUCESCATTER	236027904	931392	ALLREDUCE	2352	2
CB2a_1	-1	25220	ALLGATHER	1605632	25160	REDUCESCATTER	25690112	216384	ALLREDUCE	1024	1
CB2a_2	-1	126612	ALLGATHER	1605632	25240	REDUCESCATTER	231211008	316736	ALLREDUCE	9216	9
CB2a_3	-1	25232	ALLGATHER	6422528	25184	REDUCESCATTER	25690112	225792	ALLREDUCE	4096	4
CB2s	-1	25232	ALLGATHER	6422528	25184	REDUCESCATTER	25690112	225792	ALLREDUCE	4096	4
IB2b_1	-1	50696	ALLGATHER	1605632	25228	REDUCESCATTER	102760448	254016	ALLREDUCE	4096	4
IB2b_2	-1	126612	ALLGATHER	1605632	25240	REDUCESCATTER	231211008	316736	ALLREDUCE	9216	9
IB2b_3	-1	25232	ALLGATHER	6422528	25184	REDUCESCATTER	25690112	225792	ALLREDUCE	4096	4
IB2c_1	-1	50696	ALLGATHER	1605632	25228	REDUCESCATTER	102760448	254016	ALLREDUCE	4096	4
IB2c_2	-1	126612	ALLGATHER	1605632	25240	REDUCESCATTER	231211008	316736	ALLREDUCE	9216	9
IB2c_3	-1	25232	ALLGATHER	6422528	25184	REDUCESCATTER	25690112	225792	ALLREDUCE	4096	4
CB3a_1	-1	13072	ALLGATHER	802816	6424	REDUCESCATTER	25690112	64288	ALLREDUCE	8192	8
CB3a_2	-1	58824	ALLGATHER	802816	6480	REDUCESCATTER	115605504	108192	ALLREDUCE	36864	36
CB3a_3	-1	6560	ALLGATHER	3211264	6464	REDUCESCATTER	12845056	62720	ALLREDUCE	16384	16
CB3s	-1	13120	ALLGATHER	3211264	6496	REDUCESCATTER	25690112	68992	ALLREDUCE	32768	32
IB3b_1	-1	26144	ALLGATHER	802816	6440	REDUCESCATTER	51380224	76832	ALLREDUCE	16384	16
IB3b_2	-1	58824	ALLGATHER	802816	6480	REDUCESCATTER	115605504	108192	ALLREDUCE	36864	36
IB3b_3	-1	6560	ALLGATHER	3211264	6464	REDUCESCATTER	12845056	62720	ALLREDUCE	16384	16
IB3c_1	-1	26144	ALLGATHER	802816	6440	REDUCESCATTER	51380224	76832	ALLREDUCE	16384	16
IB3c_2	-1	58824	ALLGATHER	802816	6480	REDUCESCATTER	115605504	108192	ALLREDUCE	36864	36
IB3c_3	-1	6560	ALLGATHER	3211264	6464	REDUCESCATTER	12845056	62720	ALLREDUCE	16384	16
IB3d_1	-1	26144	ALLGATHER	802816	6440	REDUCESCATTER	51380224	76832	ALLREDUCE	16384	16
IB3d_2	-1	58824	ALLGATHER	802816	6480	REDUCESCATTER	115605504	108192	ALLREDUCE	36864	36
IB3d_3	-1	6560	ALLGATHER	3211264	6464	REDUCESCATTER	12845056	62720	ALLREDUCE	16384	16
CB4a_1	-1	7360	ALLGATHER	401408	1776	REDUCESCATTER	12845056	19600	ALLREDUCE	32768	32
CB4a_2	-1	33120	ALLGATHER	401408	5424	REDUCESCATTER	57802752	41552	ALLREDUCE	147456	144
CB4a_3	-1	3776	ALLGATHER	1605632	1888	REDUCESCATTER	6422528	18816	ALLREDUCE	65536	64
CB4s	-1	7552	ALLGATHER	1605632	3776	REDUCESCATTER	12845056	21952	ALLREDUCE	131072	128
IB4b_1	-1	14720	ALLGATHER	401408	1840	REDUCESCATTER	25690112	25872	ALLREDUCE	65536	64
IB4b_2	-1	33120	ALLGATHER	401408	5424	REDUCESCATTER	57802752	41552	ALLREDUCE	147456	144
IB4b_3	-1	3776	ALLGATHER	1605632	1888	REDUCESCATTER	6422528	18816	ALLREDUCE	65536	64
IB4c_1	-1	14720	ALLGATHER	401408	1840	REDUCESCATTER	25690112	25872	ALLREDUCE	65536	64
IB4c_2	-1	33120	ALLGATHER	401408	5424	REDUCESCATTER	57802752	41552	ALLREDUCE	147456	144
IB4c_3	-1	3776	ALLGATHER	1605632	1888	REDUCESCATTER	6422528	18816	ALLREDUCE	65536	64
IB4d_1	-1	14720	ALLGATHER	401408	1840	REDUCESCATTER	25690112	25872	ALLREDUCE	65536	64
IB4d_2	-1	33120	ALLGATHER	401408	5424	REDUCESCATTER	57802752	41552	ALLREDUCE	147456	144
IB4d_3	-1	3776	ALLGATHER	1605632	1888	REDUCESCATTER	6422528	18816	ALLREDUCE	65536	64
IB4e_1	-1	14720	ALLGATHER	401408	1840	REDUCESCATTER	25690112	25872	ALLREDUCE	65536	64
IB4e_2	-1	33120	ALLGATHER	401408	5424	REDUCESCATTER	57802752	41552	ALLREDUCE	147456	144
IB4e_3	-1	3776	ALLGATHER	1605632	1888	REDUCESCATTER	6422528	18816	ALLREDUCE	65536	64
IB4f_1	-1	14720	ALLGATHER	401408	1840	REDUCESCATTER	25690112	25872	ALLREDUCE	65536	64
IB4f_2	-1	33120	ALLGATHER	401408	5424	REDUCESCATTER	57802752	41552	ALLREDUCE	147456	144
IB4f_3	-1	3776	ALLGATHER	1605632	1888	REDUCESCATTER	6422528	18816	ALLREDUCE	65536	64
CB5a_1	-1	5440	ALLGATHER	200704	1360	REDUCESCATTER	6422528	6880	ALLREDUCE	131072	128
CB5a_2	-1	24480	ALLGATHER	200704	6120	REDUCESCATTER	28901376	18528	ALLREDUCE	589824	576
CB5a_3	-1	3104	ALLGATHER	802816	3104	REDUCESCATTER	3211264	6464	ALLREDUCE	262144	256
CB5s	-1	6208	ALLGATHER	802816	6208	REDUCESCATTER	6422528	8128	ALLREDUCE	524288	512
IB5b_1	-1	10880	ALLGATHER	200704	2720	REDUCESCATTER	12845056	10208	ALLREDUCE	262144	256
IB5b_2	-1	24480	ALLGATHER	200704	6120	REDUCESCATTER	28901376	18528	ALLREDUCE	589824	576
IB5b_3	-1	3104	ALLGATHER	802816	3104	REDUCESCATTER	3211264	6464	ALLREDUCE	262144	256
IB5c_1	-1	10880	ALLGATHER	200704	2720	REDUCESCATTER	12845056	10208	ALLREDUCE	262144	256
IB5c_2	-1	24480	ALLGATHER	200704	6120	REDUCESCATTER	28901376	18528	ALLREDUCE	589824	576
IB5c_3	-1	3104	ALLGATHER	802816	3104	REDUCESCATTER	3211264	6464	ALLREDUCE	262144	256
FC6	-1	5232	ALLGATHER	8000	2600	REDUCESCATTER	262144	639	ALLREDUCE	512000	500