HYBRID_DATA_MODEL
16
conv1	-1	802871	ALLGATHER	12845056	802845	REDUCESCATTER	346816512	6623232	ALLREDUCE	108	0
conv2	-1	4015237	ALLGATHER	12845056	802950	REDUCESCATTER	7398752256	10060288	ALLREDUCE	2304	2
conv3	-1	1004682	ALLGATHER	6422528	200844	REDUCESCATTER	1849688064	2521344	ALLREDUCE	4608	4
conv4	-1	1808658	ALLGATHER	6422528	200852	REDUCESCATTER	3699376128	3424512	ALLREDUCE	9216	9
conv5	-1	453924	ALLGATHER	3211264	50344	REDUCESCATTER	924844032	859264	ALLREDUCE	18432	18
conv6	-1	907848	ALLGATHER	3211264	50380	REDUCESCATTER	1849688064	1310848	ALLREDUCE	36864	36
conv7	-1	907848	ALLGATHER	3211264	50380	REDUCESCATTER	1849688064	1310848	ALLREDUCE	36864	36
conv8	-1	230544	ALLGATHER	1605632	25504	REDUCESCATTER	462422016	329280	ALLREDUCE	73728	72
conv9	-1	461088	ALLGATHER	1605632	38328	REDUCESCATTER	924844032	555072	ALLREDUCE	147456	144
conv10	-1	461088	ALLGATHER	1605632	38328	REDUCESCATTER	924844032	555072	ALLREDUCE	147456	144
conv11	-1	122400	ALLGATHER	401408	10104	REDUCESCATTER	231211008	138768	ALLREDUCE	147456	144
conv12	-1	122400	ALLGATHER	401408	10104	REDUCESCATTER	231211008	138768	ALLREDUCE	147456	144
conv13	-1	122400	ALLGATHER	401408	10104	REDUCESCATTER	231211008	138768	ALLREDUCE	147456	144
fc1	-1	65856	ALLGATHER	16384	32928	REDUCESCATTER	6422528	6464	ALLREDUCE	6422528	6272
fc2	-1	10752	ALLGATHER	16384	5376	REDUCESCATTER	1048576	1216	ALLREDUCE	1048576	1024
fc3	-1	9216	ALLGATHER	4000	1152	REDUCESCATTER	1048576	1168	ALLREDUCE	256000	250