HYBRID_DATA_MODEL
16
conv1	-1	200766	ALLGATHER	25690112	200747	REDUCESCATTER	86704128	1699712	ALLREDUCE	864	0
conv2	-1	1004712	ALLGATHER	25690112	200880	REDUCESCATTER	1849688064	2558976	ALLREDUCE	18432	18
conv3	-1	252112	ALLGATHER	12845056	50400	REDUCESCATTER	462422016	652288	ALLREDUCE	36864	36
conv4	-1	454032	ALLGATHER	12845056	100784	REDUCESCATTER	924844032	878080	ALLREDUCE	73728	72
conv5	-1	115488	ALLGATHER	6422528	38400	REDUCESCATTER	231211008	225792	ALLREDUCE	147456	144
conv6	-1	230976	ALLGATHER	6422528	64096	REDUCESCATTER	462422016	338688	ALLREDUCE	294912	288
conv7	-1	230976	ALLGATHER	6422528	64096	REDUCESCATTER	462422016	338688	ALLREDUCE	294912	288
conv8	-1	62208	ALLGATHER	3211264	31104	REDUCESCATTER	115605504	87808	ALLREDUCE	589824	576
conv9	-1	124416	ALLGATHER	3211264	62208	REDUCESCATTER	231211008	144256	ALLREDUCE	1179648	1152
conv10	-1	124416	ALLGATHER	3211264	62208	REDUCESCATTER	231211008	144256	ALLREDUCE	1179648	1152
conv11	-1	39744	ALLGATHER	802816	19872	REDUCESCATTER	57802752	36672	ALLREDUCE	1179648	1152
conv12	-1	39744	ALLGATHER	802816	19872	REDUCESCATTER	57802752	36672	ALLREDUCE	1179648	1152
conv13	-1	39744	ALLGATHER	802816	19872	REDUCESCATTER	57802752	36672	ALLREDUCE	1179648	1152
fc1	-1	304192	ALLGATHER	32768	304192	REDUCESCATTER	1605632	6480	ALLREDUCE	51380224	50176
fc2	-1	49664	ALLGATHER	32768	49664	REDUCESCATTER	262144	1232	ALLREDUCE	8388608	8192
fc3	-1	12320	ALLGATHER	8000	12224	REDUCESCATTER	262144	1181	ALLREDUCE	2048000	2000