HYBRID_DATA_MODEL
16
conv1	-1	1605718	ALLGATHER	822083584	1605723	REDUCESCATTER	693633024	14801920	ALLREDUCE	3456	3
conv2	-1	8029472	ALLGATHER	822083584	3211680	REDUCESCATTER	14797504512	21676032	ALLREDUCE	73728	72
conv3	-1	2008512	ALLGATHER	411041792	1205056	REDUCESCATTER	3699376128	5820416	ALLREDUCE	147456	144
conv4	-1	3615552	ALLGATHER	411041792	2008576	REDUCESCATTER	7398752256	7626752	ALLREDUCE	294912	288
conv5	-1	906624	ALLGATHER	205520896	906624	REDUCESCATTER	1849688064	2107392	ALLREDUCE	589824	576
conv6	-1	1813248	ALLGATHER	205520896	1813248	REDUCESCATTER	3699376128	3010560	ALLREDUCE	1179648	1152
conv7	-1	1813248	ALLGATHER	205520896	1813248	REDUCESCATTER	3699376128	3010560	ALLREDUCE	1179648	1152
conv8	-1	916992	ALLGATHER	102760448	916992	REDUCESCATTER	924844032	1505280	ALLREDUCE	2359296	2304
conv9	-1	1833984	ALLGATHER	102760448	1833984	REDUCESCATTER	1849688064	2408448	ALLREDUCE	4718592	4608
conv10	-1	1833984	ALLGATHER	102760448	1833984	REDUCESCATTER	1849688064	2408448	ALLREDUCE	4718592	4608
conv11	-1	479232	ALLGATHER	25690112	479232	REDUCESCATTER	462422016	602112	ALLREDUCE	4718592	4608
conv12	-1	479232	ALLGATHER	25690112	479232	REDUCESCATTER	462422016	602112	ALLREDUCE	4718592	4608
conv13	-1	479232	ALLGATHER	25690112	479232	REDUCESCATTER	462422016	602112	ALLREDUCE	4718592	4608
fc1	-1	1304576	ALLGATHER	1048576	1304576	REDUCESCATTER	12845056	106496	ALLREDUCE	205520896	200704
fc2	-1	212992	ALLGATHER	1048576	212992	REDUCESCATTER	2097152	22528	ALLREDUCE	33554432	32768
fc3	-1	52864	ALLGATHER	256000	52480	REDUCESCATTER	2097152	5620	ALLREDUCE	8192000	8000