Layer name,ifmap height,ifmap width,filter height,filter width,channels,num filter,strides,
LSTM_1,2,1,1,1,1,1024,1,
LSTM_2,2,1,1,1,1,1024,1,
LSTM_3,2,1,1,1,1,1024,1,
LSTM_4,2,1,1,1,1,1024,1,
LSTM_5,2,1,1,1,1,1024,1,
LSTM_6,2,1,1,1,1,1024,1,
LSTM_7,2,1,1,1,1,1024,1,
LSTM_8,2,1,1,1,1,1024,1,
