Layer name,ifmap height,ifmap width,filter height,filter width,channels,num filter,strides,
MLP_Bottom_0,4,2,1,2,1,512,1,
MLP_Bottom_1,128,2,1,2,1,512,1,
MLP_Bottom_2,128,2,1,2,1,512,1,
MLP_Bottom_3,128,2,1,2,1,16,1,
MLP_Top_0,260,2,1,2,1,512,1,
MLP_Top_1,128,2,1,2,1,512,1,
MLP_Top_2,128,2,1,2,1,512,1,
