,,queuing delay phase 0,queuing delay phase 1,queuing delay phase 2,queuing delay phase 3,network delay phase 1,network delay phase 2,network delay phase 3,avg chunk delay dimension 1,avg chunk delay dimension 2,avg chunk delay dimension 3,,,,,,,,,,,,,,,,,,,,,,,,,,,,,,,,,,,,,,
MLP_Bottom_0,gpt2_8B_megatron,0.000000,7.905500,8.285750,2.011375,1.009000,1.002250,1.009000,-nan,3.976875,6.532125,,,,,,,,,,,,,,,,,,,,,,,,,,,,,,,,,,,,,,
MLP_Bottom_1,gpt2_8B_megatron,0.000000,15.486000,18.660500,7.250875,1.354250,1.088563,1.354208,,,,,,,,,,,,,,,,,,,,,,,,,,,,,,,,,,,,,,,,,
MLP_Bottom_2,gpt2_8B_megatron,0.000000,49.321375,4.717625,19.431375,1.354292,1.088563,1.354250,,,,,,,,,,,,,,,,,,,,,,,,,,,,,,,,,,,,,,,,,
MLP_Bottom_3,gpt2_8B_megatron,0.000000,99.675250,8.096375,2.967250,1.011083,1.002771,1.011042,,,,,,,,,,,,,,,,,,,,,,,,,,,,,,,,,,,,,,,,,
MLP_Top_0,gpt2_8B_megatron,0.000000,36.447250,25.693750,70.628625,1.749000,1.179896,1.749000,,,,,,,,,,,,,,,,,,,,,,,,,,,,,,,,,,,,,,,,,
MLP_Top_1,gpt2_8B_megatron,0.000000,86.200000,28.396250,55.841375,1.354250,1.088563,1.354250,,,,,,,,,,,,,,,,,,,,,,,,,,,,,,,,,,,,,,,,,
MLP_Top_2,gpt2_8B_megatron,0.000000,101.095625,1.249500,99.399250,1.354208,1.088542,1.354250,,,,,,,,,,,,,,,,,,,,,,,,,,,,,,,,,,,,,,,,,
,,,,,,,,,,,,,,,,,,,,,,,,,,,,,,,,,,,,,,,,,,,,,,,,,
,,,,,,,,,,,,,,,,,,,,,,,,,,,,,,,,,,,,,,,,,,,,,,,,,
,,,,,,,,,,,,,,,,,,,,,,,,,,,,,,,,,,,,,,,,,,,,,,,,,
,,,,,,,,,,,,,,,,,,,,,,,,,,,,,,,,,,,,,,,,,,,,,,,,,
,,,,,,,,,,,,,,,,,,,,,,,,,,,,,,,,,,,,,,,,,,,,,,,,,
,,,,,,,,,,,,,,,,,,,,,,,,,,,,,,,,,,,,,,,,,,,,,,,,,
,,,,,,,,,,,,,,,,,,,,,,,,,,,,,,,,,,,,,,,,,,,,,,,,,
,,,,,,,,,,,,,,,,,,,,,,,,,,,,,,,,,,,,,,,,,,,,,,,,,
,,,,,,,,,,,,,,,,,,,,,,,,,,,,,,,,,,,,,,,,,,,,,,,,,
,,,,,,,,,,,,,,,,,,,,,,,,,,,,,,,,,,,,,,,,,,,,,,,,,
,,,,,,,,,,,,,,,,,,,,,,,,,,,,,,,,,,,,,,,,,,,,,,,,,
,,,,,,,,,,,,,,,,,,,,,,,,,,,,,,,,,,,,,,,,,,,,,,,,,
,,,,,,,,,,,,,,,,,,,,,,,,,,,,,,,,,,,,,,,,,,,,,,,,,
,,,,,,,,,,,,,,,,,,,,,,,,,,,,,,,,,,,,,,,,,,,,,,,,,
,,,,,,,,,,,,,,,,,,,,,,,,,,,,,,,,,,,,,,,,,,,,,,,,,
,,,,,,,,,,,,,,,,,,,,,,,,,,,,,,,,,,,,,,,,,,,,,,,,,
,,,,,,,,,,,,,,,,,,,,,,,,,,,,,,,,,,,,,,,,,,,,,,,,,
,,,,,,,,,,,,,,,,,,,,,,,,,,,,,,,,,,,,,,,,,,,,,,,,,
,,,,,,,,,,,,,,,,,,,,,,,,,,,,,,,,,,,,,,,,,,,,,,,,,
