,,fwd compute,wg compute,ig compute,fwd exposed comm,wg exposed comm,ig exposed comm,fwd total comm,wg total comm,ig total comm,workload finished at,total comp,total exposed comm,,,,,,,,,,,,,,,,,,,,,,,,,,,,,,,,,,,,
MLP_Bottom_0,gpt2_8B_megatron,0.402000,0.582000,0.000000,0.000000,80.348000,0.000000,0.000000,80.350000,0.000000,494.195000,162.608000,331.587000,,,,,,,,,,,,,,,,,,,,,,,,,,,,,,,,,,,,
MLP_Bottom_1,gpt2_8B_megatron,12.544000,0.832000,12.544000,0.000000,21.310000,0.000000,0.000000,136.504000,0.000000,494.195000,,,,,,,,,,,,,,,,,,,,,,,,,,,,,,,,,,,,,,
MLP_Bottom_2,gpt2_8B_megatron,12.544000,0.832000,12.544000,0.000000,14.240000,0.000000,0.000000,190.911000,0.000000,494.195000,,,,,,,,,,,,,,,,,,,,,,,,,,,,,,,,,,,,,,
MLP_Bottom_3,gpt2_8B_megatron,2.240000,0.416000,0.432000,0.000000,27.895000,0.000000,0.000000,260.514000,0.000000,494.195000,,,,,,,,,,,,,,,,,,,,,,,,,,,,,,,,,,,,,,
MLP_Top_0,gpt2_8B_megatron,26.432000,1.096000,27.328000,0.000000,16.788000,0.000000,0.000000,324.080000,0.000000,494.195000,,,,,,,,,,,,,,,,,,,,,,,,,,,,,,,,,,,,,,
MLP_Top_1,gpt2_8B_megatron,12.544000,0.832000,12.544000,0.000000,10.343000,0.000000,0.000000,384.845000,0.000000,494.195000,,,,,,,,,,,,,,,,,,,,,,,,,,,,,,,,,,,,,,
MLP_Top_2,gpt2_8B_megatron,12.544000,0.832000,12.544000,0.000000,18.344000,0.000000,0.000000,447.458000,0.000000,494.195000,,,,,,,,,,,,,,,,,,,,,,,,,,,,,,,,,,,,,,
,,,,,,,,,,,,,,,,,,,,,,,,,,,,,,,,,,,,,,,,,,,,,,,,,
,,,,,,,,,,,,,,,,,,,,,,,,,,,,,,,,,,,,,,,,,,,,,,,,,
,,,,,,,,,,,,,,,,,,,,,,,,,,,,,,,,,,,,,,,,,,,,,,,,,
,,,,,,,,,,,,,,,,,,,,,,,,,,,,,,,,,,,,,,,,,,,,,,,,,
,,,,,,,,,,,,,,,,,,,,,,,,,,,,,,,,,,,,,,,,,,,,,,,,,
,,,,,,,,,,,,,,,,,,,,,,,,,,,,,,,,,,,,,,,,,,,,,,,,,
,,,,,,,,,,,,,,,,,,,,,,,,,,,,,,,,,,,,,,,,,,,,,,,,,
,,,,,,,,,,,,,,,,,,,,,,,,,,,,,,,,,,,,,,,,,,,,,,,,,
,,,,,,,,,,,,,,,,,,,,,,,,,,,,,,,,,,,,,,,,,,,,,,,,,
,,,,,,,,,,,,,,,,,,,,,,,,,,,,,,,,,,,,,,,,,,,,,,,,,
,,,,,,,,,,,,,,,,,,,,,,,,,,,,,,,,,,,,,,,,,,,,,,,,,
,,,,,,,,,,,,,,,,,,,,,,,,,,,,,,,,,,,,,,,,,,,,,,,,,
,,,,,,,,,,,,,,,,,,,,,,,,,,,,,,,,,,,,,,,,,,,,,,,,,
,,,,,,,,,,,,,,,,,,,,,,,,,,,,,,,,,,,,,,,,,,,,,,,,,
,,,,,,,,,,,,,,,,,,,,,,,,,,,,,,,,,,,,,,,,,,,,,,,,,
,,,,,,,,,,,,,,,,,,,,,,,,,,,,,,,,,,,,,,,,,,,,,,,,,
,,,,,,,,,,,,,,,,,,,,,,,,,,,,,,,,,,,,,,,,,,,,,,,,,
,,,,,,,,,,,,,,,,,,,,,,,,,,,,,,,,,,,,,,,,,,,,,,,,,
,,,,,,,,,,,,,,,,,,,,,,,,,,,,,,,,,,,,,,,,,,,,,,,,,
