Layer,	Cycles,	% Utilization,
conv1,	802971,	10.546875,
conv2,	2409280,	75.00265639527161,
conv3,	1005376,	90.00254631103189,
conv4,	1809792,	100.0,
conv5,	910080,	100.0,
conv6,	1820160,	100.0,
conv7,	1820160,	100.0,
conv8,	930816,	100.0,
conv9,	1861632,	100.0,
conv10,	1861632,	100.0,
conv11,	506880,	100.0,
conv12,	506880,	100.0,
conv13,	506880,	100.0,
fc1,	2508800,	100.0,
fc2,	409600,	100.0,
fc3,	100864,	97.90609137055839,
