Layer,	Cycles,	% Utilization,
Conv1,	63700,	25.0,
CB2a_1,	14896,	25.0,
CB2a_2,	21168,	25.0,
CB2a_3,	19600,	100.0,
CB2s,	19600,	100.0,
IB2b_1,	17248,	25.0,
IB2b_2,	21168,	25.0,
IB2b_3,	19600,	100.0,
IB2c_1,	17248,	25.0,
IB2c_2,	21168,	25.0,
IB2c_3,	19600,	100.0,
CB3a_1,	4800,	48.5,
CB3a_2,	7712,	47.977178423236516,
CB3a_3,	10432,	96.77914110429448,
CB3s,	11264,	96.5909090909091,
IB3b_1,	5632,	48.29545454545455,
IB3b_2,	7712,	47.977178423236516,
IB3b_3,	10432,	96.77914110429448,
IB3c_1,	5632,	48.29545454545455,
IB3c_2,	7712,	47.977178423236516,
IB3c_3,	10432,	96.77914110429448,
IB3d_1,	5632,	48.29545454545455,
IB3d_2,	7712,	47.977178423236516,
IB3d_3,	10432,	96.77914110429448,
CB4a_1,	1808,	85.89601769911505,
CB4a_2,	3600,	81.25,
CB4a_3,	6208,	87.43556701030928,
CB4s,	7232,	85.89601769911505,
IB4b_1,	2320,	83.83620689655173,
IB4b_2,	3600,	81.25,
IB4b_3,	6208,	87.43556701030928,
IB4c_1,	2320,	83.83620689655173,
IB4c_2,	3600,	81.25,
IB4c_3,	6208,	87.43556701030928,
IB4d_1,	2320,	83.83620689655173,
IB4d_2,	3600,	81.25,
IB4d_3,	6208,	87.43556701030928,
IB4e_1,	2320,	83.83620689655173,
IB4e_2,	3600,	81.25,
IB4e_3,	6208,	87.43556701030928,
IB4f_1,	2320,	83.83620689655173,
IB4f_2,	3600,	81.25,
IB4f_3,	6208,	87.43556701030928,
CB5a_1,	1160,	76.5625,
CB5a_2,	2952,	76.5625,
CB5a_3,	3616,	76.5625,
CB5s,	4640,	76.5625,
IB5b_1,	1672,	76.5625,
IB5b_2,	2952,	76.5625,
IB5b_3,	3616,	76.5625,
IB5c_1,	1672,	76.5625,
IB5c_2,	2952,	76.5625,
IB5c_3,	3616,	76.5625,
FC6,	650,	6.103515625,
