Layer,	Cycles,	% Utilization,
Conv1,	100492,	3.5888671875,
CB2a_1,	25160,	1.5625,
CB2a_2,	25240,	14.0625,
CB2a_3,	25184,	6.25,
CB2s,	25184,	6.25,
IB2b_1,	25228,	6.25,
IB2b_2,	25240,	14.0625,
IB2b_3,	25184,	6.25,
IB2c_1,	25228,	6.25,
IB2c_2,	25240,	14.0625,
IB2c_3,	25184,	6.25,
CB3a_1,	6424,	12.5,
CB3a_2,	6480,	56.25,
CB3a_3,	6464,	25.0,
CB3s,	6496,	50.0,
IB3b_1,	6440,	25.0,
IB3b_2,	6480,	56.25,
IB3b_3,	6464,	25.0,
IB3c_1,	6440,	25.0,
IB3c_2,	6480,	56.25,
IB3c_3,	6464,	25.0,
IB3d_1,	6440,	25.0,
IB3d_2,	6480,	56.25,
IB3d_3,	6464,	25.0,
CB4a_1,	1776,	50.0,
CB4a_2,	5424,	75.88495575221239,
CB4a_3,	1888,	100.0,
CB4s,	3776,	100.0,
IB4b_1,	1840,	100.0,
IB4b_2,	5424,	75.88495575221239,
IB4b_3,	1888,	100.0,
IB4c_1,	1840,	100.0,
IB4c_2,	5424,	75.88495575221239,
IB4c_3,	1888,	100.0,
IB4d_1,	1840,	100.0,
IB4d_2,	5424,	75.88495575221239,
IB4d_3,	1888,	100.0,
IB4e_1,	1840,	100.0,
IB4e_2,	5424,	75.88495575221239,
IB4e_3,	1888,	100.0,
IB4f_1,	1840,	100.0,
IB4f_2,	5424,	75.88495575221239,
IB4f_3,	1888,	100.0,
CB5a_1,	1360,	100.0,
CB5a_2,	6120,	100.0,
CB5a_3,	3104,	100.0,
CB5s,	6208,	100.0,
IB5b_1,	2720,	100.0,
IB5b_2,	6120,	100.0,
IB5b_3,	3104,	100.0,
IB5c_1,	2720,	100.0,
IB5c_2,	6120,	100.0,
IB5c_3,	3104,	100.0,
FC6,	2600,	98.4375,
