Layer,	Cycles,	% Utilization,
Conv1,	139944,	50.0,
CB2a_1,	32928,	50.0,
CB2a_2,	45472,	50.0,
CB2a_3,	78400,	100.0,
CB2s,	78400,	100.0,
IB2b_1,	37632,	50.0,
IB2b_2,	45472,	50.0,
IB2b_3,	78400,	100.0,
IB2c_1,	37632,	50.0,
IB2c_2,	45472,	50.0,
IB2c_3,	78400,	100.0,
CB3a_1,	11072,	98.55491329479769,
CB3a_2,	16672,	98.36852207293666,
CB3a_3,	41088,	98.5981308411215,
CB3s,	44288,	98.55491329479769,
IB3b_1,	12672,	98.48484848484848,
IB3b_2,	16672,	98.36852207293666,
IB3b_3,	41088,	98.5981308411215,
IB3c_1,	12672,	98.48484848484848,
IB3c_2,	16672,	98.36852207293666,
IB3c_3,	41088,	98.5981308411215,
IB3d_1,	12672,	98.48484848484848,
IB3d_2,	16672,	98.36852207293666,
IB3d_3,	41088,	98.5981308411215,
CB4a_1,	6720,	92.5,
CB4a_2,	12992,	90.08620689655173,
CB4a_3,	23296,	93.26923076923077,
CB4s,	26880,	92.5,
IB4b_1,	8512,	91.44736842105263,
IB4b_2,	12992,	90.08620689655173,
IB4b_3,	23296,	93.26923076923077,
IB4c_1,	8512,	91.44736842105263,
IB4c_2,	12992,	90.08620689655173,
IB4c_3,	23296,	93.26923076923077,
IB4d_1,	8512,	91.44736842105263,
IB4d_2,	12992,	90.08620689655173,
IB4d_3,	23296,	93.26923076923077,
IB4e_1,	8512,	91.44736842105263,
IB4e_2,	12992,	90.08620689655173,
IB4e_3,	23296,	93.26923076923077,
IB4f_1,	8512,	91.44736842105263,
IB4f_2,	12992,	90.08620689655173,
IB4f_3,	23296,	93.26923076923077,
RPN_Conv1,	74368,	88.40361445783132,
RPN_Conv_bbox,	2716,	26.349065721649485,
RPN_Conv3_cls,	2590,	13.216849662162161,
