Layer name,ifmap height,ifmap width,filter height,filter width,channels,num filter,strides,
Conv1,37,50176,1,50176,1,64,1,
CB2a_1,16,12544,1,12544,1,64,1,
CB2a_2,144,12544,1,12544,1,64,1,
CB2a_3,16,12544,1,12544,1,256,1,
CB2s,16,12544,1,12544,1,256,1,
IB2b_1,64,12544,1,12544,1,64,1,
IB2b_2,144,12544,1,12544,1,64,1,
IB2b_3,16,12544,1,12544,1,256,1,
IB2c_1,64,12544,1,12544,1,64,1,
IB2c_2,144,12544,1,12544,1,64,1,
IB2c_3,16,12544,1,12544,1,256,1,
CB3a_1,64,3136,1,3136,1,128,1,
CB3a_2,288,3136,1,3136,1,128,1,
CB3a_3,32,3136,1,3136,1,512,1,
CB3s,64,3136,1,3136,1,512,1,
IB3b_1,128,3136,1,3136,1,128,1,
IB3b_2,288,3136,1,3136,1,128,1,
IB3b_3,32,3136,1,3136,1,512,1,
IB3c_1,128,3136,1,3136,1,128,1,
IB3c_2,288,3136,1,3136,1,128,1,
IB3c_3,32,3136,1,3136,1,512,1,
IB3d_1,128,3136,1,3136,1,128,1,
IB3d_2,288,3136,1,3136,1,128,1,
IB3d_3,32,3136,1,3136,1,512,1,
CB4a_1,128,784,1,784,1,256,1,
CB4a_2,576,784,1,784,1,256,1,
CB4a_3,64,784,1,784,1,1024,1,
CB4s,128,784,1,784,1,1024,1,
IB4b_1,256,784,1,784,1,256,1,
IB4b_2,576,784,1,784,1,256,1,
IB4b_3,64,784,1,784,1,1024,1,
IB4c_1,256,784,1,784,1,256,1,
IB4c_2,576,784,1,784,1,256,1,
IB4c_3,64,784,1,784,1,1024,1,
IB4d_1,256,784,1,784,1,256,1,
IB4d_2,576,784,1,784,1,256,1,
IB4d_3,64,784,1,784,1,1024,1,
IB4e_1,256,784,1,784,1,256,1,
IB4e_2,576,784,1,784,1,256,1,
IB4e_3,64,784,1,784,1,1024,1,
IB4f_1,256,784,1,784,1,256,1,
IB4f_2,576,784,1,784,1,256,1,
IB4f_3,64,784,1,784,1,1024,1,
RPN_Conv1,2304,784,1,784,1,512,1,
RPN_Conv_bbox,128,784,1,784,1,36,1,
RPN_Conv3_cls,128,784,1,784,1,18,1,
