Layer name,ifmap height,ifmap width,filter height,filter width,channels,num filter,strides,
GEMM_Q_GEN,2048,128,1,128,1,3072,1,
GEMM_K_GEN,2048,128,1,128,1,3072,1,
GEMM_V_GEN,2048,128,1,128,1,3072,1,
GEMM_QK,2048,8192,1,8192,1,128,1,
GEMM_QKV,2048,128,1,128,1,8192,1,
GEMM_Linear,2048,3072,1,3072,1,96,1,
GEMM_MLP_1,2048,384,1,384,1,3072,1,
GEMM_MLP_2,2048,3072,1,3072,1,384,1,
