Layer name,ifmap height,ifmap width,filter height,filter width,channels,num filter,strides,
conv1,7,3211264,1,3211264,1,4,1,
conv2,144,3211264,1,3211264,1,4,1,
conv3,144,802816,1,802816,1,8,1,
conv4,288,802816,1,802816,1,8,1,
conv5,288,200704,1,200704,1,16,1,
conv6,576,200704,1,200704,1,16,1,
conv7,576,200704,1,200704,1,16,1,
conv8,576,50176,1,50176,1,32,1,
conv9,1152,50176,1,50176,1,32,1,
conv10,1152,50176,1,50176,1,32,1,
conv11,1152,12544,1,12544,1,32,1,
conv12,1152,12544,1,12544,1,32,1,
conv13,1152,12544,1,12544,1,32,1,
fc1,6272,64,1,64,1,256,1,
fc2,1024,64,1,64,1,256,1,
fc3,1024,64,1,64,1,63,1,
