Layer,	Cycles,	% Utilization,
Conv1,	100528,	14.35546875,
CB2a_1,	25184,	6.25,
CB2a_2,	25312,	56.25,
CB2a_3,	25280,	25.0,
CB2s,	25280,	25.0,
IB2b_1,	25264,	25.0,
IB2b_2,	25312,	56.25,
IB2b_3,	25280,	25.0,
IB2c_1,	25264,	25.0,
IB2c_2,	25312,	56.25,
IB2c_3,	25280,	25.0,
CB3a_1,	6496,	50.0,
CB3a_2,	19584,	75.24509803921569,
CB3a_3,	6656,	100.0,
CB3s,	13312,	100.0,
IB3b_1,	6560,	100.0,
IB3b_2,	19584,	75.24509803921569,
IB3b_3,	6656,	100.0,
IB3c_1,	6560,	100.0,
IB3c_2,	19584,	75.24509803921569,
IB3c_3,	6656,	100.0,
IB3d_1,	6560,	100.0,
IB3d_2,	19584,	75.24509803921569,
IB3d_3,	6656,	100.0,
CB4a_1,	3776,	100.0,
CB4a_2,	16992,	100.0,
CB4a_3,	7808,	100.0,
CB4s,	15616,	100.0,
IB4b_1,	7552,	100.0,
IB4b_2,	16992,	100.0,
IB4b_3,	7808,	100.0,
IB4c_1,	7552,	100.0,
IB4c_2,	16992,	100.0,
IB4c_3,	7808,	100.0,
IB4d_1,	7552,	100.0,
IB4d_2,	16992,	100.0,
IB4d_3,	7808,	100.0,
IB4e_1,	7552,	100.0,
IB4e_2,	16992,	100.0,
IB4e_3,	7808,	100.0,
IB4f_1,	7552,	100.0,
IB4f_2,	16992,	100.0,
IB4f_3,	7808,	100.0,
RPN_Conv1,	140544,	100.0,
RPN_Conv_bbox,	1741,	28.125,
RPN_Conv3_cls,	1721,	15.625,
