Layer,	Cycles,	% Utilization,
Conv1,	465696,	3.125,
CB2a_1,	108192,	3.125,
CB2a_2,	158368,	3.125,
CB2a_3,	112896,	12.5,
CB2s,	112896,	12.5,
IB2b_1,	127008,	3.125,
IB2b_2,	158368,	3.125,
IB2b_3,	112896,	12.5,
IB2c_1,	127008,	3.125,
IB2c_2,	158368,	3.125,
IB2c_3,	112896,	12.5,
CB3a_1,	32144,	6.25,
CB3a_2,	54096,	6.25,
CB3a_3,	31360,	25.0,
CB3s,	34496,	25.0,
IB3b_1,	38416,	6.25,
IB3b_2,	54096,	6.25,
IB3b_3,	31360,	25.0,
IB3c_1,	38416,	6.25,
IB3c_2,	54096,	6.25,
IB3c_3,	31360,	25.0,
IB3d_1,	38416,	6.25,
IB3d_2,	54096,	6.25,
IB3d_3,	31360,	25.0,
CB4a_1,	9872,	12.327795786061587,
CB4a_2,	21072,	12.286446469248292,
CB4a_3,	9472,	49.32432432432432,
CB4s,	11072,	49.27745664739884,
IB4b_1,	13072,	12.30875152998776,
IB4b_2,	21072,	12.286446469248292,
IB4b_3,	9472,	49.32432432432432,
IB4c_1,	13072,	12.30875152998776,
IB4c_2,	21072,	12.286446469248292,
IB4c_3,	9472,	49.32432432432432,
IB4d_1,	13072,	12.30875152998776,
IB4d_2,	21072,	12.286446469248292,
IB4d_3,	9472,	49.32432432432432,
IB4e_1,	13072,	12.30875152998776,
IB4e_2,	21072,	12.286446469248292,
IB4e_3,	9472,	49.32432432432432,
IB4f_1,	13072,	12.30875152998776,
IB4f_2,	21072,	12.286446469248292,
IB4f_3,	9472,	49.32432432432432,
CB5a_1,	3584,	23.046875,
CB5a_2,	9856,	22.301136363636363,
CB5a_3,	3360,	92.5,
CB5s,	4256,	91.44736842105263,
IB5b_1,	5376,	22.65625,
IB5b_2,	9856,	22.301136363636363,
IB5b_3,	3360,	92.5,
IB5c_1,	5376,	22.65625,
IB5c_2,	9856,	22.301136363636363,
IB5c_3,	3360,	92.5,
FC6,	607,	6.15234375,
