Layer,	Cycles,	% Utilization,
GEMM_Q_GEN,	122880,	100.0,
GEMM_K_GEN,	122880,	100.0,
GEMM_V_GEN,	122880,	100.0,
GEMM_QK,	1835008,	100.0,
GEMM_QKV,	286720,	100.0,
GEMM_Linear,	884736,	100.0,
GEMM_MLP_1,	1474560,	100.0,
GEMM_MLP_2,	1769472,	100.0,
