Layer name,ifmap height,ifmap width,filter height,filter width,channels,num filter,strides,
GEMM_Q_GEN,4096,128,1,128,1,3072,1,
GEMM_K_GEN,4096,128,1,128,1,3072,1,
GEMM_V_GEN,4096,128,1,128,1,3072,1,
GEMM_QK,4096,8192,1,8192,1,128,1,
GEMM_QKV,4096,128,1,128,1,8192,1,
GEMM_Linear,4096,3072,1,3072,1,384,1,
GEMM_MLP_1,4096,1536,1,1536,1,3072,1,
GEMM_MLP_2,4096,3072,1,3072,1,1536,1,
