Layer,	Cycles,	% Utilization,
MLP_Bottom_0,	301,	10.15625,
MLP_Bottom_1,	1664,	100.0,
MLP_Bottom_2,	1664,	100.0,
MLP_Bottom_3,	180,	12.5,
MLP_Top_0,	3632,	92.6762114537445,
MLP_Top_1,	1664,	100.0,
MLP_Top_2,	1664,	100.0,
