 time (us) ,dim1 util,dim2 util,dim3 util,
10.000000,0.000000,0.000000,0.000000,
20.000000,0.000000,0.000000,0.000000,
30.000000,0.000000,0.000000,0.000000,
40.000000,0.000000,0.000000,0.000000,
50.000000,0.000000,0.000000,0.000000,
60.000000,0.000000,0.000000,0.000000,
70.000000,0.000000,0.000000,0.000000,
80.000000,0.000000,0.000000,0.000000,
90.000000,0.000000,0.000000,0.000000,
100.000000,0.000000,0.000000,0.000000,
110.000000,0.000000,0.000000,0.000000,
120.000000,0.000000,0.000000,0.000000,
130.000000,0.000000,0.000000,0.000000,
140.000000,0.000000,0.000000,0.000000,
150.000000,0.000000,0.000000,0.000000,
160.000000,0.000000,0.000000,0.000000,
170.000000,0.000000,0.000000,0.000000,
180.000000,0.000000,0.000000,0.000000,
190.000000,0.000000,0.000000,0.000000,
200.000000,0.000000,0.000000,0.000000,
210.000000,0.000000,0.000000,0.000000,
220.000000,0.000000,0.000000,0.000000,
230.000000,0.000000,0.000000,0.000000,
240.000000,0.000000,0.000000,0.000000,
250.000000,0.000000,0.000000,0.000000,
260.000000,0.000000,0.000000,0.000000,
270.000000,0.000000,0.000000,0.000000,
280.000000,0.000000,0.000000,0.000000,
290.000000,0.000000,0.000000,0.000000,
300.000000,0.000000,0.000000,0.000000,
310.000000,0.000000,0.000000,0.000000,
320.000000,0.000000,0.000000,0.000000,
330.000000,0.000000,0.000000,0.000000,
340.000000,0.000000,0.000000,0.000000,
350.000000,0.000000,0.000000,0.000000,
360.000000,0.000000,0.000000,0.000000,
370.000000,0.000000,0.000000,0.000000,
380.000000,0.000000,0.000000,0.000000,
390.000000,0.000000,0.000000,0.000000,
400.000000,0.000000,0.000000,0.000000,
410.000000,0.000000,0.000000,0.000000,
420.000000,0.000000,0.000000,0.000000,
430.000000,0.000000,0.000000,0.000000,
440.000000,0.000000,0.000000,0.000000,
450.000000,0.000000,0.000000,0.000000,
460.000000,0.000000,0.000000,0.000000,
470.000000,0.000000,0.000000,0.000000,
480.000000,0.000000,0.000000,0.000000,
490.000000,0.000000,0.000000,0.000000,
500.000000,0.000000,0.000000,0.000000,
510.000000,0.000000,0.000000,0.000000,
520.000000,0.000000,0.000000,0.000000,
530.000000,0.000000,0.000000,0.000000,
540.000000,0.000000,0.000000,0.000000,
550.000000,0.000000,0.000000,0.000000,
560.000000,0.000000,0.000000,0.000000,
570.000000,0.000000,0.000000,0.000000,
580.000000,0.000000,0.000000,0.000000,
590.000000,0.000000,0.000000,0.000000,
600.000000,0.000000,0.000000,0.000000,
610.000000,0.000000,0.000000,0.000000,
620.000000,0.000000,0.000000,0.000000,
630.000000,0.000000,0.000000,0.000000,
640.000000,0.000000,0.000000,0.000000,
650.000000,0.000000,0.000000,0.000000,
660.000000,0.000000,0.000000,0.000000,
670.000000,0.000000,0.000000,0.000000,
680.000000,0.000000,0.000000,0.000000,
690.000000,0.000000,0.000000,0.000000,
700.000000,0.000000,0.000000,0.000000,
710.000000,0.000000,0.000000,0.000000,
720.000000,0.000000,0.000000,0.000000,
730.000000,0.000000,0.000000,0.000000,
740.000000,0.000000,0.000000,0.000000,
750.000000,0.000000,0.000000,0.000000,
760.000000,0.000000,0.000000,0.000000,
770.000000,0.000000,0.000000,0.000000,
780.000000,0.000000,0.000000,0.000000,
790.000000,0.000000,0.000000,0.000000,
800.000000,0.000000,0.000000,0.000000,
810.000000,0.000000,0.000000,0.000000,
820.000000,0.000000,0.000000,0.000000,
830.000000,0.000000,0.000000,0.000000,
840.000000,0.000000,0.000000,0.000000,
850.000000,0.000000,0.000000,0.000000,
860.000000,0.000000,0.000000,0.000000,
870.000000,0.000000,0.000000,0.000000,
880.000000,0.000000,0.000000,0.000000,
890.000000,0.000000,0.000000,0.000000,
900.000000,0.000000,0.000000,0.000000,
910.000000,0.000000,0.000000,0.000000,
920.000000,0.000000,0.000000,0.000000,
930.000000,0.000000,0.000000,0.000000,
940.000000,0.000000,0.000000,0.000000,
950.000000,0.000000,0.000000,0.000000,
960.000000,0.000000,0.000000,0.000000,
970.000000,0.000000,0.000000,0.000000,
980.000000,0.000000,0.000000,0.000000,
990.000000,0.000000,0.000000,0.000000,
1000.000000,0.000000,0.000000,0.000000,
1010.000000,0.000000,0.000000,0.000000,
1020.000000,0.000000,0.000000,0.000000,
1030.000000,0.000000,0.000000,0.000000,
1040.000000,0.000000,0.000000,0.000000,
1050.000000,0.000000,0.000000,0.000000,
1060.000000,0.000000,0.000000,0.000000,
1070.000000,0.000000,0.000000,0.000000,
1080.000000,0.000000,0.000000,0.000000,
1090.000000,0.000000,0.000000,0.000000,
1100.000000,0.000000,0.000000,0.000000,
1110.000000,0.000000,0.000000,0.000000,
1120.000000,0.000000,0.000000,0.000000,
1130.000000,0.000000,0.000000,0.000000,
1140.000000,0.000000,0.000000,0.000000,
1150.000000,0.000000,0.000000,0.000000,
1160.000000,0.000000,0.000000,0.000000,
1170.000000,0.000000,0.000000,0.000000,
1180.000000,0.000000,0.000000,0.000000,
1190.000000,0.000000,0.000000,0.000000,
1200.000000,0.000000,0.000000,0.000000,
1210.000000,0.000000,0.000000,0.000000,
1220.000000,0.000000,0.000000,0.000000,
1230.000000,0.000000,0.000000,0.000000,
1240.000000,0.000000,0.000000,0.000000,
1250.000000,0.000000,0.000000,0.000000,
1260.000000,0.000000,0.000000,0.000000,
1270.000000,0.000000,0.000000,0.000000,
1280.000000,0.000000,0.000000,0.000000,
1290.000000,0.000000,0.000000,0.000000,
1300.000000,0.000000,0.000000,0.000000,
1310.000000,0.000000,0.000000,0.000000,
1320.000000,0.000000,0.000000,0.000000,
1330.000000,0.000000,0.000000,0.000000,
1340.000000,0.000000,0.000000,0.000000,
1350.000000,0.000000,0.000000,0.000000,
1360.000000,0.000000,0.000000,0.000000,
1370.000000,0.000000,0.000000,0.000000,
1380.000000,0.000000,0.000000,0.000000,
1390.000000,0.000000,0.000000,0.000000,
1400.000000,0.000000,0.000000,0.000000,
1410.000000,0.000000,0.000000,0.000000,
1420.000000,0.000000,0.000000,0.000000,
1430.000000,0.000000,0.000000,0.000000,
1440.000000,0.000000,0.000000,0.000000,
1450.000000,0.000000,0.000000,0.000000,
1460.000000,0.000000,0.000000,0.000000,
1470.000000,0.000000,0.000000,0.000000,
1480.000000,0.000000,0.000000,0.000000,
1490.000000,0.000000,0.000000,0.000000,
1500.000000,0.000000,0.000000,0.000000,
1510.000000,0.000000,0.000000,0.000000,
1520.000000,0.000000,0.000000,0.000000,
1530.000000,0.000000,0.000000,0.000000,
1540.000000,0.000000,0.000000,0.000000,
1550.000000,0.000000,0.000000,0.000000,
1560.000000,0.000000,0.000000,0.000000,
1570.000000,0.000000,0.000000,0.000000,
1580.000000,0.000000,0.000000,0.000000,
1590.000000,0.000000,0.000000,0.000000,
1600.000000,0.000000,0.000000,0.000000,
1610.000000,0.000000,0.000000,0.000000,
1620.000000,0.000000,0.000000,0.000000,
1630.000000,0.000000,0.000000,0.000000,
1640.000000,0.000000,0.000000,0.000000,
1650.000000,0.000000,0.000000,0.000000,
1660.000000,0.000000,0.000000,0.000000,
1670.000000,0.000000,0.000000,0.000000,
1680.000000,0.000000,0.000000,0.000000,
1690.000000,0.000000,0.000000,0.000000,
1700.000000,0.000000,0.000000,0.000000,
1710.000000,0.000000,0.000000,0.000000,
1720.000000,0.000000,0.000000,0.000000,
1730.000000,0.000000,0.000000,0.000000,
1740.000000,0.000000,0.000000,0.000000,
1750.000000,0.000000,0.000000,0.000000,
1760.000000,0.000000,68.680000,0.000000,
1770.000000,0.000000,100.000000,0.000000,
1780.000000,0.000000,100.000000,83.390000,
1790.000000,0.000000,100.000000,18.820000,
1800.000000,0.000000,100.000000,98.100000,
1810.000000,0.000000,100.000000,16.920000,
1820.000000,0.000000,100.000000,89.400000,
1830.000000,0.000000,100.000000,27.520000,
1840.000000,0.000000,100.000000,74.690000,
1850.000000,0.000000,100.000000,0.000000,
1860.000000,0.000000,100.000000,0.000000,
1870.000000,0.000000,100.000000,0.000000,
1880.000000,0.000000,100.000000,59.190000,
1890.000000,0.000000,100.000000,84.020000,
1900.000000,0.000000,100.000000,84.020000,
1910.000000,0.000000,100.000000,84.020000,
1920.000000,0.000000,100.000000,16.550000,
1930.000000,0.000000,100.000000,0.000000,
1940.000000,0.000000,100.000000,0.000000,
1950.000000,0.000000,100.000000,0.000000,
1960.000000,0.000000,100.000000,0.000000,
1970.000000,0.000000,100.000000,61.210000,
1980.000000,0.000000,100.000000,54.450000,
1990.000000,0.000000,100.000000,48.740000,
2000.000000,0.000000,100.000000,66.920000,
2010.000000,0.000000,100.000000,36.270000,
2020.000000,0.000000,100.000000,79.390000,
2030.000000,0.000000,100.000000,23.800000,
2040.000000,0.000000,100.000000,91.860000,
2050.000000,0.000000,100.000000,0.000000,
2060.000000,0.000000,100.000000,13.490000,
2070.000000,0.000000,100.000000,84.020000,
2080.000000,0.000000,100.000000,84.020000,
2090.000000,0.000000,100.000000,84.020000,
2100.000000,0.000000,100.000000,62.250000,
2110.000000,0.000000,100.000000,0.000000,
2120.000000,0.000000,100.000000,0.000000,
2130.000000,0.000000,100.000000,0.000000,
2140.000000,0.000000,100.000000,0.000000,
2150.000000,0.000000,100.000000,0.000000,
2160.000000,0.000000,100.000000,17.670000,
2170.000000,0.000000,100.000000,84.020000,
2180.000000,0.000000,100.000000,84.020000,
2190.000000,0.000000,100.000000,84.020000,
2200.000000,0.000000,100.000000,58.070000,
2210.000000,0.000000,100.000000,0.000000,
2220.000000,0.000000,100.000000,0.000000,
2230.000000,0.000000,100.000000,0.000000,
2240.000000,0.000000,100.000000,17.620000,
2250.000000,0.000000,100.000000,98.040000,
2260.000000,0.000000,100.000000,5.150000,
2270.000000,0.000000,100.000000,100.000000,
2280.000000,0.000000,100.000000,10.510000,
2290.000000,0.000000,100.000000,92.680000,
2300.000000,0.000000,100.000000,22.980000,
2310.000000,0.000000,100.000000,80.210000,
2320.000000,0.000000,100.000000,35.450000,
2330.000000,0.000000,100.000000,0.000000,
2340.000000,0.000000,100.000000,69.900000,
2350.000000,0.000000,100.000000,84.020000,
2360.000000,0.000000,100.000000,84.020000,
2370.000000,0.000000,100.000000,84.020000,
2380.000000,0.000000,100.000000,5.840000,
2390.000000,0.000000,100.000000,0.000000,
2400.000000,0.000000,100.000000,0.000000,
2410.000000,0.000000,100.000000,0.000000,
2420.000000,0.000000,100.000000,0.000000,
2430.000000,0.000000,100.000000,0.000000,
2440.000000,0.000000,100.000000,0.000000,
2450.000000,0.000000,100.000000,0.000000,
2460.000000,0.000000,100.000000,0.000000,
2470.000000,0.000000,100.000000,70.050000,
2480.000000,0.000000,100.000000,34.150000,
2490.000000,0.000000,100.000000,80.470000,
2500.000000,0.000000,100.000000,23.730000,
2510.000000,0.000000,100.000000,90.890000,
2520.000000,0.000000,100.000000,14.620000,
2530.000000,0.000000,100.000000,100.000000,
2540.000000,0.000000,100.000000,2.890000,
2550.000000,0.000000,100.000000,0.000000,
2560.000000,0.000000,100.000000,0.000000,
2570.000000,0.000000,100.000000,24.400000,
2580.000000,0.000000,100.000000,84.020000,
2590.000000,0.000000,100.000000,84.020000,
2600.000000,0.000000,100.000000,84.020000,
2610.000000,0.000000,100.000000,51.340000,
2620.000000,0.000000,100.000000,0.000000,
2630.000000,0.000000,100.000000,0.000000,
2640.000000,0.000000,100.000000,0.000000,
2650.000000,0.000000,100.000000,0.000000,
2660.000000,0.000000,100.000000,26.420000,
2670.000000,0.000000,100.000000,89.240000,
2680.000000,0.000000,100.000000,13.950000,
2690.000000,0.000000,100.000000,100.000000,
2700.000000,0.000000,100.000000,3.190000,
2710.000000,0.000000,100.000000,100.000000,
2720.000000,0.000000,100.000000,14.180000,
2730.000000,0.000000,100.000000,89.010000,
2740.000000,0.000000,100.000000,26.650000,
2750.000000,0.000000,100.000000,24.480000,
2760.000000,0.000000,100.000000,100.000000,
2770.000000,0.000000,100.000000,100.000000,
2780.000000,0.000000,100.000000,60.820000,
2790.000000,0.000000,100.000000,0.000000,
2800.000000,0.000000,100.000000,0.000000,
2810.000000,0.000000,100.000000,0.000000,
2820.000000,0.000000,100.000000,0.000000,
2830.000000,0.000000,100.000000,0.000000,
2840.000000,0.000000,100.000000,0.000000,
2850.000000,0.000000,100.000000,0.000000,
2860.000000,0.000000,100.000000,81.270000,
2870.000000,0.000000,100.000000,100.000000,
2880.000000,0.000000,100.000000,82.790000,
2890.000000,0.000000,100.000000,0.000000,
2900.000000,0.000000,100.000000,0.000000,
2910.000000,0.000000,100.000000,0.000000,
2920.000000,0.000000,100.000000,0.000000,
2930.000000,0.000000,100.000000,57.220000,
2940.000000,0.000000,100.000000,100.000000,
2950.000000,0.000000,100.000000,100.000000,
2960.000000,0.000000,100.000000,33.410000,
2970.000000,0.000000,100.000000,0.000000,
2980.000000,0.000000,100.000000,0.000000,
2990.000000,0.000000,100.000000,0.000000,
3000.000000,0.000000,100.000000,98.650000,
3010.000000,0.000000,100.000000,100.000000,
3020.000000,0.000000,100.000000,65.410000,
3030.000000,0.000000,100.000000,0.000000,
3040.000000,0.000000,100.000000,0.000000,
3050.000000,0.000000,100.000000,0.000000,
3060.000000,0.000000,100.000000,0.000000,
3070.000000,0.000000,100.000000,0.000000,
3080.000000,0.000000,100.000000,0.000000,
3090.000000,0.000000,100.000000,0.000000,
3100.000000,0.000000,100.000000,62.540000,
3110.000000,0.000000,100.000000,100.000000,
3120.000000,0.000000,100.000000,100.000000,
3130.000000,0.000000,100.000000,1.520000,
3140.000000,0.000000,100.000000,0.000000,
3150.000000,0.000000,9.850000,0.000000,
3160.000000,0.000000,53.660000,0.000000,
3170.000000,0.000000,100.000000,95.780000,
3180.000000,0.000000,100.000000,100.000000,
3190.000000,0.000000,100.000000,94.840000,
3200.000000,0.000000,100.000000,0.000000,
3210.000000,0.000000,9.380000,0.000000,
3220.000000,0.000000,0.000000,0.000000,
3230.000000,0.000000,15.720000,0.000000,
3240.000000,0.000000,100.000000,74.700000,
3250.000000,0.000000,100.000000,100.000000,
3260.000000,0.000000,82.110000,89.360000,
3270.000000,0.000000,30.380000,0.000000,
3280.000000,0.000000,0.000000,0.000000,
3290.000000,0.000000,0.000000,0.000000,
3300.000000,0.000000,0.000000,0.000000,
3310.000000,0.000000,0.000000,0.000000,
3320.000000,0.000000,0.000000,0.000000,
3330.000000,0.000000,0.000000,0.000000,
3340.000000,0.000000,43.060000,2.040000,
3350.000000,0.000000,100.000000,100.000000,
3360.000000,0.000000,100.000000,100.000000,
3370.000000,0.000000,82.110000,62.020000,
3380.000000,0.000000,3.040000,0.000000,
3390.000000,0.000000,0.000000,0.000000,
3400.000000,0.000000,0.000000,0.000000,
3410.000000,0.000000,78.720000,20.840000,
3420.000000,0.000000,100.000000,100.000000,
3430.000000,0.000000,100.000000,100.000000,
3440.000000,0.000000,100.000000,69.780000,
3450.000000,0.000000,84.320000,0.000000,
3460.000000,0.000000,0.000000,0.000000,
3470.000000,0.000000,0.000000,0.000000,
3480.000000,0.000000,40.780000,0.000000,
3490.000000,0.000000,100.000000,99.760000,
3500.000000,0.000000,100.000000,100.000000,
3510.000000,0.000000,82.110000,64.300000,
3520.000000,0.000000,5.320000,0.000000,
3530.000000,0.000000,0.000000,0.000000,
3540.000000,0.000000,0.000000,0.000000,
3550.000000,0.000000,0.000000,0.000000,
3560.000000,0.000000,0.000000,0.000000,
3570.000000,0.000000,0.000000,0.000000,
3580.000000,0.000000,0.000000,0.000000,
3590.000000,0.000000,68.120000,27.100000,
3600.000000,0.000000,100.000000,100.000000,
3610.000000,0.000000,100.000000,100.000000,
3620.000000,0.000000,60.090000,36.960000,
3630.000000,0.000000,0.000000,0.000000,
3640.000000,0.000000,0.000000,0.000000,
3650.000000,0.000000,3.780000,0.000000,
3660.000000,0.000000,100.000000,45.900000,
3670.000000,0.000000,100.000000,100.000000,
3680.000000,0.000000,100.000000,100.000000,
3690.000000,0.000000,100.000000,44.720000,
3700.000000,0.000000,59.260000,0.000000,
3710.000000,0.000000,0.000000,0.000000,
3720.000000,0.000000,0.000000,0.000000,
3730.000000,0.000000,65.840000,24.820000,
3740.000000,0.000000,100.000000,100.000000,
3750.000000,0.000000,100.000000,100.000000,
3760.000000,0.000000,62.370000,39.240000,
3770.000000,0.000000,0.000000,0.000000,
3780.000000,0.000000,0.000000,0.000000,
3790.000000,0.000000,0.000000,0.000000,
3800.000000,0.000000,0.000000,0.000000,
3810.000000,0.000000,0.000000,0.000000,
3820.000000,0.000000,0.000000,0.000000,
3830.000000,0.000000,0.000000,0.000000,
3840.000000,0.000000,93.180000,52.160000,
3850.000000,0.000000,100.000000,100.000000,
3860.000000,0.000000,94.010000,100.000000,
3870.000000,0.000000,41.020000,11.900000,
3880.000000,0.000000,0.000000,0.000000,
3890.000000,0.000000,0.000000,0.000000,
3900.000000,0.000000,28.840000,0.000000,
3910.000000,0.000000,100.000000,70.960000,
3920.000000,0.000000,100.000000,100.000000,
3930.000000,0.000000,100.000000,100.000000,
3940.000000,0.000000,100.000000,19.660000,
3950.000000,0.000000,34.200000,0.000000,
3960.000000,0.000000,0.000000,0.000000,
3970.000000,0.000000,0.000000,0.000000,
3980.000000,0.000000,90.900000,49.880000,
3990.000000,0.000000,100.000000,100.000000,
4000.000000,0.000000,96.290000,100.000000,
4010.000000,0.000000,41.020000,14.180000,
4020.000000,0.000000,0.000000,0.000000,
4030.000000,0.000000,0.000000,0.000000,
4040.000000,0.000000,0.000000,0.000000,
4050.000000,0.000000,0.000000,0.000000,
4060.000000,0.000000,0.000000,0.000000,
4070.000000,0.000000,0.000000,0.000000,
4080.000000,0.000000,0.000000,0.000000,
4090.000000,0.000000,0.000000,0.000000,
4100.000000,0.000000,90.240000,38.090000,
4110.000000,0.000000,100.000000,100.000000,
4120.000000,0.000000,100.000000,100.000000,
4130.000000,0.000000,100.000000,47.210000,
4140.000000,0.000000,26.960000,0.000000,
4150.000000,0.000000,0.000000,0.000000,
4160.000000,0.000000,0.000000,0.000000,
4170.000000,0.000000,0.000000,0.000000,
4180.000000,0.000000,0.000000,0.000000,
4190.000000,0.000000,0.000000,0.000000,
4200.000000,0.000000,0.000000,0.000000,
4210.000000,0.000000,0.000000,0.000000,
4220.000000,0.000000,30.700000,0.000000,
4230.000000,0.000000,100.000000,89.680000,
4240.000000,0.000000,100.000000,100.000000,
4250.000000,0.000000,82.110000,74.380000,
4260.000000,0.000000,15.400000,0.000000,
4270.000000,0.000000,0.000000,0.000000,
4280.000000,0.000000,0.000000,0.000000,
4290.000000,0.000000,66.360000,8.480000,
4300.000000,0.000000,100.000000,100.000000,
4310.000000,0.000000,100.000000,100.000000,
4320.000000,0.000000,100.000000,82.140000,
4330.000000,0.000000,96.680000,0.000000,
4340.000000,0.000000,0.000000,0.000000,
4350.000000,0.000000,0.000000,0.000000,
4360.000000,0.000000,92.420000,56.710000,
4370.000000,0.000000,100.000000,100.000000,
4380.000000,0.000000,60.850000,96.720000,
4390.000000,0.000000,32.430000,0.000000,
4400.000000,0.000000,0.000000,0.000000,
4410.000000,0.000000,0.000000,0.000000,
4420.000000,0.000000,0.000000,0.000000,
4430.000000,0.000000,0.000000,0.000000,
4440.000000,0.000000,0.000000,0.000000,
4450.000000,0.000000,0.000000,0.000000,
4460.000000,0.000000,0.000000,0.000000,
4470.000000,0.000000,0.000000,0.000000,
4480.000000,0.000000,0.000000,0.000000,
4490.000000,0.000000,0.000000,0.000000,
4500.000000,0.000000,0.000000,0.000000,
4510.000000,0.000000,0.000000,0.000000,
4520.000000,0.000000,0.000000,0.000000,
4530.000000,0.000000,68.240000,35.190000,
4540.000000,0.000000,100.000000,100.000000,
4550.000000,0.000000,63.150000,100.000000,
4560.000000,0.000000,33.050000,12.930000,
4570.000000,0.000000,0.000000,0.000000,
4580.000000,0.000000,0.000000,0.000000,
4590.000000,0.000000,0.000000,0.000000,
4600.000000,0.000000,0.000000,0.000000,
4610.000000,0.000000,68.860000,32.490000,
4620.000000,0.000000,100.000000,100.000000,
4630.000000,0.000000,85.780000,100.000000,
4640.000000,0.000000,36.380000,22.270000,
4650.000000,0.000000,0.000000,0.000000,
4660.000000,0.000000,0.000000,0.000000,
4670.000000,0.000000,0.000000,0.000000,
4680.000000,0.000000,0.000000,0.000000,
4690.000000,0.000000,50.280000,17.230000,
4700.000000,0.000000,100.000000,100.000000,
4710.000000,0.000000,79.200000,100.000000,
4720.000000,0.000000,34.960000,30.890000,
4730.000000,0.000000,0.000000,0.000000,
4740.000000,0.000000,0.000000,0.000000,
4750.000000,0.000000,0.000000,0.000000,
4760.000000,0.000000,0.000000,0.000000,
4770.000000,0.000000,0.000000,0.000000,
4780.000000,0.000000,0.000000,0.000000,
4790.000000,0.000000,0.000000,0.000000,
4800.000000,0.000000,0.000000,0.000000,
4810.000000,0.000000,0.000000,0.000000,
4820.000000,0.000000,0.000000,0.000000,
4830.000000,0.000000,0.000000,0.000000,
4840.000000,0.000000,0.000000,0.000000,
4850.000000,0.000000,0.000000,0.000000,
4860.000000,0.000000,0.000000,0.000000,
4870.000000,0.000000,78.740000,45.690000,
4880.000000,0.000000,100.000000,100.000000,
4890.000000,0.000000,52.650000,100.000000,
4900.000000,0.000000,33.050000,2.430000,
4910.000000,0.000000,0.000000,0.000000,
4920.000000,0.000000,0.000000,0.000000,
4930.000000,0.000000,0.000000,0.000000,
4940.000000,0.000000,0.000000,0.000000,
4950.000000,0.000000,79.360000,42.990000,
4960.000000,0.000000,100.000000,100.000000,
4970.000000,0.000000,75.280000,100.000000,
4980.000000,0.000000,36.380000,11.770000,
4990.000000,0.000000,0.000000,0.000000,
5000.000000,0.000000,0.000000,0.000000,
5010.000000,0.000000,0.000000,0.000000,
5020.000000,0.000000,0.000000,0.000000,
5030.000000,0.000000,60.780000,27.730000,
5040.000000,0.000000,100.000000,100.000000,
5050.000000,0.000000,70.610000,100.000000,
5060.000000,0.000000,33.050000,20.390000,
5070.000000,0.000000,0.000000,0.000000,
5080.000000,0.000000,0.000000,0.000000,
5090.000000,0.000000,0.000000,0.000000,
5100.000000,0.000000,0.000000,0.000000,
5110.000000,0.000000,0.000000,0.000000,
5120.000000,0.000000,0.000000,0.000000,
5130.000000,0.000000,0.000000,0.000000,
5140.000000,0.000000,0.000000,0.000000,
5150.000000,0.000000,0.000000,0.000000,
5160.000000,0.000000,0.000000,0.000000,
5170.000000,0.000000,0.000000,0.000000,
5180.000000,0.000000,0.000000,0.000000,
5190.000000,0.000000,0.000000,0.000000,
5200.000000,0.000000,0.000000,0.000000,
5210.000000,0.000000,89.240000,56.190000,
5220.000000,0.000000,100.000000,100.000000,
5230.000000,0.000000,50.220000,91.930000,
5240.000000,0.000000,24.980000,0.000000,
5250.000000,0.000000,0.000000,0.000000,
5260.000000,0.000000,0.000000,0.000000,
5270.000000,0.000000,0.000000,0.000000,
5280.000000,0.000000,0.000000,0.000000,
5290.000000,0.000000,89.860000,53.490000,
5300.000000,0.000000,100.000000,100.000000,
5310.000000,0.000000,64.780000,100.000000,
5320.000000,0.000000,36.380000,1.270000,
5330.000000,0.000000,0.000000,0.000000,
5340.000000,0.000000,0.000000,0.000000,
5350.000000,0.000000,0.000000,0.000000,
5360.000000,0.000000,0.000000,0.000000,
5370.000000,0.000000,71.280000,38.230000,
5380.000000,0.000000,100.000000,100.000000,
5390.000000,0.000000,60.110000,100.000000,
5400.000000,0.000000,33.050000,9.890000,
5410.000000,0.000000,0.000000,0.000000,
5420.000000,0.000000,0.000000,0.000000,
5430.000000,0.000000,0.000000,0.000000,
5440.000000,0.000000,0.000000,0.000000,
5450.000000,0.000000,0.000000,0.000000,
5460.000000,0.000000,0.000000,0.000000,
5470.000000,0.000000,0.000000,0.000000,
5480.000000,0.000000,0.000000,0.000000,
5490.000000,0.000000,0.000000,0.000000,
5500.000000,0.000000,0.000000,0.000000,
5510.000000,0.000000,0.000000,0.000000,
5520.000000,0.000000,0.000000,0.000000,
5530.000000,0.000000,0.000000,0.000000,
5540.000000,0.000000,0.000000,0.000000,
5550.000000,0.000000,0.000000,0.000000,
5560.000000,0.000000,74.300000,38.590000,
5570.000000,0.000000,100.000000,100.000000,
5580.000000,0.000000,75.690000,100.000000,
5590.000000,0.000000,35.710000,14.840000,
5600.000000,0.000000,0.000000,0.000000,
5610.000000,0.000000,0.000000,0.000000,
5620.000000,0.000000,0.000000,0.000000,
5630.000000,0.000000,0.000000,0.000000,
5640.000000,0.000000,0.000000,0.000000,
5650.000000,0.000000,0.000000,0.000000,
5660.000000,0.000000,0.000000,0.000000,
5670.000000,0.000000,0.000000,0.000000,
5680.000000,0.000000,0.000000,0.000000,
5690.000000,0.000000,0.000000,0.000000,
5700.000000,0.000000,0.000000,0.000000,
5710.000000,0.000000,0.000000,0.000000,
5720.000000,0.000000,0.000000,0.000000,
5730.000000,0.000000,0.000000,0.000000,
5740.000000,0.000000,0.000000,0.000000,
5750.000000,0.000000,61.960000,28.910000,
5760.000000,0.000000,100.000000,100.000000,
5770.000000,0.000000,69.430000,100.000000,
5780.000000,0.000000,33.050000,19.210000,
5790.000000,0.000000,0.000000,0.000000,
5800.000000,0.000000,0.000000,0.000000,
5810.000000,0.000000,0.000000,0.000000,
5820.000000,0.000000,0.000000,0.000000,
5830.000000,0.000000,62.580000,26.210000,
5840.000000,0.000000,100.000000,100.000000,
5850.000000,0.000000,90.820000,100.000000,
5860.000000,0.000000,37.620000,28.550000,
5870.000000,0.000000,0.000000,0.000000,
5880.000000,0.000000,0.000000,0.000000,
5890.000000,0.000000,0.000000,0.000000,
5900.000000,0.000000,6.720000,0.000000,
5910.000000,0.000000,100.000000,75.000000,
5920.000000,0.000000,83.650000,100.000000,
5930.000000,0.000000,61.260000,70.460000,
5940.000000,0.000000,2.190000,0.000000,
5950.000000,0.000000,0.000000,0.000000,
5960.000000,0.000000,0.000000,0.000000,
5970.000000,0.000000,0.000000,0.000000,
5980.000000,0.000000,0.000000,0.000000,
5990.000000,0.000000,0.000000,0.000000,
6000.000000,0.000000,0.000000,0.000000,
6010.000000,0.000000,0.000000,0.000000,
6020.000000,0.000000,0.000000,0.000000,
6030.000000,0.000000,0.000000,0.000000,
6040.000000,0.000000,0.000000,0.000000,
6050.000000,0.000000,0.000000,0.000000,
6060.000000,0.000000,0.000000,0.000000,
6070.000000,0.000000,0.000000,0.000000,
6080.000000,0.000000,0.000000,0.000000,
6090.000000,0.000000,0.000000,0.000000,
6100.000000,0.000000,0.000000,0.000000,
6110.000000,0.000000,0.000000,0.000000,
6120.000000,0.000000,0.000000,0.000000,
6130.000000,0.000000,0.000000,0.000000,
6140.000000,0.000000,0.000000,0.000000,
6150.000000,0.000000,0.000000,0.000000,
6160.000000,0.000000,0.000000,0.000000,
6170.000000,0.000000,0.000000,0.000000,
6180.000000,0.000000,0.000000,0.000000,
6190.000000,0.000000,0.000000,0.000000,
6200.000000,0.000000,0.000000,0.000000,
6210.000000,0.000000,0.000000,0.000000,
6220.000000,0.000000,0.300000,0.000000,
6230.000000,0.000000,100.000000,69.240000,
6240.000000,0.000000,86.080000,100.000000,
6250.000000,0.000000,56.170000,74.890000,
6260.000000,0.000000,5.950000,0.000000,
6270.000000,0.000000,0.000000,0.000000,
6280.000000,0.000000,0.000000,0.000000,
6290.000000,0.000000,0.000000,0.000000,
6300.000000,0.000000,0.000000,0.000000,
6310.000000,0.000000,0.000000,0.000000,
6320.000000,0.000000,0.000000,0.000000,
6330.000000,0.000000,0.000000,0.000000,
6340.000000,0.000000,0.000000,0.000000,
6350.000000,0.000000,0.000000,0.000000,
6360.000000,0.000000,0.000000,0.000000,
6370.000000,0.000000,0.000000,0.000000,
6380.000000,0.000000,0.000000,0.000000,
6390.000000,0.000000,0.000000,0.000000,
6400.000000,0.000000,0.000000,0.000000,
6410.000000,0.000000,0.000000,0.000000,
6420.000000,0.000000,0.000000,0.000000,
6430.000000,0.000000,24.120000,0.000000,
6440.000000,0.000000,100.000000,92.230000,
6450.000000,0.000000,75.130000,100.000000,
6460.000000,0.000000,55.900000,53.560000,
6470.000000,0.000000,0.000000,0.000000,
6480.000000,0.000000,0.000000,0.000000,
6490.000000,0.000000,0.000000,0.000000,
6500.000000,0.000000,0.000000,0.000000,
6510.000000,0.000000,0.000000,0.000000,
6520.000000,0.000000,0.000000,0.000000,
6530.000000,0.000000,0.000000,0.000000,
6540.000000,0.000000,0.000000,0.000000,
6550.000000,0.000000,0.000000,0.000000,
6560.000000,0.000000,0.000000,0.000000,
6570.000000,0.000000,0.000000,0.000000,
6580.000000,0.000000,0.000000,0.000000,
6590.000000,0.000000,0.000000,0.000000,
6600.000000,0.000000,0.000000,0.000000,
6610.000000,0.000000,0.000000,0.000000,
6620.000000,0.000000,34.180000,3.120000,
6630.000000,0.000000,100.000000,100.000000,
6640.000000,0.000000,72.220000,100.000000,
6650.000000,0.000000,42.100000,41.010000,
6660.000000,0.000000,0.000000,0.000000,
6670.000000,0.000000,0.000000,0.000000,
6680.000000,0.000000,0.000000,0.000000,
6690.000000,0.000000,0.000000,0.000000,
6700.000000,0.000000,0.000000,0.000000,
6710.000000,0.000000,0.000000,0.000000,
6720.000000,0.000000,0.000000,0.000000,
6730.000000,0.000000,0.000000,0.000000,
6740.000000,0.000000,0.000000,0.000000,
6750.000000,0.000000,0.000000,0.000000,
6760.000000,0.000000,0.000000,0.000000,
6770.000000,0.000000,0.000000,0.000000,
6780.000000,0.000000,0.000000,0.000000,
6790.000000,0.000000,0.000000,0.000000,
6800.000000,0.000000,0.000000,0.000000,
6810.000000,0.000000,0.000000,0.000000,
6820.000000,0.000000,0.000000,0.000000,
6830.000000,0.000000,0.000000,0.000000,
6840.000000,0.000000,0.000000,0.000000,
6850.000000,0.000000,0.000000,0.000000,
6860.000000,0.000000,0.000000,0.000000,
6870.000000,0.000000,0.000000,0.000000,
6880.000000,0.000000,0.000000,0.000000,
6890.000000,0.000000,0.000000,0.000000,
6900.000000,0.000000,0.000000,0.000000,
6910.000000,0.000000,0.000000,0.000000,
6920.000000,0.000000,0.000000,0.000000,
6930.000000,0.000000,0.000000,0.000000,
6940.000000,0.000000,0.000000,0.000000,
6950.000000,0.000000,69.520000,38.460000,
6960.000000,0.000000,100.000000,100.000000,
6970.000000,0.000000,47.920000,100.000000,
6980.000000,0.000000,31.060000,5.670000,
6990.000000,0.000000,0.000000,0.000000,
7000.000000,0.000000,0.000000,0.000000,
7010.000000,0.000000,0.000000,0.000000,
7020.000000,0.000000,0.000000,0.000000,
7030.000000,0.000000,0.000000,0.000000,
7040.000000,0.000000,0.000000,0.000000,
7050.000000,0.000000,0.000000,0.000000,
7060.000000,0.000000,0.000000,0.000000,
7070.000000,0.000000,0.000000,0.000000,
7080.000000,0.000000,0.000000,0.000000,
7090.000000,0.000000,0.000000,0.000000,
7100.000000,0.000000,0.000000,0.000000,
7110.000000,0.000000,0.000000,0.000000,
7120.000000,0.000000,0.000000,0.000000,
7130.000000,0.000000,0.000000,0.000000,
7140.000000,0.000000,0.000000,0.000000,
7150.000000,0.000000,0.000000,0.000000,
7160.000000,0.000000,93.340000,61.450000,
7170.000000,0.000000,98.020000,100.000000,
7180.000000,0.000000,47.560000,84.340000,
7190.000000,0.000000,16.230000,0.000000,
7200.000000,0.000000,0.000000,0.000000,
7210.000000,0.000000,0.000000,0.000000,
7220.000000,0.000000,0.000000,0.000000,
7230.000000,0.000000,0.000000,0.000000,
7240.000000,0.000000,0.000000,0.000000,
7250.000000,0.000000,0.000000,0.000000,
7260.000000,0.000000,0.000000,0.000000,
7270.000000,0.000000,0.000000,0.000000,
7280.000000,0.000000,0.000000,0.000000,
7290.000000,0.000000,0.000000,0.000000,
7300.000000,0.000000,0.000000,0.000000,
7310.000000,0.000000,0.000000,0.000000,
7320.000000,0.000000,0.000000,0.000000,
7330.000000,0.000000,0.000000,0.000000,
7340.000000,0.000000,3.400000,0.000000,
7350.000000,0.000000,100.000000,72.340000,
7360.000000,0.000000,82.980000,100.000000,
7370.000000,0.000000,59.270000,71.790000,
7380.000000,0.000000,2.850000,0.000000,
7390.000000,0.000000,0.000000,0.000000,
7400.000000,0.000000,0.000000,0.000000,
7410.000000,0.000000,0.000000,0.000000,
7420.000000,0.000000,0.000000,0.000000,
7430.000000,0.000000,0.000000,0.000000,
7440.000000,0.000000,0.000000,0.000000,
7450.000000,0.000000,0.000000,0.000000,
7460.000000,0.000000,0.000000,0.000000,
7470.000000,0.000000,0.000000,0.000000,
7480.000000,0.000000,0.000000,0.000000,
7490.000000,0.000000,0.000000,0.000000,
7500.000000,0.000000,0.000000,0.000000,
7510.000000,0.000000,0.000000,0.000000,
7520.000000,0.000000,0.000000,0.000000,
7530.000000,0.000000,0.000000,0.000000,
7540.000000,0.000000,0.000000,0.000000,
7550.000000,0.000000,0.000000,0.000000,
7560.000000,0.000000,0.000000,0.000000,
7570.000000,0.000000,0.000000,0.000000,
7580.000000,0.000000,0.000000,0.000000,
7590.000000,0.000000,0.000000,0.000000,
7600.000000,0.000000,0.000000,0.000000,
7610.000000,0.000000,0.000000,0.000000,
7620.000000,0.000000,0.000000,0.000000,
7630.000000,0.000000,0.000000,0.000000,
7640.000000,0.000000,0.000000,0.000000,
7650.000000,0.000000,0.000000,0.000000,
7660.000000,0.000000,0.000000,0.000000,
7670.000000,0.000000,38.740000,7.680000,
7680.000000,0.000000,100.000000,100.000000,
7690.000000,0.000000,72.220000,100.000000,
7700.000000,0.000000,37.540000,36.450000,
7710.000000,0.000000,0.000000,0.000000,
7720.000000,0.000000,0.000000,0.000000,
7730.000000,0.000000,0.000000,0.000000,
7740.000000,0.000000,0.000000,0.000000,
7750.000000,0.000000,0.000000,0.000000,
7760.000000,0.000000,0.000000,0.000000,
7770.000000,0.000000,0.000000,0.000000,
7780.000000,0.000000,0.000000,0.000000,
7790.000000,0.000000,0.000000,0.000000,
7800.000000,0.000000,0.000000,0.000000,
7810.000000,0.000000,0.000000,0.000000,
7820.000000,0.000000,0.000000,0.000000,
7830.000000,0.000000,0.000000,0.000000,
7840.000000,0.000000,0.000000,0.000000,
7850.000000,0.000000,0.000000,0.000000,
7860.000000,0.000000,0.000000,0.000000,
7870.000000,0.000000,0.000000,0.000000,
7880.000000,0.000000,0.000000,0.000000,
7890.000000,0.000000,0.000000,0.000000,
7900.000000,0.000000,0.000000,0.000000,
7910.000000,0.000000,0.000000,0.000000,
7920.000000,0.000000,0.000000,0.000000,
7930.000000,0.000000,0.000000,0.000000,
7940.000000,0.000000,0.000000,0.000000,
7950.000000,0.000000,0.000000,0.000000,
7960.000000,0.000000,0.000000,0.000000,
7970.000000,0.000000,0.000000,0.000000,
7980.000000,0.000000,0.000000,0.000000,
7990.000000,0.000000,0.000000,0.000000,
8000.000000,0.000000,0.000000,0.000000,
8010.000000,0.000000,45.440000,14.380000,
8020.000000,0.000000,100.000000,100.000000,
8030.000000,0.000000,72.000000,100.000000,
8040.000000,0.000000,31.060000,29.750000,
8050.000000,0.000000,0.000000,0.000000,
8060.000000,0.000000,0.000000,0.000000,
8070.000000,0.000000,0.000000,0.000000,
8080.000000,0.000000,0.000000,0.000000,
8090.000000,0.000000,0.000000,0.000000,
8100.000000,0.000000,0.000000,0.000000,
8110.000000,0.000000,0.000000,0.000000,
8120.000000,0.000000,0.000000,0.000000,
8130.000000,0.000000,0.000000,0.000000,
8140.000000,0.000000,0.000000,0.000000,
8150.000000,0.000000,0.000000,0.000000,
8160.000000,0.000000,0.000000,0.000000,
8170.000000,0.000000,0.000000,0.000000,
8180.000000,0.000000,0.000000,0.000000,
8190.000000,0.000000,0.000000,0.000000,
8200.000000,0.000000,0.000000,0.000000,
8210.000000,0.000000,0.000000,0.000000,
8220.000000,0.000000,69.260000,37.370000,
8230.000000,0.000000,100.000000,100.000000,
8240.000000,0.000000,54.000000,100.000000,
8250.000000,0.000000,31.890000,8.420000,
8260.000000,0.000000,0.000000,0.000000,
8270.000000,0.000000,0.000000,0.000000,
8280.000000,0.000000,0.000000,0.000000,
8290.000000,0.000000,0.000000,0.000000,
8300.000000,0.000000,0.000000,0.000000,
8310.000000,0.000000,0.000000,0.000000,
8320.000000,0.000000,0.000000,0.000000,
8330.000000,0.000000,0.000000,0.000000,
8340.000000,0.000000,0.000000,0.000000,
8350.000000,0.000000,0.000000,0.000000,
8360.000000,0.000000,0.000000,0.000000,
8370.000000,0.000000,0.000000,0.000000,
8380.000000,0.000000,0.000000,0.000000,
8390.000000,0.000000,67.480000,36.920000,
8400.000000,0.000000,100.000000,100.000000,
8410.000000,0.000000,46.480000,100.000000,
8420.000000,0.000000,30.570000,6.210000,
8430.000000,0.000000,0.000000,0.000000,
8440.000000,0.000000,0.000000,0.000000,
8450.000000,0.000000,0.000000,0.000000,
8460.000000,0.000000,0.000000,0.000000,
8470.000000,0.000000,0.000000,0.000000,
8480.000000,0.000000,0.000000,0.000000,
8490.000000,0.000000,0.000000,0.000000,
8500.000000,0.000000,0.000000,0.000000,
8510.000000,0.000000,0.000000,0.000000,
8520.000000,0.000000,0.000000,0.000000,
8530.000000,0.000000,0.000000,0.000000,
8540.000000,0.000000,0.000000,0.000000,
8550.000000,0.000000,0.000000,0.000000,
8560.000000,0.000000,0.000000,0.000000,
8570.000000,0.000000,0.000000,0.000000,
8580.000000,0.000000,0.000000,0.000000,
8590.000000,0.000000,0.000000,0.000000,
8600.000000,0.000000,0.000000,0.000000,
8610.000000,0.000000,0.000000,0.000000,
8620.000000,0.000000,0.000000,0.000000,
8630.000000,0.000000,0.000000,0.000000,
8640.000000,0.000000,0.000000,0.000000,
8650.000000,0.000000,0.000000,0.000000,
8660.000000,0.000000,0.000000,0.000000,
8670.000000,0.000000,0.000000,0.000000,
8680.000000,0.000000,0.000000,0.000000,
8690.000000,0.000000,0.000000,0.000000,
8700.000000,0.000000,0.000000,0.000000,
8710.000000,0.000000,0.000000,0.000000,
8720.000000,0.000000,0.000000,0.000000,
8730.000000,0.000000,0.000000,0.000000,
8740.000000,0.000000,0.000000,0.000000,
8750.000000,0.000000,0.000000,0.000000,
8760.000000,0.000000,0.000000,0.000000,
8770.000000,0.000000,0.000000,0.000000,
8780.000000,0.000000,0.000000,0.000000,
8790.000000,0.000000,0.000000,0.000000,
8800.000000,0.000000,0.000000,0.000000,
8810.000000,0.000000,0.000000,0.000000,
8820.000000,0.000000,0.000000,0.000000,
8830.000000,0.000000,0.000000,0.000000,
8840.000000,0.000000,0.000000,0.000000,
8850.000000,0.000000,0.000000,0.000000,
8860.000000,0.000000,0.000000,0.000000,
8870.000000,0.000000,0.000000,0.000000,
8880.000000,0.000000,0.000000,0.000000,
8890.000000,0.000000,0.000000,0.000000,
8900.000000,0.000000,0.000000,0.000000,
8910.000000,0.000000,0.000000,0.000000,
8920.000000,0.000000,0.000000,0.000000,
8930.000000,0.000000,0.000000,0.000000,
8940.000000,0.000000,0.000000,0.000000,
8950.000000,0.000000,0.000000,0.000000,
8960.000000,0.000000,42.340000,11.560000,
8970.000000,0.000000,100.000000,100.000000,
8980.000000,0.000000,71.230000,100.000000,
8990.000000,0.000000,32.670000,32.000000,
9000.000000,0.000000,0.000000,0.000000,
9010.000000,0.000000,0.000000,0.000000,
9020.000000,0.000000,0.000000,0.000000,
9030.000000,0.000000,0.000000,0.000000,
9040.000000,0.000000,0.000000,0.000000,
9050.000000,0.000000,0.000000,0.000000,
9060.000000,0.000000,0.000000,0.000000,
9070.000000,0.000000,0.000000,0.000000,
9080.000000,0.000000,0.000000,0.000000,
9090.000000,0.000000,0.000000,0.000000,
9100.000000,0.000000,0.000000,0.000000,
9110.000000,0.000000,0.000000,0.000000,
9120.000000,0.000000,0.000000,0.000000,
9130.000000,0.000000,0.000000,0.000000,
9140.000000,0.000000,0.000000,0.000000,
9150.000000,0.000000,0.000000,0.000000,
9160.000000,0.000000,0.000000,0.000000,
9170.000000,0.000000,0.000000,0.000000,
9180.000000,0.000000,0.000000,0.000000,
9190.000000,0.000000,0.000000,0.000000,
9200.000000,0.000000,0.000000,0.000000,
9210.000000,0.000000,0.000000,0.000000,
9220.000000,0.000000,0.000000,0.000000,
9230.000000,0.000000,0.000000,0.000000,
9240.000000,0.000000,0.000000,0.000000,
9250.000000,0.000000,0.000000,0.000000,
9260.000000,0.000000,0.000000,0.000000,
9270.000000,0.000000,0.000000,0.000000,
9280.000000,0.000000,0.000000,0.000000,
9290.000000,0.000000,0.000000,0.000000,
9300.000000,0.000000,0.000000,0.000000,
9310.000000,0.000000,0.000000,0.000000,
9320.000000,0.000000,0.000000,0.000000,
9330.000000,0.000000,0.000000,0.000000,
9340.000000,0.000000,0.000000,0.000000,
9350.000000,0.000000,0.000000,0.000000,
9360.000000,0.000000,0.000000,0.000000,
9370.000000,0.000000,0.000000,0.000000,
9380.000000,0.000000,0.000000,0.000000,
9390.000000,0.000000,0.000000,0.000000,
9400.000000,0.000000,0.000000,0.000000,
9410.000000,0.000000,0.000000,0.000000,
9420.000000,0.000000,0.000000,0.000000,
9430.000000,0.000000,0.000000,0.000000,
9440.000000,0.000000,0.000000,0.000000,
9450.000000,0.000000,0.000000,0.000000,
9460.000000,0.000000,0.000000,0.000000,
9470.000000,0.000000,0.000000,0.000000,
9480.000000,0.000000,0.000000,0.000000,
9490.000000,0.000000,0.000000,0.000000,
9500.000000,0.000000,0.000000,0.000000,
9510.000000,0.000000,0.000000,0.000000,
9520.000000,0.000000,0.000000,0.000000,
9530.000000,0.000000,0.000000,0.000000,
9540.000000,0.000000,0.000000,0.000000,
9550.000000,0.000000,0.000000,0.000000,
9560.000000,0.000000,0.000000,0.000000,
9570.000000,0.000000,0.000000,0.000000,
9580.000000,0.000000,0.000000,0.000000,
9590.000000,0.000000,0.000000,0.000000,
9600.000000,0.000000,0.000000,0.000000,
9610.000000,0.000000,0.000000,0.000000,
9620.000000,0.000000,0.000000,0.000000,
9630.000000,0.000000,0.000000,0.000000,
9640.000000,0.000000,0.000000,0.000000,
9650.000000,0.000000,0.000000,0.000000,
9660.000000,0.000000,0.000000,0.000000,
9670.000000,0.000000,0.000000,0.000000,
9680.000000,0.000000,0.000000,0.000000,
9690.000000,0.000000,0.000000,0.000000,
9700.000000,0.000000,0.000000,0.000000,
9710.000000,0.000000,0.000000,0.000000,
9720.000000,0.000000,0.000000,0.000000,
9730.000000,0.000000,0.000000,0.000000,
9740.000000,0.000000,0.000000,0.000000,
9750.000000,0.000000,0.000000,0.000000,
9760.000000,0.000000,0.000000,0.000000,
9770.000000,0.000000,0.000000,0.000000,
9780.000000,0.000000,0.000000,0.000000,
9790.000000,0.000000,0.000000,0.000000,
9800.000000,0.000000,0.000000,0.000000,
9810.000000,0.000000,0.000000,0.000000,
9820.000000,0.000000,0.000000,0.000000,
9830.000000,0.000000,0.000000,0.000000,
9840.000000,0.000000,0.000000,0.000000,
9850.000000,0.000000,0.000000,0.000000,
9860.000000,0.000000,0.000000,0.000000,
9870.000000,0.000000,0.000000,0.000000,
9880.000000,0.000000,0.000000,0.000000,
9890.000000,0.000000,0.000000,0.000000,
9900.000000,0.000000,0.000000,0.000000,
9910.000000,0.000000,0.000000,0.000000,
9920.000000,0.000000,0.000000,0.000000,
9930.000000,0.000000,0.000000,0.000000,
9940.000000,0.000000,0.000000,0.000000,
9950.000000,0.000000,0.000000,0.000000,
9960.000000,0.000000,0.000000,0.000000,
9970.000000,0.000000,0.000000,0.000000,
9980.000000,0.000000,0.000000,0.000000,
9990.000000,0.000000,0.000000,0.000000,
10000.000000,0.000000,0.000000,0.000000,
10010.000000,0.000000,0.000000,0.000000,
10020.000000,0.000000,0.000000,0.000000,
10030.000000,0.000000,0.000000,0.000000,
10040.000000,0.000000,0.000000,0.000000,
10050.000000,0.000000,0.000000,0.000000,
10060.000000,0.000000,0.000000,0.000000,
10070.000000,0.000000,0.000000,0.000000,
10080.000000,0.000000,0.000000,0.000000,
10090.000000,0.000000,0.000000,0.000000,
10100.000000,0.000000,0.000000,0.000000,
10110.000000,0.000000,0.000000,0.000000,
10120.000000,0.000000,0.000000,0.000000,
10130.000000,0.000000,0.000000,0.000000,
10140.000000,0.000000,0.000000,0.000000,
10150.000000,0.000000,0.000000,0.000000,
10160.000000,0.000000,0.000000,0.000000,
10170.000000,0.000000,0.000000,0.000000,
10180.000000,0.000000,0.000000,0.000000,
10190.000000,0.000000,0.000000,0.000000,
10200.000000,0.000000,0.000000,0.000000,
10210.000000,0.000000,0.000000,0.000000,
10220.000000,0.000000,0.000000,0.000000,
10230.000000,0.000000,0.000000,0.000000,
10240.000000,0.000000,0.000000,0.000000,
10250.000000,0.000000,0.000000,0.000000,
10260.000000,0.000000,0.000000,0.000000,
10270.000000,0.000000,0.000000,0.000000,
10280.000000,0.000000,0.000000,0.000000,
10290.000000,0.000000,0.000000,0.000000,
10300.000000,0.000000,0.000000,0.000000,
10310.000000,0.000000,0.000000,0.000000,
10320.000000,0.000000,0.000000,0.000000,
10330.000000,0.000000,0.000000,0.000000,
10340.000000,0.000000,0.000000,0.000000,
10350.000000,0.000000,0.000000,0.000000,
10360.000000,0.000000,0.000000,0.000000,
10370.000000,0.000000,0.000000,0.000000,
10380.000000,0.000000,0.000000,0.000000,
10390.000000,0.000000,0.000000,0.000000,
10400.000000,0.000000,0.000000,0.000000,
10410.000000,0.000000,0.000000,0.000000,
10420.000000,0.000000,0.000000,0.000000,
10430.000000,0.000000,0.000000,0.000000,
10440.000000,0.000000,0.000000,0.000000,
10450.000000,0.000000,0.000000,0.000000,
10460.000000,0.000000,0.000000,0.000000,
10470.000000,0.000000,0.000000,0.000000,
10480.000000,0.000000,0.000000,0.000000,
10490.000000,0.000000,0.000000,0.000000,
10500.000000,0.000000,0.000000,0.000000,
10510.000000,0.000000,0.000000,0.000000,
10520.000000,0.000000,0.000000,0.000000,
10530.000000,0.000000,0.000000,0.000000,
10540.000000,0.000000,0.000000,0.000000,
10550.000000,0.000000,0.000000,0.000000,
10560.000000,0.000000,0.000000,0.000000,
10570.000000,0.000000,0.000000,0.000000,
10580.000000,0.000000,0.000000,0.000000,
10590.000000,0.000000,0.000000,0.000000,
10600.000000,0.000000,0.000000,0.000000,
10610.000000,0.000000,0.000000,0.000000,
10620.000000,0.000000,0.000000,0.000000,
10630.000000,0.000000,0.000000,0.000000,
10640.000000,0.000000,0.000000,0.000000,
10650.000000,0.000000,0.000000,0.000000,
10660.000000,0.000000,0.000000,0.000000,
10670.000000,0.000000,0.000000,0.000000,
10680.000000,0.000000,0.000000,0.000000,
10690.000000,0.000000,0.000000,0.000000,
10700.000000,0.000000,0.000000,0.000000,
10710.000000,0.000000,0.000000,0.000000,
10720.000000,0.000000,0.000000,0.000000,
10730.000000,0.000000,0.000000,0.000000,
10740.000000,0.000000,5.540000,0.000000,
10750.000000,0.000000,100.000000,0.000000,
10760.000000,0.000000,100.000000,20.250000,
10770.000000,0.000000,100.000000,81.960000,
10780.000000,0.000000,100.000000,34.960000,
10790.000000,0.000000,100.000000,67.250000,
10800.000000,0.000000,100.000000,49.670000,
10810.000000,0.000000,100.000000,52.540000,
10820.000000,0.000000,100.000000,64.380000,
10830.000000,0.000000,100.000000,37.830000,
10840.000000,0.000000,100.000000,0.000000,
10850.000000,0.000000,100.000000,0.000000,
10860.000000,0.000000,100.000000,0.000000,
10870.000000,0.000000,100.000000,81.960000,
10880.000000,0.000000,100.000000,82.150000,
10890.000000,0.000000,100.000000,84.030000,
10900.000000,0.000000,100.000000,79.700000,
10910.000000,0.000000,100.000000,0.000000,
10920.000000,0.000000,100.000000,0.000000,
10930.000000,0.000000,100.000000,0.000000,
10940.000000,0.000000,100.000000,0.000000,
10950.000000,0.000000,100.000000,0.000000,
10960.000000,0.000000,100.000000,98.070000,
10970.000000,0.000000,100.000000,17.590000,
10980.000000,0.000000,100.000000,85.600000,
10990.000000,0.000000,100.000000,30.060000,
11000.000000,0.000000,100.000000,73.130000,
11010.000000,0.000000,100.000000,42.530000,
11020.000000,0.000000,100.000000,60.660000,
11030.000000,0.000000,100.000000,55.000000,
11040.000000,0.000000,100.000000,0.000000,
11050.000000,0.000000,100.000000,50.350000,
11060.000000,0.000000,100.000000,84.030000,
11070.000000,0.000000,100.000000,84.030000,
11080.000000,0.000000,100.000000,84.030000,
11090.000000,0.000000,100.000000,25.400000,
11100.000000,0.000000,100.000000,0.000000,
11110.000000,0.000000,100.000000,0.000000,
11120.000000,0.000000,100.000000,0.000000,
11130.000000,0.000000,100.000000,0.000000,
11140.000000,0.000000,100.000000,0.000000,
11150.000000,0.000000,100.000000,54.530000,
11160.000000,0.000000,100.000000,84.030000,
11170.000000,0.000000,100.000000,84.030000,
11180.000000,0.000000,100.000000,84.030000,
11190.000000,0.000000,100.000000,21.220000,
11200.000000,0.000000,100.000000,0.000000,
11210.000000,0.000000,100.000000,0.000000,
11220.000000,0.000000,100.000000,0.000000,
11230.000000,0.000000,100.000000,54.480000,
11240.000000,0.000000,100.000000,61.180000,
11250.000000,0.000000,100.000000,42.010000,
11260.000000,0.000000,100.000000,73.650000,
11270.000000,0.000000,100.000000,29.540000,
11280.000000,0.000000,100.000000,86.120000,
11290.000000,0.000000,100.000000,17.070000,
11300.000000,0.000000,100.000000,98.590000,
11310.000000,0.000000,100.000000,0.000000,
11320.000000,0.000000,100.000000,6.760000,
11330.000000,0.000000,100.000000,84.030000,
11340.000000,0.000000,100.000000,84.030000,
11350.000000,0.000000,100.000000,84.030000,
11360.000000,0.000000,100.000000,68.990000,
11370.000000,0.000000,100.000000,0.000000,
11380.000000,0.000000,100.000000,0.000000,
11390.000000,0.000000,100.000000,0.000000,
11400.000000,0.000000,100.000000,0.000000,
11410.000000,0.000000,100.000000,0.000000,
11420.000000,0.000000,100.000000,0.000000,
11430.000000,0.000000,100.000000,0.000000,
11440.000000,0.000000,100.000000,0.000000,
11450.000000,0.000000,100.000000,6.910000,
11460.000000,0.000000,100.000000,97.290000,
11470.000000,0.000000,100.000000,17.330000,
11480.000000,0.000000,100.000000,86.870000,
11490.000000,0.000000,100.000000,27.750000,
11500.000000,0.000000,100.000000,76.450000,
11510.000000,0.000000,100.000000,38.170000,
11520.000000,0.000000,100.000000,66.030000,
11530.000000,0.000000,100.000000,0.000000,
11540.000000,0.000000,100.000000,0.000000,
11550.000000,0.000000,100.000000,0.000000,
11560.000000,0.000000,100.000000,61.260000,
11570.000000,0.000000,100.000000,84.030000,
11580.000000,0.000000,100.000000,84.030000,
11590.000000,0.000000,100.000000,84.030000,
11600.000000,0.000000,100.000000,14.490000,
11610.000000,0.000000,100.000000,0.000000,
11620.000000,0.000000,100.000000,0.000000,
11630.000000,0.000000,100.000000,0.000000,
11640.000000,0.000000,100.000000,0.000000,
11650.000000,0.000000,100.000000,63.280000,
11660.000000,0.000000,100.000000,52.380000,
11670.000000,0.000000,100.000000,50.810000,
11680.000000,0.000000,100.000000,64.850000,
11690.000000,0.000000,100.000000,38.340000,
11700.000000,0.000000,100.000000,77.320000,
11710.000000,0.000000,100.000000,25.870000,
11720.000000,0.000000,100.000000,89.790000,
11730.000000,0.000000,100.000000,0.000000,
11740.000000,0.000000,100.000000,61.340000,
11750.000000,0.000000,100.000000,100.000000,
11760.000000,0.000000,100.000000,100.000000,
11770.000000,0.000000,100.000000,23.970000,
11780.000000,0.000000,100.000000,0.000000,
11790.000000,0.000000,100.000000,0.000000,
11800.000000,0.000000,100.000000,0.000000,
11810.000000,0.000000,100.000000,0.000000,
11820.000000,0.000000,100.000000,0.000000,
11830.000000,0.000000,100.000000,0.000000,
11840.000000,0.000000,100.000000,18.120000,
11850.000000,0.000000,100.000000,100.000000,
11860.000000,0.000000,100.000000,100.000000,
11870.000000,0.000000,100.000000,45.930000,
11880.000000,0.000000,100.000000,0.000000,
11890.000000,0.000000,100.000000,0.000000,
11900.000000,0.000000,100.000000,0.000000,
11910.000000,0.000000,100.000000,0.000000,
11920.000000,0.000000,100.000000,94.070000,
11930.000000,0.000000,100.000000,100.000000,
11940.000000,0.000000,100.000000,96.550000,
11950.000000,0.000000,100.000000,0.000000,
11960.000000,0.000000,100.000000,0.000000,
11970.000000,0.000000,100.000000,0.000000,
11980.000000,0.000000,100.000000,35.500000,
11990.000000,0.000000,100.000000,100.000000,
12000.000000,0.000000,100.000000,100.000000,
12010.000000,0.000000,100.000000,28.550000,
12020.000000,0.000000,100.000000,0.000000,
12030.000000,0.000000,100.000000,0.000000,
12040.000000,0.000000,100.000000,0.000000,
12050.000000,0.000000,100.000000,0.000000,
12060.000000,0.000000,100.000000,0.000000,
12070.000000,0.000000,100.000000,0.000000,
12080.000000,0.000000,100.000000,0.000000,
12090.000000,0.000000,100.000000,99.390000,
12100.000000,0.000000,100.000000,100.000000,
12110.000000,0.000000,100.000000,64.660000,
12120.000000,0.000000,100.000000,0.000000,
12130.000000,0.000000,73.000000,0.000000,
12140.000000,0.000000,0.000000,0.000000,
12150.000000,0.000000,90.520000,32.640000,
12160.000000,0.000000,100.000000,100.000000,
12170.000000,0.000000,100.000000,100.000000,
12180.000000,0.000000,100.000000,57.980000,
12190.000000,0.000000,72.520000,0.000000,
12200.000000,0.000000,0.000000,0.000000,
12210.000000,0.000000,0.000000,0.000000,
12220.000000,0.000000,52.580000,11.550000,
12230.000000,0.000000,100.000000,100.000000,
12240.000000,0.000000,100.000000,100.000000,
12250.000000,0.000000,75.640000,52.500000,
12260.000000,0.000000,0.000000,0.000000,
12270.000000,0.000000,0.000000,0.000000,
12280.000000,0.000000,0.000000,0.000000,
12290.000000,0.000000,0.000000,0.000000,
12300.000000,0.000000,0.000000,0.000000,
12310.000000,0.000000,0.000000,0.000000,
12320.000000,0.000000,0.000000,0.000000,
12330.000000,0.000000,79.920000,38.890000,
12340.000000,0.000000,100.000000,100.000000,
12350.000000,0.000000,100.000000,100.000000,
12360.000000,0.000000,48.300000,25.160000,
12370.000000,0.000000,0.000000,0.000000,
12380.000000,0.000000,0.000000,0.000000,
12390.000000,0.000000,15.580000,0.000000,
12400.000000,0.000000,100.000000,57.700000,
12410.000000,0.000000,100.000000,100.000000,
12420.000000,0.000000,100.000000,100.000000,
12430.000000,0.000000,100.000000,32.920000,
12440.000000,0.000000,47.460000,0.000000,
12450.000000,0.000000,0.000000,0.000000,
12460.000000,0.000000,0.000000,0.000000,
12470.000000,0.000000,77.640000,36.610000,
12480.000000,0.000000,100.000000,100.000000,
12490.000000,0.000000,100.000000,100.000000,
12500.000000,0.000000,50.580000,27.440000,
12510.000000,0.000000,0.000000,0.000000,
12520.000000,0.000000,0.000000,0.000000,
12530.000000,0.000000,0.000000,0.000000,
12540.000000,0.000000,0.000000,0.000000,
12550.000000,0.000000,0.000000,0.000000,
12560.000000,0.000000,0.000000,0.000000,
12570.000000,0.000000,4.980000,0.000000,
12580.000000,0.000000,100.000000,63.950000,
12590.000000,0.000000,100.000000,100.000000,
12600.000000,0.000000,82.210000,100.000000,
12610.000000,0.000000,41.030000,0.100000,
12620.000000,0.000000,0.000000,0.000000,
12630.000000,0.000000,0.000000,0.000000,
12640.000000,0.000000,40.640000,0.000000,
12650.000000,0.000000,100.000000,82.760000,
12660.000000,0.000000,100.000000,100.000000,
12670.000000,0.000000,100.000000,100.000000,
12680.000000,0.000000,100.000000,7.860000,
12690.000000,0.000000,22.400000,0.000000,
12700.000000,0.000000,0.000000,0.000000,
12710.000000,0.000000,2.700000,0.000000,
12720.000000,0.000000,100.000000,61.670000,
12730.000000,0.000000,100.000000,100.000000,
12740.000000,0.000000,84.490000,100.000000,
12750.000000,0.000000,41.030000,2.380000,
12760.000000,0.000000,0.000000,0.000000,
12770.000000,0.000000,0.000000,0.000000,
12780.000000,0.000000,0.000000,0.000000,
12790.000000,0.000000,0.000000,0.000000,
12800.000000,0.000000,0.000000,0.000000,
12810.000000,0.000000,0.000000,0.000000,
12820.000000,0.000000,30.040000,0.000000,
12830.000000,0.000000,100.000000,89.010000,
12840.000000,0.000000,100.000000,100.000000,
12850.000000,0.000000,82.110000,75.040000,
12860.000000,0.000000,16.070000,0.000000,
12870.000000,0.000000,0.000000,0.000000,
12880.000000,0.000000,0.000000,0.000000,
12890.000000,0.000000,65.700000,7.820000,
12900.000000,0.000000,100.000000,100.000000,
12910.000000,0.000000,100.000000,100.000000,
12920.000000,0.000000,100.000000,82.800000,
12930.000000,0.000000,97.340000,0.000000,
12940.000000,0.000000,0.000000,0.000000,
12950.000000,0.000000,0.000000,0.000000,
12960.000000,0.000000,27.760000,0.000000,
12970.000000,0.000000,100.000000,86.730000,
12980.000000,0.000000,100.000000,100.000000,
12990.000000,0.000000,82.110000,77.320000,
13000.000000,0.000000,18.350000,0.000000,
13010.000000,0.000000,0.000000,0.000000,
13020.000000,0.000000,0.000000,0.000000,
13030.000000,0.000000,0.000000,0.000000,
13040.000000,0.000000,0.000000,0.000000,
13050.000000,0.000000,0.000000,0.000000,
13060.000000,0.000000,0.000000,0.000000,
13070.000000,0.000000,0.000000,0.000000,
13080.000000,0.000000,27.100000,0.000000,
13090.000000,0.000000,100.000000,74.950000,
13100.000000,0.000000,100.000000,100.000000,
13110.000000,0.000000,100.000000,100.000000,
13120.000000,0.000000,90.100000,10.360000,
13130.000000,0.000000,0.000000,0.000000,
13140.000000,0.000000,0.000000,0.000000,
13150.000000,0.000000,0.000000,0.000000,
13160.000000,0.000000,0.000000,0.000000,
13170.000000,0.000000,0.000000,0.000000,
13180.000000,0.000000,0.000000,0.000000,
13190.000000,0.000000,0.000000,0.000000,
13200.000000,0.000000,0.000000,0.000000,
13210.000000,0.000000,67.560000,26.530000,
13220.000000,0.000000,100.000000,100.000000,
13230.000000,0.000000,100.000000,100.000000,
13240.000000,0.000000,60.660000,37.520000,
13250.000000,0.000000,0.000000,0.000000,
13260.000000,0.000000,0.000000,0.000000,
13270.000000,0.000000,3.220000,0.000000,
13280.000000,0.000000,100.000000,45.340000,
13290.000000,0.000000,100.000000,100.000000,
13300.000000,0.000000,100.000000,100.000000,
13310.000000,0.000000,100.000000,45.280000,
13320.000000,0.000000,59.820000,0.000000,
13330.000000,0.000000,0.000000,0.000000,
13340.000000,0.000000,29.280000,0.000000,
13350.000000,0.000000,100.000000,93.570000,
13360.000000,0.000000,88.500000,100.000000,
13370.000000,0.000000,67.940000,59.860000,
13380.000000,0.000000,0.000000,0.000000,
13390.000000,0.000000,0.000000,0.000000,
13400.000000,0.000000,0.000000,0.000000,
13410.000000,0.000000,0.000000,0.000000,
13420.000000,0.000000,0.000000,0.000000,
13430.000000,0.000000,0.000000,0.000000,
13440.000000,0.000000,0.000000,0.000000,
13450.000000,0.000000,0.000000,0.000000,
13460.000000,0.000000,0.000000,0.000000,
13470.000000,0.000000,0.000000,0.000000,
13480.000000,0.000000,0.000000,0.000000,
13490.000000,0.000000,0.000000,0.000000,
13500.000000,0.000000,0.000000,0.000000,
13510.000000,0.000000,5.100000,0.000000,
13520.000000,0.000000,100.000000,72.040000,
13530.000000,0.000000,93.240000,100.000000,
13540.000000,0.000000,56.990000,76.070000,
13550.000000,0.000000,9.130000,0.000000,
13560.000000,0.000000,0.000000,0.000000,
13570.000000,0.000000,0.000000,0.000000,
13580.000000,0.000000,0.000000,0.000000,
13590.000000,0.000000,5.720000,0.000000,
13600.000000,0.000000,100.000000,69.340000,
13610.000000,0.000000,100.000000,100.000000,
13620.000000,0.000000,63.510000,85.410000,
13630.000000,0.000000,21.790000,0.000000,
13640.000000,0.000000,0.000000,0.000000,
13650.000000,0.000000,0.000000,0.000000,
13660.000000,0.000000,0.000000,0.000000,
13670.000000,0.000000,0.000000,0.000000,
13680.000000,0.000000,87.140000,54.080000,
13690.000000,0.000000,100.000000,100.000000,
13700.000000,0.000000,50.230000,94.030000,
13710.000000,0.000000,27.090000,0.000000,
13720.000000,0.000000,0.000000,0.000000,
13730.000000,0.000000,0.000000,0.000000,
13740.000000,0.000000,0.000000,0.000000,
13750.000000,0.000000,0.000000,0.000000,
13760.000000,0.000000,0.000000,0.000000,
13770.000000,0.000000,0.000000,0.000000,
13780.000000,0.000000,0.000000,0.000000,
13790.000000,0.000000,0.000000,0.000000,
13800.000000,0.000000,0.000000,0.000000,
13810.000000,0.000000,0.000000,0.000000,
13820.000000,0.000000,0.000000,0.000000,
13830.000000,0.000000,0.000000,0.000000,
13840.000000,0.000000,0.000000,0.000000,
13850.000000,0.000000,15.600000,0.000000,
13860.000000,0.000000,100.000000,82.540000,
13870.000000,0.000000,82.740000,100.000000,
13880.000000,0.000000,66.120000,65.570000,
13890.000000,0.000000,0.000000,0.000000,
13900.000000,0.000000,0.000000,0.000000,
13910.000000,0.000000,0.000000,0.000000,
13920.000000,0.000000,0.000000,0.000000,
13930.000000,0.000000,16.220000,0.000000,
13940.000000,0.000000,100.000000,79.840000,
13950.000000,0.000000,100.000000,100.000000,
13960.000000,0.000000,63.510000,74.910000,
13970.000000,0.000000,11.290000,0.000000,
13980.000000,0.000000,0.000000,0.000000,
13990.000000,0.000000,0.000000,0.000000,
14000.000000,0.000000,0.000000,0.000000,
14010.000000,0.000000,0.000000,0.000000,
14020.000000,0.000000,97.640000,64.580000,
14030.000000,0.000000,100.000000,100.000000,
14040.000000,0.000000,50.230000,83.530000,
14050.000000,0.000000,16.590000,0.000000,
14060.000000,0.000000,0.000000,0.000000,
14070.000000,0.000000,0.000000,0.000000,
14080.000000,0.000000,0.000000,0.000000,
14090.000000,0.000000,0.000000,0.000000,
14100.000000,0.000000,0.000000,0.000000,
14110.000000,0.000000,0.000000,0.000000,
14120.000000,0.000000,0.000000,0.000000,
14130.000000,0.000000,0.000000,0.000000,
14140.000000,0.000000,0.000000,0.000000,
14150.000000,0.000000,0.000000,0.000000,
14160.000000,0.000000,0.000000,0.000000,
14170.000000,0.000000,0.000000,0.000000,
14180.000000,0.000000,0.000000,0.000000,
14190.000000,0.000000,26.100000,0.000000,
14200.000000,0.000000,100.000000,93.040000,
14210.000000,0.000000,79.200000,100.000000,
14220.000000,0.000000,59.160000,55.070000,
14230.000000,0.000000,0.000000,0.000000,
14240.000000,0.000000,0.000000,0.000000,
14250.000000,0.000000,0.000000,0.000000,
14260.000000,0.000000,0.000000,0.000000,
14270.000000,0.000000,26.720000,0.000000,
14280.000000,0.000000,100.000000,90.340000,
14290.000000,0.000000,91.550000,100.000000,
14300.000000,0.000000,71.960000,64.410000,
14310.000000,0.000000,0.790000,0.000000,
14320.000000,0.000000,0.000000,0.000000,
14330.000000,0.000000,0.000000,0.000000,
14340.000000,0.000000,0.000000,0.000000,
14350.000000,0.000000,8.140000,0.000000,
14360.000000,0.000000,100.000000,75.080000,
14370.000000,0.000000,90.200000,100.000000,
14380.000000,0.000000,60.030000,73.030000,
14390.000000,0.000000,6.090000,0.000000,
14400.000000,0.000000,0.000000,0.000000,
14410.000000,0.000000,0.000000,0.000000,
14420.000000,0.000000,0.000000,0.000000,
14430.000000,0.000000,0.000000,0.000000,
14440.000000,0.000000,0.000000,0.000000,
14450.000000,0.000000,0.000000,0.000000,
14460.000000,0.000000,0.000000,0.000000,
14470.000000,0.000000,0.000000,0.000000,
14480.000000,0.000000,0.000000,0.000000,
14490.000000,0.000000,0.000000,0.000000,
14500.000000,0.000000,0.000000,0.000000,
14510.000000,0.000000,0.000000,0.000000,
14520.000000,0.000000,0.000000,0.000000,
14530.000000,0.000000,0.000000,0.000000,
14540.000000,0.000000,11.160000,0.000000,
14550.000000,0.000000,100.000000,75.450000,
14560.000000,0.000000,100.000000,100.000000,
14570.000000,0.000000,60.860000,77.980000,
14580.000000,0.000000,13.700000,0.000000,
14590.000000,0.000000,0.000000,0.000000,
14600.000000,0.000000,0.000000,0.000000,
14610.000000,0.000000,0.000000,0.000000,
14620.000000,0.000000,0.000000,0.000000,
14630.000000,0.000000,0.000000,0.000000,
14640.000000,0.000000,0.000000,0.000000,
14650.000000,0.000000,0.000000,0.000000,
14660.000000,0.000000,0.000000,0.000000,
14670.000000,0.000000,0.000000,0.000000,
14680.000000,0.000000,0.000000,0.000000,
14690.000000,0.000000,0.000000,0.000000,
14700.000000,0.000000,0.000000,0.000000,
14710.000000,0.000000,0.000000,0.000000,
14720.000000,0.000000,0.000000,0.000000,
14730.000000,0.000000,0.000000,0.000000,
14740.000000,0.000000,98.820000,65.760000,
14750.000000,0.000000,99.520000,100.000000,
14760.000000,0.000000,50.710000,82.350000,
14770.000000,0.000000,15.410000,0.000000,
14780.000000,0.000000,0.000000,0.000000,
14790.000000,0.000000,0.000000,0.000000,
14800.000000,0.000000,0.000000,0.000000,
14810.000000,0.000000,0.000000,0.000000,
14820.000000,0.000000,99.440000,63.060000,
14830.000000,0.000000,100.000000,100.000000,
14840.000000,0.000000,63.510000,91.690000,
14850.000000,0.000000,28.070000,0.000000,
14860.000000,0.000000,0.000000,0.000000,
14870.000000,0.000000,0.000000,0.000000,
14880.000000,0.000000,0.000000,0.000000,
14890.000000,0.000000,43.580000,11.850000,
14900.000000,0.000000,100.000000,100.000000,
14910.000000,0.000000,74.550000,100.000000,
14920.000000,0.000000,35.690000,33.610000,
14930.000000,0.000000,0.000000,0.000000,
14940.000000,0.000000,0.000000,0.000000,
14950.000000,0.000000,0.000000,0.000000,
14960.000000,0.000000,0.000000,0.000000,
14970.000000,0.000000,0.000000,0.000000,
14980.000000,0.000000,0.000000,0.000000,
14990.000000,0.000000,0.000000,0.000000,
15000.000000,0.000000,0.000000,0.000000,
15010.000000,0.000000,0.000000,0.000000,
15020.000000,0.000000,0.000000,0.000000,
15030.000000,0.000000,0.000000,0.000000,
15040.000000,0.000000,0.000000,0.000000,
15050.000000,0.000000,0.000000,0.000000,
15060.000000,0.000000,0.000000,0.000000,
15070.000000,0.000000,0.000000,0.000000,
15080.000000,0.000000,0.000000,0.000000,
15090.000000,0.000000,0.000000,0.000000,
15100.000000,0.000000,0.000000,0.000000,
15110.000000,0.000000,0.000000,0.000000,
15120.000000,0.000000,0.000000,0.000000,
15130.000000,0.000000,0.000000,0.000000,
15140.000000,0.000000,0.000000,0.000000,
15150.000000,0.000000,0.000000,0.000000,
15160.000000,0.000000,0.000000,0.000000,
15170.000000,0.000000,0.000000,0.000000,
15180.000000,0.000000,0.000000,0.000000,
15190.000000,0.000000,0.000000,0.000000,
15200.000000,0.000000,0.000000,0.000000,
15210.000000,0.000000,37.160000,6.100000,
15220.000000,0.000000,100.000000,100.000000,
15230.000000,0.000000,72.230000,100.000000,
15240.000000,0.000000,39.140000,38.030000,
15250.000000,0.000000,0.000000,0.000000,
15260.000000,0.000000,0.000000,0.000000,
15270.000000,0.000000,0.000000,0.000000,
15280.000000,0.000000,0.000000,0.000000,
15290.000000,0.000000,0.000000,0.000000,
15300.000000,0.000000,0.000000,0.000000,
15310.000000,0.000000,0.000000,0.000000,
15320.000000,0.000000,0.000000,0.000000,
15330.000000,0.000000,0.000000,0.000000,
15340.000000,0.000000,0.000000,0.000000,
15350.000000,0.000000,0.000000,0.000000,
15360.000000,0.000000,0.000000,0.000000,
15370.000000,0.000000,0.000000,0.000000,
15380.000000,0.000000,0.000000,0.000000,
15390.000000,0.000000,0.000000,0.000000,
15400.000000,0.000000,0.000000,0.000000,
15410.000000,0.000000,0.000000,0.000000,
15420.000000,0.000000,60.980000,29.080000,
15430.000000,0.000000,100.000000,100.000000,
15440.000000,0.000000,62.280000,100.000000,
15450.000000,0.000000,31.900000,16.700000,
15460.000000,0.000000,0.000000,0.000000,
15470.000000,0.000000,0.000000,0.000000,
15480.000000,0.000000,0.000000,0.000000,
15490.000000,0.000000,0.000000,0.000000,
15500.000000,0.000000,0.000000,0.000000,
15510.000000,0.000000,0.000000,0.000000,
15520.000000,0.000000,0.000000,0.000000,
15530.000000,0.000000,0.000000,0.000000,
15540.000000,0.000000,0.000000,0.000000,
15550.000000,0.000000,0.000000,0.000000,
15560.000000,0.000000,0.000000,0.000000,
15570.000000,0.000000,0.000000,0.000000,
15580.000000,0.000000,0.000000,0.000000,
15590.000000,0.000000,0.000000,0.000000,
15600.000000,0.000000,0.000000,0.000000,
15610.000000,0.000000,71.040000,39.980000,
15620.000000,0.000000,100.000000,100.000000,
15630.000000,0.000000,46.420000,100.000000,
15640.000000,0.000000,31.070000,4.150000,
15650.000000,0.000000,0.000000,0.000000,
15660.000000,0.000000,0.000000,0.000000,
15670.000000,0.000000,0.000000,0.000000,
15680.000000,0.000000,0.000000,0.000000,
15690.000000,0.000000,0.000000,0.000000,
15700.000000,0.000000,0.000000,0.000000,
15710.000000,0.000000,0.000000,0.000000,
15720.000000,0.000000,0.000000,0.000000,
15730.000000,0.000000,0.000000,0.000000,
15740.000000,0.000000,0.000000,0.000000,
15750.000000,0.000000,0.000000,0.000000,
15760.000000,0.000000,0.000000,0.000000,
15770.000000,0.000000,0.000000,0.000000,
15780.000000,0.000000,0.000000,0.000000,
15790.000000,0.000000,0.000000,0.000000,
15800.000000,0.000000,0.000000,0.000000,
15810.000000,0.000000,0.000000,0.000000,
15820.000000,0.000000,0.000000,0.000000,
15830.000000,0.000000,0.000000,0.000000,
15840.000000,0.000000,0.000000,0.000000,
15850.000000,0.000000,0.000000,0.000000,
15860.000000,0.000000,0.000000,0.000000,
15870.000000,0.000000,0.000000,0.000000,
15880.000000,0.000000,0.000000,0.000000,
15890.000000,0.000000,0.000000,0.000000,
15900.000000,0.000000,0.000000,0.000000,
15910.000000,0.000000,0.000000,0.000000,
15920.000000,0.000000,0.000000,0.000000,
15930.000000,0.000000,6.380000,0.000000,
15940.000000,0.000000,100.000000,75.320000,
15950.000000,0.000000,80.010000,100.000000,
15960.000000,0.000000,62.140000,68.810000,
15970.000000,0.000000,0.000000,0.000000,
15980.000000,0.000000,0.000000,0.000000,
15990.000000,0.000000,0.000000,0.000000,
16000.000000,0.000000,0.000000,0.000000,
16010.000000,0.000000,0.000000,0.000000,
16020.000000,0.000000,0.000000,0.000000,
16030.000000,0.000000,0.000000,0.000000,
16040.000000,0.000000,0.000000,0.000000,
16050.000000,0.000000,0.000000,0.000000,
16060.000000,0.000000,0.000000,0.000000,
16070.000000,0.000000,0.000000,0.000000,
16080.000000,0.000000,0.000000,0.000000,
16090.000000,0.000000,0.000000,0.000000,
16100.000000,0.000000,0.000000,0.000000,
16110.000000,0.000000,0.000000,0.000000,
16120.000000,0.000000,0.000000,0.000000,
16130.000000,0.000000,0.000000,0.000000,
16140.000000,0.000000,30.200000,0.000000,
16150.000000,0.000000,100.000000,98.300000,
16160.000000,0.000000,75.130000,100.000000,
16170.000000,0.000000,49.830000,47.480000,
16180.000000,0.000000,0.000000,0.000000,
16190.000000,0.000000,0.000000,0.000000,
16200.000000,0.000000,0.000000,0.000000,
16210.000000,0.000000,0.000000,0.000000,
16220.000000,0.000000,0.000000,0.000000,
16230.000000,0.000000,0.000000,0.000000,
16240.000000,0.000000,0.000000,0.000000,
16250.000000,0.000000,0.000000,0.000000,
16260.000000,0.000000,0.000000,0.000000,
16270.000000,0.000000,0.000000,0.000000,
16280.000000,0.000000,0.000000,0.000000,
16290.000000,0.000000,0.000000,0.000000,
16300.000000,0.000000,0.000000,0.000000,
16310.000000,0.000000,0.000000,0.000000,
16320.000000,0.000000,0.000000,0.000000,
16330.000000,0.000000,40.260000,9.200000,
16340.000000,0.000000,100.000000,100.000000,
16350.000000,0.000000,72.230000,100.000000,
16360.000000,0.000000,36.040000,34.930000,
16370.000000,0.000000,0.000000,0.000000,
16380.000000,0.000000,0.000000,0.000000,
16390.000000,0.000000,0.000000,0.000000,
16400.000000,0.000000,0.000000,0.000000,
16410.000000,0.000000,0.000000,0.000000,
16420.000000,0.000000,0.000000,0.000000,
16430.000000,0.000000,0.000000,0.000000,
16440.000000,0.000000,0.000000,0.000000,
16450.000000,0.000000,0.000000,0.000000,
16460.000000,0.000000,0.000000,0.000000,
16470.000000,0.000000,0.000000,0.000000,
16480.000000,0.000000,0.000000,0.000000,
16490.000000,0.000000,0.000000,0.000000,
16500.000000,0.000000,0.000000,0.000000,
16510.000000,0.000000,0.000000,0.000000,
16520.000000,0.000000,0.000000,0.000000,
16530.000000,0.000000,0.000000,0.000000,
16540.000000,0.000000,0.000000,0.000000,
16550.000000,0.000000,0.000000,0.000000,
16560.000000,0.000000,0.000000,0.000000,
16570.000000,0.000000,0.000000,0.000000,
16580.000000,0.000000,0.000000,0.000000,
16590.000000,0.000000,0.000000,0.000000,
16600.000000,0.000000,0.000000,0.000000,
16610.000000,0.000000,0.000000,0.000000,
16620.000000,0.000000,0.000000,0.000000,
16630.000000,0.000000,0.000000,0.000000,
16640.000000,0.000000,0.000000,0.000000,
16650.000000,0.000000,0.000000,0.000000,
16660.000000,0.000000,75.600000,44.540000,
16670.000000,0.000000,100.000000,100.000000,
16680.000000,0.000000,42.270000,99.590000,
16690.000000,0.000000,30.660000,0.000000,
16700.000000,0.000000,0.000000,0.000000,
16710.000000,0.000000,0.000000,0.000000,
16720.000000,0.000000,0.000000,0.000000,
16730.000000,0.000000,0.000000,0.000000,
16740.000000,0.000000,0.000000,0.000000,
16750.000000,0.000000,0.000000,0.000000,
16760.000000,0.000000,0.000000,0.000000,
16770.000000,0.000000,0.000000,0.000000,
16780.000000,0.000000,0.000000,0.000000,
16790.000000,0.000000,0.000000,0.000000,
16800.000000,0.000000,0.000000,0.000000,
16810.000000,0.000000,0.000000,0.000000,
16820.000000,0.000000,0.000000,0.000000,
16830.000000,0.000000,0.000000,0.000000,
16840.000000,0.000000,0.000000,0.000000,
16850.000000,0.000000,0.000000,0.000000,
16860.000000,0.000000,0.000000,0.000000,
16870.000000,0.000000,0.000000,0.000000,
16880.000000,0.000000,0.000000,0.000000,
16890.000000,0.000000,0.000000,0.000000,
16900.000000,0.000000,0.000000,0.000000,
16910.000000,0.000000,0.000000,0.000000,
16920.000000,0.000000,0.000000,0.000000,
16930.000000,0.000000,0.000000,0.000000,
16940.000000,0.000000,0.000000,0.000000,
16950.000000,0.000000,0.000000,0.000000,
16960.000000,0.000000,0.000000,0.000000,
16970.000000,0.000000,0.000000,0.000000,
16980.000000,0.000000,0.000000,0.000000,
16990.000000,0.000000,0.000000,0.000000,
17000.000000,0.000000,82.300000,51.240000,
17010.000000,0.000000,100.000000,100.000000,
17020.000000,0.000000,42.270000,92.890000,
17030.000000,0.000000,23.960000,0.000000,
17040.000000,0.000000,0.000000,0.000000,
17050.000000,0.000000,0.000000,0.000000,
17060.000000,0.000000,0.000000,0.000000,
17070.000000,0.000000,0.000000,0.000000,
17080.000000,0.000000,0.000000,0.000000,
17090.000000,0.000000,0.000000,0.000000,
17100.000000,0.000000,0.000000,0.000000,
17110.000000,0.000000,0.000000,0.000000,
17120.000000,0.000000,0.000000,0.000000,
17130.000000,0.000000,0.000000,0.000000,
17140.000000,0.000000,0.000000,0.000000,
17150.000000,0.000000,0.000000,0.000000,
17160.000000,0.000000,0.000000,0.000000,
17170.000000,0.000000,0.000000,0.000000,
17180.000000,0.000000,0.000000,0.000000,
17190.000000,0.000000,0.000000,0.000000,
17200.000000,0.000000,6.120000,0.000000,
17210.000000,0.000000,100.000000,74.220000,
17220.000000,0.000000,85.250000,100.000000,
17230.000000,0.000000,60.330000,71.560000,
17240.000000,0.000000,3.460000,0.000000,
17250.000000,0.000000,0.000000,0.000000,
17260.000000,0.000000,0.000000,0.000000,
17270.000000,0.000000,0.000000,0.000000,
17280.000000,0.000000,0.000000,0.000000,
17290.000000,0.000000,0.000000,0.000000,
17300.000000,0.000000,0.000000,0.000000,
17310.000000,0.000000,0.000000,0.000000,
17320.000000,0.000000,0.000000,0.000000,
17330.000000,0.000000,0.000000,0.000000,
17340.000000,0.000000,0.000000,0.000000,
17350.000000,0.000000,0.000000,0.000000,
17360.000000,0.000000,0.000000,0.000000,
17370.000000,0.000000,4.340000,0.000000,
17380.000000,0.000000,100.000000,73.770000,
17390.000000,0.000000,79.060000,100.000000,
17400.000000,0.000000,61.120000,69.360000,
17410.000000,0.000000,0.000000,0.000000,
17420.000000,0.000000,0.000000,0.000000,
17430.000000,0.000000,0.000000,0.000000,
17440.000000,0.000000,0.000000,0.000000,
17450.000000,0.000000,0.000000,0.000000,
17460.000000,0.000000,0.000000,0.000000,
17470.000000,0.000000,0.000000,0.000000,
17480.000000,0.000000,0.000000,0.000000,
17490.000000,0.000000,0.000000,0.000000,
17500.000000,0.000000,0.000000,0.000000,
17510.000000,0.000000,0.000000,0.000000,
17520.000000,0.000000,0.000000,0.000000,
17530.000000,0.000000,0.000000,0.000000,
17540.000000,0.000000,0.000000,0.000000,
17550.000000,0.000000,0.000000,0.000000,
17560.000000,0.000000,0.000000,0.000000,
17570.000000,0.000000,0.000000,0.000000,
17580.000000,0.000000,0.000000,0.000000,
17590.000000,0.000000,0.000000,0.000000,
17600.000000,0.000000,0.000000,0.000000,
17610.000000,0.000000,0.000000,0.000000,
17620.000000,0.000000,0.000000,0.000000,
17630.000000,0.000000,0.000000,0.000000,
17640.000000,0.000000,0.000000,0.000000,
17650.000000,0.000000,0.000000,0.000000,
17660.000000,0.000000,0.000000,0.000000,
17670.000000,0.000000,0.000000,0.000000,
17680.000000,0.000000,0.000000,0.000000,
17690.000000,0.000000,0.000000,0.000000,
17700.000000,0.000000,0.000000,0.000000,
17710.000000,0.000000,0.000000,0.000000,
17720.000000,0.000000,0.000000,0.000000,
17730.000000,0.000000,0.000000,0.000000,
17740.000000,0.000000,0.000000,0.000000,
17750.000000,0.000000,0.000000,0.000000,
17760.000000,0.000000,0.000000,0.000000,
17770.000000,0.000000,0.000000,0.000000,
17780.000000,0.000000,0.000000,0.000000,
17790.000000,0.000000,0.000000,0.000000,
17800.000000,0.000000,0.000000,0.000000,
17810.000000,0.000000,0.000000,0.000000,
17820.000000,0.000000,0.000000,0.000000,
17830.000000,0.000000,0.000000,0.000000,
17840.000000,0.000000,0.000000,0.000000,
17850.000000,0.000000,0.000000,0.000000,
17860.000000,0.000000,0.000000,0.000000,
17870.000000,0.000000,0.000000,0.000000,
17880.000000,0.000000,0.000000,0.000000,
17890.000000,0.000000,0.000000,0.000000,
17900.000000,0.000000,0.000000,0.000000,
17910.000000,0.000000,0.000000,0.000000,
17920.000000,0.000000,0.000000,0.000000,
17930.000000,0.000000,0.000000,0.000000,
17940.000000,0.000000,0.000000,0.000000,
17950.000000,0.000000,79.200000,48.420000,
17960.000000,0.000000,100.000000,100.000000,
17970.000000,0.000000,41.140000,95.140000,
,,,
