Layer,	Cycles,	% Utilization,
conv1,	200859,	10.546875,
conv2,	602944,	75.01061458443901,
conv3,	252736,	90.0101291466194,
conv4,	455040,	100.0,
conv5,	232704,	100.0,
conv6,	465408,	100.0,
conv7,	465408,	100.0,
conv8,	253440,	100.0,
conv9,	506880,	100.0,
conv10,	506880,	100.0,
conv11,	168192,	100.0,
conv12,	168192,	100.0,
conv13,	168192,	100.0,
fc1,	2433536,	100.0,
fc2,	397312,	100.0,
fc3,	97792,	97.91393979057592,
