Layer name,ifmap height,ifmap width,filter height,filter width,channels,num filter,strides,
LSTM_1,16,1024,1,1024,1,1,1,
LSTM_2,16,1024,1,1024,1,1,1,
LSTM_3,16,1024,1,1024,1,1,1,
LSTM_4,16,1024,1,1024,1,1,1,
LSTM_5,16,1024,1,1024,1,1,1,
LSTM_6,16,1024,1,1024,1,1,1,
LSTM_7,16,1024,1,1024,1,1,1,
LSTM_8,16,1024,1,1024,1,1,1,
