Layer,	Cycles,	% Utilization,
LSTM_1,	2184,	0.78125,
LSTM_2,	2184,	0.78125,
LSTM_3,	2184,	0.78125,
LSTM_4,	2184,	0.78125,
LSTM_5,	2184,	0.78125,
LSTM_6,	2184,	0.78125,
LSTM_7,	2184,	0.78125,
LSTM_8,	2184,	0.78125,
