Layer name,ifmap height,ifmap width,filter height,filter width,channels,num filter,strides,
GEMM_Q_GEN,128,64,1,64,1,2560,1,
GEMM_K_GEN,128,64,1,64,1,2560,1,
GEMM_V_GEN,128,64,1,64,1,2560,1,
GEMM_QK,128,512,1,512,1,64,1,
GEMM_QKV,128,64,1,64,1,512,1,
GEMM_Linear,128,2560,1,2560,1,640,1,
GEMM_MLP_1,128,2560,1,2560,1,2560,1,
GEMM_MLP_2,128,2560,1,2560,1,2560,1,
