Layer name,ifmap height,ifmap width,filter height,filter width,channels,num filter,strides,
GEMM_Q_GEN,640,512,1,512,1,64,1,
GEMM_K_GEN,640,512,1,512,1,64,1,
GEMM_V_GEN,640,512,1,512,1,64,1,
GEMM_QK,16,512,1,512,1,512,1,
GEMM_QKV,128,512,1,512,1,64,1,
GEMM_Linear,160,512,1,512,1,2560,1,
GEMM_MLP_1,640,512,1,512,1,2560,1,
GEMM_MLP_2,640,512,1,512,1,2560,1,
