Layer,	Cycles,	% Utilization,
Conv1,	201014,	3.591753190231775,
CB2a_1,	25224,	3.125,
CB2a_2,	126632,	5.627527007391497,
CB2a_3,	25248,	12.5,
CB2s,	25248,	12.5,
IB2b_1,	50704,	6.25,
IB2b_2,	126632,	5.627527007391497,
IB2b_3,	25248,	12.5,
IB2c_1,	50704,	6.25,
IB2c_2,	126632,	5.627527007391497,
IB2c_3,	25248,	12.5,
CB3a_1,	13088,	12.5,
CB3a_2,	58896,	12.5,
CB3a_3,	6592,	50.0,
CB3s,	13184,	50.0,
IB3b_1,	26176,	12.5,
IB3b_2,	58896,	12.5,
IB3b_3,	6592,	50.0,
IB3c_1,	26176,	12.5,
IB3c_2,	58896,	12.5,
IB3c_3,	6592,	50.0,
IB3d_1,	26176,	12.5,
IB3d_2,	58896,	12.5,
IB3d_3,	6592,	50.0,
CB4a_1,	7424,	25.0,
CB4a_2,	33408,	25.0,
CB4a_3,	3904,	100.0,
CB4s,	7808,	100.0,
IB4b_1,	14848,	25.0,
IB4b_2,	33408,	25.0,
IB4b_3,	3904,	100.0,
IB4c_1,	14848,	25.0,
IB4c_2,	33408,	25.0,
IB4c_3,	3904,	100.0,
IB4d_1,	14848,	25.0,
IB4d_2,	33408,	25.0,
IB4d_3,	3904,	100.0,
IB4e_1,	14848,	25.0,
IB4e_2,	33408,	25.0,
IB4e_3,	3904,	100.0,
IB4f_1,	14848,	25.0,
IB4f_2,	33408,	25.0,
IB4f_3,	3904,	100.0,
CB5a_1,	5696,	50.0,
CB5a_2,	25632,	50.0,
CB5a_3,	6208,	100.0,
CB5s,	12416,	100.0,
IB5b_1,	11392,	50.0,
IB5b_2,	25632,	50.0,
IB5b_3,	6208,	100.0,
IB5c_1,	11392,	50.0,
IB5c_2,	25632,	50.0,
IB5c_3,	6208,	100.0,
FC6,	6224,	97.65625,
