Layer name,ifmap height,ifmap width,filter height,filter width,channels,num filter,strides,
GEMM_Q_GEN,64,128,1,128,1,3072,1,
GEMM_K_GEN,64,128,1,128,1,3072,1,
GEMM_V_GEN,64,128,1,128,1,3072,1,
GEMM_QK,64,1024,1,1024,1,128,1,
GEMM_QKV,64,128,1,128,1,1024,1,
GEMM_Linear,64,3072,1,3072,1,384,1,
GEMM_MLP_1,64,1536,1,1536,1,3072,1,
GEMM_MLP_2,64,3072,1,3072,1,1536,1,
