Layer,	Cycles,	% Utilization,
GEMM_Q_GEN,	10752,	100.0,
GEMM_K_GEN,	10752,	100.0,
GEMM_V_GEN,	10752,	100.0,
GEMM_QK,	3584,	100.0,
GEMM_QKV,	3584,	100.0,
GEMM_Linear,	32256,	100.0,
GEMM_MLP_1,	129024,	100.0,
GEMM_MLP_2,	129024,	100.0,
