Layer name,ifmap height,ifmap width,filter height,filter width,channels,num filter,strides,
GEMM_Q_GEN,1024,32,1,32,1,1024,1,
GEMM_K_GEN,1024,32,1,32,1,1024,1,
GEMM_V_GEN,1024,32,1,32,1,1024,1,
GEMM_QK,1024,256,1,256,1,64,1,
GEMM_QKV,1024,32,1,32,1,512,1,
GEMM_Linear,1024,512,1,512,1,1024,1,
GEMM_MLP_1,1024,2048,1,2048,1,1024,1,
GEMM_MLP_2,1024,512,1,512,1,4096,1,
