Layer,	Cycles,	% Utilization,
MLP_Bottom_0,	98,	5.078125,
MLP_Bottom_1,	1312,	50.0,
MLP_Bottom_2,	1312,	50.0,
MLP_Bottom_3,	1064,	1.5625,
MLP_Top_0,	2728,	48.33211143695015,
MLP_Top_1,	1312,	50.0,
MLP_Top_2,	1312,	50.0,
