Layer,	Cycles,	% Utilization,
MLP_Bottom_0,	546,	10.15625,
MLP_Bottom_1,	3104,	100.0,
MLP_Bottom_2,	3104,	100.0,
MLP_Bottom_3,	172,	25.0,
MLP_Top_0,	6760,	92.85502958579882,
MLP_Top_1,	3104,	100.0,
MLP_Top_2,	3104,	100.0,
