Layer,	Cycles,	% Utilization,
MLP_Bottom_0,	324,	100.0,
MLP_Bottom_1,	448,	100.0,
MLP_Bottom_2,	448,	100.0,
MLP_Bottom_3,	264,	3.125,
MLP_Top_0,	580,	100.0,
MLP_Top_1,	448,	100.0,
MLP_Top_2,	448,	100.0,
