Layer,	Cycles,	% Utilization,
MLP_Bottom_0,	183,	20.3125,
MLP_Bottom_1,	3200,	100.0,
MLP_Bottom_2,	3200,	100.0,
MLP_Bottom_3,	1120,	6.25,
MLP_Top_0,	6752,	95.43838862559242,
MLP_Top_1,	3200,	100.0,
MLP_Top_2,	3200,	100.0,
