Layer name,ifmap height,ifmap width,filter height,filter width,channels,num filter,strides,
conv1,7,401408,1,401408,1,32,1,
conv2,144,401408,1,401408,1,32,1,
conv3,144,100352,1,100352,1,64,1,
conv4,288,100352,1,100352,1,64,1,
conv5,288,25088,1,25088,1,128,1,
conv6,576,25088,1,25088,1,128,1,
conv7,576,25088,1,25088,1,128,1,
conv8,576,6272,1,6272,1,256,1,
conv9,1152,6272,1,6272,1,256,1,
conv10,1152,6272,1,6272,1,256,1,
conv11,1152,1568,1,1568,1,256,1,
conv12,1152,1568,1,1568,1,256,1,
conv13,1152,1568,1,1568,1,256,1,
fc1,6272,8,1,8,1,2048,1,
fc2,1024,8,1,8,1,2048,1,
fc3,1024,8,1,8,1,500,1,
