Layer,	Cycles,	% Utilization,
conv1,	100443,	5.2734375,
conv2,	201120,	56.28480509148767,
conv3,	76096,	75.08410428931876,
conv4,	126976,	90.02016129032258,
conv5,	59904,	100.0,
conv6,	119808,	100.0,
conv7,	119808,	100.0,
conv8,	70272,	100.0,
conv9,	140544,	100.0,
conv10,	140544,	100.0,
conv11,	55872,	100.0,
conv12,	55872,	100.0,
conv13,	55872,	100.0,
fc1,	1210496,	100.0,
fc2,	197632,	100.0,
fc3,	48640,	97.76726973684211,
