Layer name,ifmap height,ifmap width,filter height,filter width,channels,num filter,strides,
Conv1,37,100352,1,100352,1,16,1,
CB2a_1,16,25088,1,25088,1,16,1,
CB2a_2,144,25088,1,25088,1,16,1,
CB2a_3,16,25088,1,25088,1,64,1,
CB2s,16,25088,1,25088,1,64,1,
IB2b_1,64,25088,1,25088,1,16,1,
IB2b_2,144,25088,1,25088,1,16,1,
IB2b_3,16,25088,1,25088,1,64,1,
IB2c_1,64,25088,1,25088,1,16,1,
IB2c_2,144,25088,1,25088,1,16,1,
IB2c_3,16,25088,1,25088,1,64,1,
CB3a_1,64,6272,1,6272,1,32,1,
CB3a_2,288,6272,1,6272,1,32,1,
CB3a_3,32,6272,1,6272,1,128,1,
CB3s,64,6272,1,6272,1,128,1,
IB3b_1,128,6272,1,6272,1,32,1,
IB3b_2,288,6272,1,6272,1,32,1,
IB3b_3,32,6272,1,6272,1,128,1,
IB3c_1,128,6272,1,6272,1,32,1,
IB3c_2,288,6272,1,6272,1,32,1,
IB3c_3,32,6272,1,6272,1,128,1,
IB3d_1,128,6272,1,6272,1,32,1,
IB3d_2,288,6272,1,6272,1,32,1,
IB3d_3,32,6272,1,6272,1,128,1,
CB4a_1,128,1568,1,1568,1,64,1,
CB4a_2,576,1568,1,1568,1,64,1,
CB4a_3,64,1568,1,1568,1,256,1,
CB4s,128,1568,1,1568,1,256,1,
IB4b_1,256,1568,1,1568,1,64,1,
IB4b_2,576,1568,1,1568,1,64,1,
IB4b_3,64,1568,1,1568,1,256,1,
IB4c_1,256,1568,1,1568,1,64,1,
IB4c_2,576,1568,1,1568,1,64,1,
IB4c_3,64,1568,1,1568,1,256,1,
IB4d_1,256,1568,1,1568,1,64,1,
IB4d_2,576,1568,1,1568,1,64,1,
IB4d_3,64,1568,1,1568,1,256,1,
IB4e_1,256,1568,1,1568,1,64,1,
IB4e_2,576,1568,1,1568,1,64,1,
IB4e_3,64,1568,1,1568,1,256,1,
IB4f_1,256,1568,1,1568,1,64,1,
IB4f_2,576,1568,1,1568,1,64,1,
IB4f_3,64,1568,1,1568,1,256,1,
CB5a_1,256,392,1,392,1,128,1,
CB5a_2,1152,392,1,392,1,128,1,
CB5a_3,128,392,1,392,1,512,1,
CB5s,256,392,1,392,1,512,1,
IB5b_1,512,392,1,392,1,128,1,
IB5b_2,1152,392,1,392,1,128,1,
IB5b_3,128,392,1,392,1,512,1,
IB5c_1,512,392,1,392,1,128,1,
IB5c_2,1152,392,1,392,1,128,1,
IB5c_3,128,392,1,392,1,512,1,
FC6,512,8,1,8,1,250,1,
