Layer name,ifmap height,ifmap width,filter height,filter width,channels,num filter,strides,
Conv1,25088,16,1,16,1,147,1,
CB2a_1,6272,16,1,16,1,64,1,
CB2a_2,6272,16,1,16,1,576,1,
CB2a_3,6272,64,1,64,1,64,1,
CB2s,6272,64,1,64,1,64,1,
IB2b_1,6272,16,1,16,1,256,1,
IB2b_2,6272,16,1,16,1,576,1,
IB2b_3,6272,64,1,64,1,64,1,
IB2c_1,6272,16,1,16,1,256,1,
IB2c_2,6272,16,1,16,1,576,1,
IB2c_3,6272,64,1,64,1,64,1,
CB3a_1,1568,32,1,32,1,256,1,
CB3a_2,1568,32,1,32,1,1152,1,
CB3a_3,1568,128,1,128,1,128,1,
CB3s,1568,128,1,128,1,256,1,
IB3b_1,1568,32,1,32,1,512,1,
IB3b_2,1568,32,1,32,1,1152,1,
IB3b_3,1568,128,1,128,1,128,1,
IB3c_1,1568,32,1,32,1,512,1,
IB3c_2,1568,32,1,32,1,1152,1,
IB3c_3,1568,128,1,128,1,128,1,
IB3d_1,1568,32,1,32,1,512,1,
IB3d_2,1568,32,1,32,1,1152,1,
IB3d_3,1568,128,1,128,1,128,1,
CB4a_1,392,64,1,64,1,512,1,
CB4a_2,392,64,1,64,1,2304,1,
CB4a_3,392,256,1,256,1,256,1,
CB4s,392,256,1,256,1,512,1,
IB4b_1,392,64,1,64,1,1024,1,
IB4b_2,392,64,1,64,1,2304,1,
IB4b_3,392,256,1,256,1,256,1,
IB4c_1,392,64,1,64,1,1024,1,
IB4c_2,392,64,1,64,1,2304,1,
IB4c_3,392,256,1,256,1,256,1,
IB4d_1,392,64,1,64,1,1024,1,
IB4d_2,392,64,1,64,1,2304,1,
IB4d_3,392,256,1,256,1,256,1,
IB4e_1,392,64,1,64,1,1024,1,
IB4e_2,392,64,1,64,1,2304,1,
IB4e_3,392,256,1,256,1,256,1,
IB4f_1,392,64,1,64,1,1024,1,
IB4f_2,392,64,1,64,1,2304,1,
IB4f_3,392,256,1,256,1,256,1,
CB5a_1,98,128,1,128,1,1024,1,
CB5a_2,98,128,1,128,1,4608,1,
CB5a_3,98,512,1,512,1,512,1,
CB5s,98,512,1,512,1,1024,1,
IB5b_1,98,128,1,128,1,2048,1,
IB5b_2,98,128,1,128,1,4608,1,
IB5b_3,98,512,1,512,1,512,1,
IB5c_1,98,128,1,128,1,2048,1,
IB5c_2,98,128,1,128,1,4608,1,
IB5c_3,98,512,1,512,1,512,1,
FC6,2,250,1,250,1,2048,1,
