 time (us) ,dim1 util,dim2 util,dim3 util,
10.000000,0.000000,0.000000,0.000000,
20.000000,0.000000,0.000000,0.000000,
30.000000,0.000000,0.000000,0.000000,
40.000000,0.000000,4.520000,0.000000,
50.000000,0.000000,100.000000,63.500000,
60.000000,0.000000,100.000000,100.000000,
70.000000,0.000000,100.000000,100.000000,
80.000000,0.000000,100.000000,100.000000,
90.000000,0.000000,100.000000,100.000000,
100.000000,0.000000,100.000000,100.000000,
110.000000,0.000000,100.000000,100.000000,
120.000000,0.000000,100.000000,100.000000,
130.000000,0.000000,100.000000,100.000000,
140.000000,0.000000,100.000000,100.000000,
150.000000,0.000000,100.000000,100.000000,
160.000000,0.000000,100.000000,100.000000,
170.000000,0.000000,100.000000,100.000000,
180.000000,0.000000,100.000000,100.000000,
190.000000,0.000000,43.200000,100.000000,
200.000000,0.000000,24.350000,100.000000,
210.000000,0.000000,41.030000,100.000000,
220.000000,0.000000,21.280000,100.000000,
230.000000,0.000000,19.750000,100.000000,
240.000000,0.000000,41.030000,100.000000,
250.000000,0.000000,25.880000,100.000000,
260.000000,0.000000,15.150000,100.000000,
270.000000,0.000000,41.030000,100.000000,
280.000000,0.000000,30.740000,100.000000,
290.000000,0.000000,0.000000,100.000000,
300.000000,0.000000,30.730000,100.000000,
310.000000,0.000000,30.730000,100.000000,
320.000000,0.000000,0.000000,100.000000,
330.000000,0.000000,52.870000,100.000000,
340.000000,0.000000,44.910000,100.000000,
350.000000,0.000000,7.960000,100.000000,
360.000000,0.000000,52.870000,100.000000,
370.000000,0.000000,36.730000,100.000000,
380.000000,0.000000,16.140000,100.000000,
390.000000,0.000000,41.030000,100.000000,
400.000000,0.000000,41.030000,100.000000,
410.000000,0.000000,0.000000,100.000000,
420.000000,0.000000,41.030000,100.000000,
430.000000,0.000000,41.030000,100.000000,
440.000000,0.000000,0.000000,100.000000,
450.000000,0.000000,41.020000,100.000000,
460.000000,0.000000,41.020000,49.470000,
470.000000,0.000000,33.820000,0.000000,
480.000000,0.000000,100.000000,92.790000,
490.000000,0.000000,100.000000,100.000000,
500.000000,0.000000,100.000000,100.000000,
510.000000,0.000000,100.000000,100.000000,
520.000000,0.000000,100.000000,100.000000,
530.000000,0.000000,100.000000,100.000000,
540.000000,0.000000,100.000000,100.000000,
550.000000,0.000000,100.000000,100.000000,
560.000000,0.000000,100.000000,100.000000,
570.000000,0.000000,100.000000,100.000000,
580.000000,0.000000,100.000000,100.000000,
590.000000,0.000000,100.000000,100.000000,
600.000000,0.000000,100.000000,100.000000,
610.000000,0.000000,97.230000,100.000000,
620.000000,0.000000,41.030000,100.000000,
630.000000,0.000000,0.000000,100.000000,
640.000000,0.000000,41.030000,100.000000,
650.000000,0.000000,41.030000,100.000000,
660.000000,0.000000,2.870000,100.000000,
670.000000,0.000000,38.160000,100.000000,
680.000000,0.000000,41.030000,100.000000,
690.000000,0.000000,7.470000,100.000000,
700.000000,0.000000,33.560000,100.000000,
710.000000,0.000000,30.730000,100.000000,
720.000000,0.000000,24.080000,100.000000,
730.000000,0.000000,6.650000,100.000000,
740.000000,0.000000,30.730000,100.000000,
750.000000,0.000000,28.300000,100.000000,
760.000000,0.000000,24.570000,100.000000,
770.000000,0.000000,52.870000,100.000000,
780.000000,0.000000,20.110000,100.000000,
790.000000,0.000000,32.760000,100.000000,
800.000000,0.000000,52.870000,100.000000,
810.000000,0.000000,18.320000,100.000000,
820.000000,0.000000,22.710000,100.000000,
830.000000,0.000000,41.030000,100.000000,
840.000000,0.000000,22.920000,100.000000,
850.000000,0.000000,18.100000,100.000000,
860.000000,0.000000,41.020000,100.000000,
870.000000,0.000000,27.520000,100.000000,
880.000000,0.000000,13.500000,100.000000,
,,,
