Layer,	Cycles,	% Utilization,
Conv1,	401704,	0.4487889190923618,
CB2a_1,	50305,	0.390625,
CB2a_2,	252037,	0.703283706856533,
CB2a_3,	50308,	1.5625,
CB2s,	50308,	1.5625,
IB2b_1,	100866,	0.78125,
IB2b_2,	252037,	0.703283706856533,
IB2b_3,	50308,	1.5625,
IB2c_1,	100866,	0.78125,
IB2c_2,	252037,	0.703283706856533,
IB2c_3,	50308,	1.5625,
CB3a_1,	25604,	1.5625,
CB3a_2,	115218,	1.5625,
CB3a_3,	12808,	6.25,
CB3s,	25616,	6.25,
IB3b_1,	51208,	1.5625,
IB3b_2,	115218,	1.5625,
IB3b_3,	12808,	6.25,
IB3c_1,	51208,	1.5625,
IB3c_2,	115218,	1.5625,
IB3c_3,	12808,	6.25,
IB3d_1,	51208,	1.5625,
IB3d_2,	115218,	1.5625,
IB3d_3,	12808,	6.25,
CB4a_1,	13584,	3.125,
CB4a_2,	61128,	3.125,
CB4a_3,	6816,	12.5,
CB4s,	13632,	12.5,
IB4b_1,	27168,	3.125,
IB4b_2,	61128,	3.125,
IB4b_3,	6816,	12.5,
IB4c_1,	27168,	3.125,
IB4c_2,	61128,	3.125,
IB4c_3,	6816,	12.5,
IB4d_1,	27168,	3.125,
IB4d_2,	61128,	3.125,
IB4d_3,	6816,	12.5,
IB4e_1,	27168,	3.125,
IB4e_2,	61128,	3.125,
IB4e_3,	6816,	12.5,
IB4f_1,	27168,	3.125,
IB4f_2,	61128,	3.125,
IB4f_3,	6816,	12.5,
CB5a_1,	8384,	6.25,
CB5a_2,	37728,	6.25,
CB5a_3,	4288,	25.0,
CB5s,	8576,	25.0,
IB5b_1,	16768,	6.25,
IB5b_2,	37728,	6.25,
IB5b_3,	4288,	25.0,
IB5c_1,	16768,	6.25,
IB5c_2,	37728,	6.25,
IB5c_3,	4288,	25.0,
FC6,	4608,	12.5,
