Layer,	Cycles,	% Utilization,
conv1,	200747,	1.318359375,
conv2,	200880,	28.125,
conv3,	50400,	56.25,
conv4,	100784,	56.29861882838546,
conv5,	38400,	75.125,
conv6,	64096,	90.0399400898652,
conv7,	64096,	90.0399400898652,
conv8,	31104,	100.0,
conv9,	62208,	100.0,
conv10,	62208,	100.0,
conv11,	19872,	100.0,
conv12,	19872,	100.0,
conv13,	19872,	100.0,
fc1,	304192,	100.0,
fc2,	49664,	100.0,
fc3,	12224,	97.65625,
