Layer,	Cycles,	% Utilization,
Conv1,	201002,	0.8979383406321827,
CB2a_1,	25218,	0.78125,
CB2a_2,	126602,	1.4068819015497387,
CB2a_3,	25224,	3.125,
CB2s,	25224,	3.125,
IB2b_1,	50692,	1.5625,
IB2b_2,	126602,	1.4068819015497387,
IB2b_3,	25224,	3.125,
IB2c_1,	50692,	1.5625,
IB2c_2,	126602,	1.4068819015497387,
IB2c_3,	25224,	3.125,
CB3a_1,	13064,	3.125,
CB3a_2,	58788,	3.125,
CB3a_3,	6544,	12.5,
CB3s,	13088,	12.5,
IB3b_1,	26128,	3.125,
IB3b_2,	58788,	3.125,
IB3b_3,	6544,	12.5,
IB3c_1,	26128,	3.125,
IB3c_2,	58788,	3.125,
IB3c_3,	6544,	12.5,
IB3d_1,	26128,	3.125,
IB3d_2,	58788,	3.125,
IB3d_3,	6544,	12.5,
CB4a_1,	7328,	6.25,
CB4a_2,	32976,	6.25,
CB4a_3,	3712,	25.0,
CB4s,	7424,	25.0,
IB4b_1,	14656,	6.25,
IB4b_2,	32976,	6.25,
IB4b_3,	3712,	25.0,
IB4c_1,	14656,	6.25,
IB4c_2,	32976,	6.25,
IB4c_3,	3712,	25.0,
IB4d_1,	14656,	6.25,
IB4d_2,	32976,	6.25,
IB4d_3,	3712,	25.0,
IB4e_1,	14656,	6.25,
IB4e_2,	32976,	6.25,
IB4e_3,	3712,	25.0,
IB4f_1,	14656,	6.25,
IB4f_2,	32976,	6.25,
IB4f_3,	3712,	25.0,
CB5a_1,	5312,	12.5,
CB5a_2,	23904,	12.5,
CB5a_3,	2848,	50.0,
CB5s,	5696,	50.0,
IB5b_1,	10624,	12.5,
IB5b_2,	23904,	12.5,
IB5b_3,	2848,	50.0,
IB5c_1,	10624,	12.5,
IB5c_2,	23904,	12.5,
IB5c_3,	2848,	50.0,
FC6,	4736,	25.0,
