Layer,	Cycles,	% Utilization,
Conv1,	100672,	57.421875,
CB2a_1,	25280,	25.0,
CB2a_2,	76096,	75.08410428931876,
CB2a_3,	50816,	50.0,
CB2s,	50816,	50.0,
IB2b_1,	25408,	100.0,
IB2b_2,	76096,	75.08410428931876,
IB2b_3,	50816,	50.0,
IB2c_1,	25408,	100.0,
IB2c_2,	76096,	75.08410428931876,
IB2c_3,	50816,	50.0,
CB3a_1,	13312,	100.0,
CB3a_2,	59904,	100.0,
CB3a_3,	26624,	100.0,
CB3s,	53248,	100.0,
IB3b_1,	26624,	100.0,
IB3b_2,	59904,	100.0,
IB3b_3,	26624,	100.0,
IB3c_1,	26624,	100.0,
IB3c_2,	59904,	100.0,
IB3c_3,	26624,	100.0,
IB3d_1,	26624,	100.0,
IB3d_2,	59904,	100.0,
IB3d_3,	26624,	100.0,
CB4a_1,	15616,	100.0,
CB4a_2,	70272,	100.0,
CB4a_3,	31232,	100.0,
CB4s,	62464,	100.0,
IB4b_1,	31232,	100.0,
IB4b_2,	70272,	100.0,
IB4b_3,	31232,	100.0,
IB4c_1,	31232,	100.0,
IB4c_2,	70272,	100.0,
IB4c_3,	31232,	100.0,
IB4d_1,	31232,	100.0,
IB4d_2,	70272,	100.0,
IB4d_3,	31232,	100.0,
IB4e_1,	31232,	100.0,
IB4e_2,	70272,	100.0,
IB4e_3,	31232,	100.0,
IB4f_1,	31232,	100.0,
IB4f_2,	70272,	100.0,
IB4f_3,	31232,	100.0,
RPN_Conv1,	562176,	100.0,
RPN_Conv_bbox,	3608,	56.811252771618626,
RPN_Conv3_cls,	1786,	56.25,
