Layer,	Cycles,	% Utilization,
Conv1,	3456,	57.421875,
CB2a_1,	976,	25.0,
CB2a_2,	3184,	77.01005025125627,
CB2a_3,	2208,	50.0,
CB2s,	2208,	50.0,
IB2b_1,	1104,	100.0,
IB2b_2,	3184,	77.01005025125627,
IB2b_3,	2208,	50.0,
IB2c_1,	1104,	100.0,
IB2c_2,	3184,	77.01005025125627,
IB2c_3,	2208,	50.0,
CB3a_1,	1160,	100.0,
CB3a_2,	5220,	100.0,
CB3a_3,	2320,	100.0,
CB3s,	4640,	100.0,
IB3b_1,	2320,	100.0,
IB3b_2,	5220,	100.0,
IB3b_3,	2320,	100.0,
IB3c_1,	2320,	100.0,
IB3c_2,	5220,	100.0,
IB3c_3,	2320,	100.0,
IB3d_1,	2320,	100.0,
IB3d_2,	5220,	100.0,
IB3d_3,	2320,	100.0,
CB4a_1,	3464,	100.0,
CB4a_2,	15588,	100.0,
CB4a_3,	6928,	100.0,
CB4s,	13856,	100.0,
IB4b_1,	6928,	100.0,
IB4b_2,	15588,	100.0,
IB4b_3,	6928,	100.0,
IB4c_1,	6928,	100.0,
IB4c_2,	15588,	100.0,
IB4c_3,	6928,	100.0,
IB4d_1,	6928,	100.0,
IB4d_2,	15588,	100.0,
IB4d_3,	6928,	100.0,
IB4e_1,	6928,	100.0,
IB4e_2,	15588,	100.0,
IB4e_3,	6928,	100.0,
IB4f_1,	6928,	100.0,
IB4f_2,	15588,	100.0,
IB4f_3,	6928,	100.0,
CB5a_1,	12704,	100.0,
CB5a_2,	57168,	100.0,
CB5a_3,	25408,	100.0,
CB5s,	50816,	100.0,
IB5b_1,	25408,	100.0,
IB5b_2,	57168,	100.0,
IB5b_3,	25408,	100.0,
IB5c_1,	25408,	100.0,
IB5c_2,	57168,	100.0,
IB5c_3,	25408,	100.0,
FC6,	48512,	97.91597955145119,
