Layer name,ifmap height,ifmap width,filter height,filter width,channels,num filter,strides,
conv1,401408,27,1,27,1,16,1,
conv2,401408,576,1,576,1,16,1,
conv3,100352,576,1,576,1,32,1,
conv4,100352,1152,1,1152,1,32,1,
conv5,25088,1152,1,1152,1,64,1,
conv6,25088,2304,1,2304,1,64,1,
conv7,25088,2304,1,2304,1,64,1,
conv8,6272,2304,1,2304,1,128,1,
conv9,6272,4608,1,4608,1,128,1,
conv10,6272,4608,1,4608,1,128,1,
conv11,1568,4608,1,4608,1,128,1,
conv12,1568,4608,1,4608,1,128,1,
conv13,1568,4608,1,4608,1,128,1,
fc1,8,25088,1,25088,1,1024,1,
fc2,8,4096,1,4096,1,1024,1,
fc3,8,4096,1,4096,1,250,1,
