Layer,	Cycles,	% Utilization,
Conv1,	34986,	50.0,
CB2a_1,	8272,	49.37137330754352,
CB2a_2,	11472,	49.26778242677825,
CB2a_3,	19744,	98.6223662884927,
CB2s,	19744,	98.6223662884927,
IB2b_1,	9472,	49.32432432432432,
IB2b_2,	11472,	49.26778242677825,
IB2b_3,	19744,	98.6223662884927,
IB2c_1,	9472,	49.32432432432432,
IB2c_2,	11472,	49.26778242677825,
IB2c_3,	19744,	98.6223662884927,
CB3a_1,	2912,	93.26923076923077,
CB3a_2,	4480,	91.25,
CB3a_3,	10752,	93.75,
CB3s,	11648,	93.26923076923077,
IB3b_1,	3360,	92.5,
IB3b_2,	4480,	91.25,
IB3b_3,	10752,	93.75,
IB3c_1,	3360,	92.5,
IB3c_2,	4480,	91.25,
IB3c_3,	10752,	93.75,
IB3d_1,	3360,	92.5,
IB3d_2,	4480,	91.25,
IB3d_3,	10752,	93.75,
CB4a_1,	1808,	79.67367256637168,
CB4a_2,	3600,	78.125,
CB4a_3,	6208,	80.1868556701031,
CB4s,	7232,	79.67367256637168,
IB4b_1,	2320,	78.98706896551724,
IB4b_2,	3600,	78.125,
IB4b_3,	6208,	80.1868556701031,
IB4c_1,	2320,	78.98706896551724,
IB4c_2,	3600,	78.125,
IB4c_3,	6208,	80.1868556701031,
IB4d_1,	2320,	78.98706896551724,
IB4d_2,	3600,	78.125,
IB4d_3,	6208,	80.1868556701031,
IB4e_1,	2320,	78.98706896551724,
IB4e_2,	3600,	78.125,
IB4e_3,	6208,	80.1868556701031,
IB4f_1,	2320,	78.98706896551724,
IB4f_2,	3600,	78.125,
IB4f_3,	6208,	80.1868556701031,
RPN_Conv1,	21024,	77.09760273972603,
RPN_Conv_bbox,	720,	22.6318359375,
RPN_Conv3_cls,	684,	11.344829358552632,
