,,queuing delay phase 0,queuing delay phase 1,queuing delay phase 2,queuing delay phase 3,network delay phase 1,network delay phase 2,network delay phase 3,avg chunk delay dimension 1,avg chunk delay dimension 2,avg chunk delay dimension 3,,,,,,,,,,,,,,,,,,,,,,,,,,,,,,,,,,,,,,
Conv1,gpt2_8B_megatron,0.000000,26.871250,48.967250,4.333375,1.003175,1.000196,1.003175,-nan,17.656991,30.609167,,,,,,,,,,,,,,,,,,,,,,,,,,,,,,,,,,,,,,
CB2a_1,gpt2_8B_megatron,0.000000,66.650625,105.808750,23.791250,1.001392,1.000088,1.001392,,,,,,,,,,,,,,,,,,,,,,,,,,,,,,,,,,,,,,,,,
CB2a_2,gpt2_8B_megatron,0.000000,176.960750,67.426375,62.290500,1.012450,1.000779,1.012450,,,,,,,,,,,,,,,,,,,,,,,,,,,,,,,,,,,,,,,,,
CB2a_3,gpt2_8B_megatron,0.000000,278.468125,161.647000,6.360125,1.005542,1.000342,1.005533,,,,,,,,,,,,,,,,,,,,,,,,,,,,,,,,,,,,,,,,,
CB2s,gpt2_8B_megatron,0.000000,365.360625,66.387500,124.328625,1.005533,1.000346,1.005542,,,,,,,,,,,,,,,,,,,,,,,,,,,,,,,,,,,,,,,,,
IB2b_1,gpt2_8B_megatron,0.000000,309.983250,203.255750,155.301500,1.005533,1.000346,1.005533,,,,,,,,,,,,,,,,,,,,,,,,,,,,,,,,,,,,,,,,,
IB2b_2,gpt2_8B_megatron,0.000000,745.815625,52.881125,8.555125,1.012450,1.000779,1.012458,,,,,,,,,,,,,,,,,,,,,,,,,,,,,,,,,,,,,,,,,
IB2b_3,gpt2_8B_megatron,0.000000,653.095500,280.701000,9.483750,1.005533,1.000342,1.005542,,,,,,,,,,,,,,,,,,,,,,,,,,,,,,,,,,,,,,,,,
IB2c_1,gpt2_8B_megatron,0.000000,487.154000,315.876750,241.332500,1.005533,1.000354,1.005533,,,,,,,,,,,,,,,,,,,,,,,,,,,,,,,,,,,,,,,,,
IB2c_2,gpt2_8B_megatron,0.000000,812.565875,63.666500,279.985875,1.012450,1.000775,1.012458,,,,,,,,,,,,,,,,,,,,,,,,,,,,,,,,,,,,,,,,,
IB2c_3,gpt2_8B_megatron,0.000000,1234.737875,49.491250,11.926750,1.005533,1.000346,1.005542,,,,,,,,,,,,,,,,,,,,,,,,,,,,,,,,,,,,,,,,,
CB3a_1,gpt2_8B_megatron,0.000000,679.478625,382.989000,343.310625,1.011067,1.000692,1.011067,,,,,,,,,,,,,,,,,,,,,,,,,,,,,,,,,,,,,,,,,
CB3a_2,gpt2_8B_megatron,0.000000,1478.705750,46.297250,5.629375,1.049817,1.003108,1.049808,,,,,,,,,,,,,,,,,,,,,,,,,,,,,,,,,,,,,,,,,
CB3a_3,gpt2_8B_megatron,0.000000,1209.468750,444.286625,5.745625,1.022142,1.001383,1.022142,,,,,,,,,,,,,,,,,,,,,,,,,,,,,,,,,,,,,,,,,
CB3s,gpt2_8B_megatron,0.000000,1291.181750,44.074625,437.087000,1.044275,1.002771,1.044283,,,,,,,,,,,,,,,,,,,,,,,,,,,,,,,,,,,,,,,,,
IB3b_1,gpt2_8B_megatron,0.000000,1395.476750,500.227875,12.499375,1.022142,1.001379,1.022142,,,,,,,,,,,,,,,,,,,,,,,,,,,,,,,,,,,,,,,,,
IB3b_2,gpt2_8B_megatron,0.000000,1978.121625,47.233500,4.942000,1.049817,1.003117,1.049808,,,,,,,,,,,,,,,,,,,,,,,,,,,,,,,,,,,,,,,,,
IB3b_3,gpt2_8B_megatron,0.000000,1583.702500,24.269875,531.330500,1.022142,1.001375,1.022142,,,,,,,,,,,,,,,,,,,,,,,,,,,,,,,,,,,,,,,,,
IB3c_1,gpt2_8B_megatron,0.000000,2252.442875,36.197000,7.661625,1.022142,1.001379,1.022142,,,,,,,,,,,,,,,,,,,,,,,,,,,,,,,,,,,,,,,,,
IB3c_2,gpt2_8B_megatron,0.000000,1764.671500,592.864000,44.951750,1.049817,1.003121,1.049817,,,,,,,,,,,,,,,,,,,,,,,,,,,,,,,,,,,,,,,,,
IB3c_3,gpt2_8B_megatron,0.000000,2495.056875,21.583125,18.091250,1.022150,1.001383,1.022133,,,,,,,,,,,,,,,,,,,,,,,,,,,,,,,,,,,,,,,,,
IB3d_1,gpt2_8B_megatron,0.000000,1968.447750,15.078750,661.104375,1.022142,1.001388,1.022150,,,,,,,,,,,,,,,,,,,,,,,,,,,,,,,,,,,,,,,,,
IB3d_2,gpt2_8B_megatron,0.000000,2066.317000,706.959375,13.020750,1.049808,1.003112,1.049817,,,,,,,,,,,,,,,,,,,,,,,,,,,,,,,,,,,,,,,,,
IB3d_3,gpt2_8B_megatron,0.000000,2855.316875,54.331250,9.390750,1.022142,1.001383,1.022133,,,,,,,,,,,,,,,,,,,,,,,,,,,,,,,,,,,,,,,,,
CB4a_1,gpt2_8B_megatron,0.000000,2236.546250,42.095500,749.518875,1.044283,1.002767,1.044283,,,,,,,,,,,,,,,,,,,,,,,,,,,,,,,,,,,,,,,,,
CB4a_2,gpt2_8B_megatron,0.000000,2349.553875,20.330500,793.459500,1.199267,1.012454,1.199267,,,,,,,,,,,,,,,,,,,,,,,,,,,,,,,,,,,,,,,,,
CB4a_3,gpt2_8B_megatron,0.000000,2448.835875,715.442250,136.152750,1.088558,1.005533,1.088550,,,,,,,,,,,,,,,,,,,,,,,,,,,,,,,,,,,,,,,,,
CB4s,gpt2_8B_megatron,0.000000,2548.716500,12.489500,865.830625,1.177125,1.011067,1.177133,,,,,,,,,,,,,,,,,,,,,,,,,,,,,,,,,,,,,,,,,
IB4b_1,gpt2_8B_megatron,0.000000,2663.664750,817.084500,94.295500,1.088567,1.005533,1.088567,,,,,,,,,,,,,,,,,,,,,,,,,,,,,,,,,,,,,,,,,
IB4b_2,gpt2_8B_megatron,0.000000,2752.481000,16.211000,931.674250,1.199267,1.012454,1.199250,,,,,,,,,,,,,,,,,,,,,,,,,,,,,,,,,,,,,,,,,
IB4b_3,gpt2_8B_megatron,0.000000,3829.834000,38.351500,5.370500,1.088567,1.005533,1.088550,,,,,,,,,,,,,,,,,,,,,,,,,,,,,,,,,,,,,,,,,
IB4c_1,gpt2_8B_megatron,0.000000,2952.627750,875.031000,158.795750,1.088567,1.005542,1.088567,,,,,,,,,,,,,,,,,,,,,,,,,,,,,,,,,,,,,,,,,
IB4c_2,gpt2_8B_megatron,0.000000,3070.298750,22.954000,1031.305250,1.199267,1.012450,1.199267,,,,,,,,,,,,,,,,,,,,,,,,,,,,,,,,,,,,,,,,,
IB4c_3,gpt2_8B_megatron,0.000000,3169.913125,20.647250,1070.088000,1.088558,1.005533,1.088583,,,,,,,,,,,,,,,,,,,,,,,,,,,,,,,,,,,,,,,,,
IB4d_1,gpt2_8B_megatron,0.000000,4361.972250,21.350750,14.542250,1.088533,1.005533,1.088567,,,,,,,,,,,,,,,,,,,,,,,,,,,,,,,,,,,,,,,,,
IB4d_2,gpt2_8B_megatron,0.000000,3388.116375,912.532625,235.733750,1.199267,1.012458,1.199267,,,,,,,,,,,,,,,,,,,,,,,,,,,,,,,,,,,,,,,,,
IB4d_3,gpt2_8B_megatron,0.000000,3488.145750,4.575375,1171.508250,1.088558,1.005542,1.088567,,,,,,,,,,,,,,,,,,,,,,,,,,,,,,,,,,,,,,,,,
IB4e_1,gpt2_8B_megatron,0.000000,3588.263250,919.723500,289.337000,1.088550,1.005542,1.088567,,,,,,,,,,,,,,,,,,,,,,,,,,,,,,,,,,,,,,,,,
IB4e_2,gpt2_8B_megatron,0.000000,3685.323750,4.785375,1241.611000,1.199267,1.012446,1.199267,,,,,,,,,,,,,,,,,,,,,,,,,,,,,,,,,,,,,,,,,
IB4e_3,gpt2_8B_megatron,0.000000,3789.890500,981.871000,296.049250,1.088550,1.005533,1.088550,,,,,,,,,,,,,,,,,,,,,,,,,,,,,,,,,,,,,,,,,
IB4f_1,gpt2_8B_megatron,0.000000,5185.622250,10.490750,17.157875,1.088583,1.005533,1.088550,,,,,,,,,,,,,,,,,,,,,,,,,,,,,,,,,,,,,,,,,
IB4f_2,gpt2_8B_megatron,0.000000,3999.019250,5.773750,1342.873625,1.199267,1.012463,1.199267,,,,,,,,,,,,,,,,,,,,,,,,,,,,,,,,,,,,,,,,,
IB4f_3,gpt2_8B_megatron,0.000000,4103.586000,998.149750,382.354000,1.088567,1.005533,1.088567,,,,,,,,,,,,,,,,,,,,,,,,,,,,,,,,,,,,,,,,,
CB5a_1,gpt2_8B_megatron,0.000000,4201.484250,6.845250,1410.122750,1.177133,1.011067,1.177117,,,,,,,,,,,,,,,,,,,,,,,,,,,,,,,,,,,,,,,,,
CB5a_2,gpt2_8B_megatron,0.000000,2903.893000,1072.951500,1833.285750,1.916000,1.049825,1.916000,,,,,,,,,,,,,,,,,,,,,,,,,,,,,,,,,,,,,,,,,
CB5a_3,gpt2_8B_megatron,0.000000,4498.115250,14.723750,1499.194250,1.354233,1.022142,1.354250,,,,,,,,,,,,,,,,,,,,,,,,,,,,,,,,,,,,,,,,,
CB5s,gpt2_8B_megatron,0.000000,3106.853000,8.114500,3087.188500,1.725000,1.044283,1.725000,,,,,,,,,,,,,,,,,,,,,,,,,,,,,,,,,,,,,,,,,
IB5b_1,gpt2_8B_megatron,0.000000,4788.323750,9.296750,1597.638500,1.354267,1.022142,1.354233,,,,,,,,,,,,,,,,,,,,,,,,,,,,,,,,,,,,,,,,,
IB5b_2,gpt2_8B_megatron,0.000000,1660.977750,1144.376125,3762.826375,1.916000,1.049825,1.916000,,,,,,,,,,,,,,,,,,,,,,,,,,,,,,,,,,,,,,,,,
IB5b_3,gpt2_8B_megatron,0.000000,5064.400250,12.444500,1693.238250,1.354267,1.022142,1.354250,,,,,,,,,,,,,,,,,,,,,,,,,,,,,,,,,,,,,,,,,
IB5c_1,gpt2_8B_megatron,0.000000,5195.403125,9.819625,1736.810625,1.354242,1.022146,1.354250,,,,,,,,,,,,,,,,,,,,,,,,,,,,,,,,,,,,,,,,,
IB5c_2,gpt2_8B_megatron,0.000000,3574.698250,1226.114000,2343.043375,1.916000,1.049813,1.916000,,,,,,,,,,,,,,,,,,,,,,,,,,,,,,,,,,,,,,,,,
IB5c_3,gpt2_8B_megatron,0.000000,5500.379750,13.693375,1831.684500,1.354242,1.022142,1.354250,,,,,,,,,,,,,,,,,,,,,,,,,,,,,,,,,,,,,,,,,
FC6,gpt2_8B_megatron,0.000000,1894.185500,4.551625,5608.091125,1.691883,1.043242,1.691900,,,,,,,,,,,,,,,,,,,,,,,,,,,,,,,,,,,,,,,,,
,,,,,,,,,,,,,,,,,,,,,,,,,,,,,,,,,,,,,,,,,,,,,,,,,
,,,,,,,,,,,,,,,,,,,,,,,,,,,,,,,,,,,,,,,,,,,,,,,,,
,,,,,,,,,,,,,,,,,,,,,,,,,,,,,,,,,,,,,,,,,,,,,,,,,
,,,,,,,,,,,,,,,,,,,,,,,,,,,,,,,,,,,,,,,,,,,,,,,,,
,,,,,,,,,,,,,,,,,,,,,,,,,,,,,,,,,,,,,,,,,,,,,,,,,
,,,,,,,,,,,,,,,,,,,,,,,,,,,,,,,,,,,,,,,,,,,,,,,,,
,,,,,,,,,,,,,,,,,,,,,,,,,,,,,,,,,,,,,,,,,,,,,,,,,
,,,,,,,,,,,,,,,,,,,,,,,,,,,,,,,,,,,,,,,,,,,,,,,,,
,,,,,,,,,,,,,,,,,,,,,,,,,,,,,,,,,,,,,,,,,,,,,,,,,
,,,,,,,,,,,,,,,,,,,,,,,,,,,,,,,,,,,,,,,,,,,,,,,,,
,,,,,,,,,,,,,,,,,,,,,,,,,,,,,,,,,,,,,,,,,,,,,,,,,
,,,,,,,,,,,,,,,,,,,,,,,,,,,,,,,,,,,,,,,,,,,,,,,,,
,,,,,,,,,,,,,,,,,,,,,,,,,,,,,,,,,,,,,,,,,,,,,,,,,
,,,,,,,,,,,,,,,,,,,,,,,,,,,,,,,,,,,,,,,,,,,,,,,,,
,,,,,,,,,,,,,,,,,,,,,,,,,,,,,,,,,,,,,,,,,,,,,,,,,
,,,,,,,,,,,,,,,,,,,,,,,,,,,,,,,,,,,,,,,,,,,,,,,,,
,,,,,,,,,,,,,,,,,,,,,,,,,,,,,,,,,,,,,,,,,,,,,,,,,
,,,,,,,,,,,,,,,,,,,,,,,,,,,,,,,,,,,,,,,,,,,,,,,,,
,,,,,,,,,,,,,,,,,,,,,,,,,,,,,,,,,,,,,,,,,,,,,,,,,
