Layer,	Cycles,	% Utilization,
Conv1,	139944,	50.0,
CB2a_1,	32928,	50.0,
CB2a_2,	45472,	50.0,
CB2a_3,	78400,	100.0,
CB2s,	78400,	100.0,
IB2b_1,	37632,	50.0,
IB2b_2,	45472,	50.0,
IB2b_3,	78400,	100.0,
IB2c_1,	37632,	50.0,
IB2c_2,	45472,	50.0,
IB2c_3,	78400,	100.0,
CB3a_1,	11072,	98.55491329479769,
CB3a_2,	16672,	98.36852207293666,
CB3a_3,	41088,	98.5981308411215,
CB3s,	44288,	98.55491329479769,
IB3b_1,	12672,	98.48484848484848,
IB3b_2,	16672,	98.36852207293666,
IB3b_3,	41088,	98.5981308411215,
IB3c_1,	12672,	98.48484848484848,
IB3c_2,	16672,	98.36852207293666,
IB3c_3,	41088,	98.5981308411215,
IB3d_1,	12672,	98.48484848484848,
IB3d_2,	16672,	98.36852207293666,
IB3d_3,	41088,	98.5981308411215,
CB4a_1,	6720,	92.5,
CB4a_2,	12992,	90.08620689655173,
CB4a_3,	23296,	93.26923076923077,
CB4s,	26880,	92.5,
IB4b_1,	8512,	91.44736842105263,
IB4b_2,	12992,	90.08620689655173,
IB4b_3,	23296,	93.26923076923077,
IB4c_1,	8512,	91.44736842105263,
IB4c_2,	12992,	90.08620689655173,
IB4c_3,	23296,	93.26923076923077,
IB4d_1,	8512,	91.44736842105263,
IB4d_2,	12992,	90.08620689655173,
IB4d_3,	23296,	93.26923076923077,
IB4e_1,	8512,	91.44736842105263,
IB4e_2,	12992,	90.08620689655173,
IB4e_3,	23296,	93.26923076923077,
IB4f_1,	8512,	91.44736842105263,
IB4f_2,	12992,	90.08620689655173,
IB4f_3,	23296,	93.26923076923077,
CB5a_1,	4640,	78.98706896551724,
CB5a_2,	11808,	77.51524390243902,
CB5a_3,	14464,	79.67367256637168,
CB5s,	18560,	78.98706896551724,
IB5b_1,	6688,	78.24461722488039,
IB5b_2,	11808,	77.51524390243902,
IB5b_3,	14464,	79.67367256637168,
IB5c_1,	6688,	78.24461722488039,
IB5c_2,	11808,	77.51524390243902,
IB5c_3,	14464,	79.67367256637168,
FC6,	676,	24.4140625,
