Layer,	Cycles,	% Utilization,
LSTM_1,	321,	0.1953125,
LSTM_2,	321,	0.1953125,
LSTM_3,	321,	0.1953125,
LSTM_4,	321,	0.1953125,
LSTM_5,	321,	0.1953125,
LSTM_6,	321,	0.1953125,
LSTM_7,	321,	0.1953125,
LSTM_8,	321,	0.1953125,
