Layer name,ifmap height,ifmap width,filter height,filter width,channels,num filter,strides,
LSTM_1,8,1,1,1,1,1024,1,
LSTM_2,8,1,1,1,1,1024,1,
LSTM_3,8,1,1,1,1,1024,1,
LSTM_4,8,1,1,1,1,1024,1,
LSTM_5,8,1,1,1,1,1024,1,
LSTM_6,8,1,1,1,1,1024,1,
LSTM_7,8,1,1,1,1,1024,1,
LSTM_8,8,1,1,1,1,1024,1,
