Layer,	Cycles,	% Utilization,
conv1,	802872,	0.32958984375,
conv2,	4015242,	1.4062699240792957,
conv3,	1004692,	2.812659252785928,
conv4,	1808676,	3.125,
conv5,	453960,	6.25,
conv6,	907920,	6.25,
conv7,	907920,	6.25,
conv8,	230688,	12.5,
conv9,	461376,	12.5,
conv10,	461376,	12.5,
conv11,	122688,	12.5,
conv12,	122688,	12.5,
conv13,	122688,	12.5,
fc1,	78400,	100.0,
fc2,	12800,	100.0,
fc3,	9728,	25.0,
