 time (us) ,dim1 util,dim2 util,dim3 util,
10.000000,0.000000,0.000000,0.000000,
20.000000,0.000000,30.200000,0.000000,
30.000000,0.000000,100.000000,59.210000,
40.000000,0.000000,100.000000,100.000000,
50.000000,0.000000,100.000000,100.000000,
60.000000,0.000000,100.000000,100.000000,
70.000000,0.000000,100.000000,100.000000,
80.000000,0.000000,100.000000,100.000000,
90.000000,0.000000,100.000000,100.000000,
100.000000,0.000000,100.000000,100.000000,
110.000000,0.000000,100.000000,100.000000,
120.000000,0.000000,100.000000,100.000000,
130.000000,0.000000,100.000000,100.000000,
140.000000,0.000000,100.000000,100.000000,
150.000000,0.000000,100.000000,100.000000,
160.000000,0.000000,100.000000,100.000000,
170.000000,0.000000,100.000000,100.000000,
180.000000,0.000000,100.000000,100.000000,
190.000000,0.000000,100.000000,100.000000,
200.000000,0.000000,100.000000,100.000000,
210.000000,0.000000,100.000000,100.000000,
220.000000,0.000000,100.000000,100.000000,
230.000000,0.000000,100.000000,100.000000,
240.000000,0.000000,100.000000,100.000000,
250.000000,0.000000,100.000000,100.000000,
260.000000,0.000000,100.000000,100.000000,
270.000000,0.000000,100.000000,100.000000,
280.000000,0.000000,100.000000,100.000000,
290.000000,0.000000,100.000000,100.000000,
300.000000,0.000000,100.000000,100.000000,
310.000000,0.000000,80.540000,100.000000,
320.000000,0.000000,0.000000,100.000000,
330.000000,0.000000,27.690000,100.000000,
340.000000,0.000000,43.300000,100.000000,
350.000000,0.000000,0.000000,100.000000,
360.000000,0.000000,24.540000,100.000000,
370.000000,0.000000,46.450000,100.000000,
380.000000,0.000000,0.000000,100.000000,
390.000000,0.000000,21.390000,100.000000,
400.000000,0.000000,49.610000,100.000000,
410.000000,0.000000,0.000000,100.000000,
420.000000,0.000000,18.240000,100.000000,
430.000000,0.000000,52.760000,100.000000,
440.000000,0.000000,0.000000,100.000000,
450.000000,0.000000,15.080000,100.000000,
460.000000,0.000000,55.910000,100.000000,
470.000000,0.000000,0.000000,100.000000,
480.000000,0.000000,11.930000,100.000000,
490.000000,0.000000,59.060000,100.000000,
500.000000,0.000000,0.000000,100.000000,
510.000000,0.000000,8.780000,100.000000,
520.000000,0.000000,62.210000,100.000000,
530.000000,0.000000,0.000000,100.000000,
540.000000,0.000000,5.630000,100.000000,
550.000000,0.000000,65.360000,100.000000,
560.000000,0.000000,0.000000,100.000000,
570.000000,0.000000,2.480000,100.000000,
580.000000,0.000000,68.520000,100.000000,
590.000000,0.000000,0.000000,100.000000,
600.000000,0.000000,0.000000,100.000000,
610.000000,0.000000,71.000000,100.000000,
620.000000,0.000000,0.000000,100.000000,
630.000000,0.000000,0.000000,100.000000,
640.000000,0.000000,70.990000,100.000000,
650.000000,0.000000,0.000000,100.000000,
660.000000,0.000000,0.000000,100.000000,
670.000000,0.000000,70.990000,100.000000,
680.000000,0.000000,0.000000,100.000000,
690.000000,0.000000,0.000000,100.000000,
700.000000,0.000000,70.990000,100.000000,
710.000000,0.000000,0.000000,100.000000,
720.000000,0.000000,0.000000,100.000000,
730.000000,0.000000,71.000000,100.000000,
740.000000,0.000000,0.000000,100.000000,
750.000000,0.000000,0.000000,100.000000,
760.000000,0.000000,71.000000,100.000000,
770.000000,0.000000,0.000000,100.000000,
780.000000,0.000000,0.000000,100.000000,
790.000000,0.000000,70.990000,100.000000,
800.000000,0.000000,0.000000,100.000000,
810.000000,0.000000,0.000000,100.000000,
820.000000,0.000000,70.990000,100.000000,
830.000000,0.000000,0.000000,100.000000,
840.000000,0.000000,0.000000,100.000000,
850.000000,0.000000,70.990000,100.000000,
860.000000,0.000000,0.000000,100.000000,
870.000000,0.000000,0.000000,100.000000,
880.000000,0.000000,70.960000,100.000000,
890.000000,0.000000,0.040000,100.000000,
900.000000,0.000000,0.000000,100.000000,
910.000000,0.000000,67.810000,100.000000,
920.000000,0.000000,3.190000,100.000000,
930.000000,0.000000,0.000000,100.000000,
940.000000,0.000000,64.650000,100.000000,
950.000000,0.000000,6.340000,100.000000,
960.000000,0.000000,0.000000,100.000000,
970.000000,0.000000,61.500000,100.000000,
980.000000,0.000000,9.490000,100.000000,
990.000000,0.000000,0.000000,100.000000,
1000.000000,0.000000,58.350000,41.650000,
1010.000000,0.000000,76.270000,0.000000,
1020.000000,0.000000,100.000000,92.630000,
1030.000000,0.000000,100.000000,100.000000,
1040.000000,0.000000,100.000000,100.000000,
1050.000000,0.000000,100.000000,100.000000,
1060.000000,0.000000,100.000000,100.000000,
1070.000000,0.000000,100.000000,100.000000,
1080.000000,0.000000,100.000000,100.000000,
1090.000000,0.000000,100.000000,100.000000,
1100.000000,0.000000,100.000000,100.000000,
1110.000000,0.000000,100.000000,100.000000,
1120.000000,0.000000,100.000000,100.000000,
1130.000000,0.000000,100.000000,100.000000,
1140.000000,0.000000,100.000000,100.000000,
1150.000000,0.000000,100.000000,100.000000,
1160.000000,0.000000,100.000000,100.000000,
1170.000000,0.000000,100.000000,100.000000,
1180.000000,0.000000,100.000000,100.000000,
1190.000000,0.000000,100.000000,100.000000,
1200.000000,0.000000,100.000000,100.000000,
1210.000000,0.000000,100.000000,100.000000,
1220.000000,0.000000,100.000000,100.000000,
1230.000000,0.000000,100.000000,100.000000,
1240.000000,0.000000,100.000000,100.000000,
1250.000000,0.000000,100.000000,100.000000,
1260.000000,0.000000,100.000000,100.000000,
1270.000000,0.000000,100.000000,100.000000,
1280.000000,0.000000,100.000000,100.000000,
1290.000000,0.000000,100.000000,100.000000,
1300.000000,0.000000,47.120000,100.000000,
1310.000000,0.000000,0.000000,100.000000,
1320.000000,0.000000,61.110000,100.000000,
1330.000000,0.000000,9.880000,100.000000,
1340.000000,0.000000,0.000000,100.000000,
1350.000000,0.000000,57.960000,100.000000,
1360.000000,0.000000,13.030000,100.000000,
1370.000000,0.000000,0.000000,100.000000,
1380.000000,0.000000,54.810000,100.000000,
1390.000000,0.000000,16.180000,100.000000,
1400.000000,0.000000,0.000000,100.000000,
1410.000000,0.000000,51.660000,100.000000,
1420.000000,0.000000,19.340000,100.000000,
1430.000000,0.000000,0.000000,100.000000,
1440.000000,0.000000,48.510000,100.000000,
1450.000000,0.000000,22.490000,100.000000,
1460.000000,0.000000,0.000000,100.000000,
1470.000000,0.000000,45.350000,100.000000,
1480.000000,0.000000,25.640000,100.000000,
1490.000000,0.000000,0.000000,100.000000,
1500.000000,0.000000,42.200000,100.000000,
1510.000000,0.000000,28.790000,100.000000,
1520.000000,0.000000,0.000000,100.000000,
1530.000000,0.000000,39.050000,100.000000,
1540.000000,0.000000,31.940000,100.000000,
1550.000000,0.000000,0.000000,100.000000,
1560.000000,0.000000,35.900000,100.000000,
1570.000000,0.000000,35.090000,100.000000,
1580.000000,0.000000,0.000000,100.000000,
1590.000000,0.000000,32.750000,100.000000,
1600.000000,0.000000,38.250000,100.000000,
1610.000000,0.000000,0.000000,100.000000,
1620.000000,0.000000,29.600000,100.000000,
1630.000000,0.000000,41.400000,100.000000,
1640.000000,0.000000,0.000000,100.000000,
1650.000000,0.000000,26.440000,100.000000,
1660.000000,0.000000,44.550000,100.000000,
1670.000000,0.000000,0.000000,100.000000,
1680.000000,0.000000,23.290000,100.000000,
1690.000000,0.000000,47.700000,100.000000,
1700.000000,0.000000,0.000000,100.000000,
1710.000000,0.000000,20.140000,100.000000,
1720.000000,0.000000,50.850000,100.000000,
1730.000000,0.000000,0.000000,100.000000,
1740.000000,0.000000,16.990000,100.000000,
1750.000000,0.000000,54.010000,100.000000,
1760.000000,0.000000,0.000000,100.000000,
1770.000000,0.000000,13.840000,100.000000,
1780.000000,0.000000,57.160000,100.000000,
1790.000000,0.000000,0.000000,100.000000,
1800.000000,0.000000,10.680000,100.000000,
1810.000000,0.000000,60.310000,100.000000,
1820.000000,0.000000,0.000000,100.000000,
1830.000000,0.000000,7.530000,100.000000,
1840.000000,0.000000,63.460000,100.000000,
1850.000000,0.000000,0.000000,100.000000,
1860.000000,0.000000,4.380000,100.000000,
1870.000000,0.000000,66.610000,100.000000,
1880.000000,0.000000,0.000000,100.000000,
1890.000000,0.000000,1.230000,100.000000,
1900.000000,0.000000,69.770000,100.000000,
1910.000000,0.000000,0.000000,100.000000,
1920.000000,0.000000,0.000000,100.000000,
1930.000000,0.000000,71.000000,100.000000,
1940.000000,0.000000,0.000000,100.000000,
1950.000000,0.000000,0.000000,100.000000,
1960.000000,0.000000,70.990000,100.000000,
1970.000000,0.000000,0.000000,100.000000,
1980.000000,0.000000,0.000000,100.000000,
,,,
