 time (us) ,dim1 util,dim2 util,dim3 util,
10.000000,0.000000,0.000000,0.000000,
20.000000,0.000000,0.000000,0.000000,
30.000000,0.000000,0.000000,0.000000,
40.000000,0.000000,0.000000,0.000000,
50.000000,0.000000,0.000000,0.000000,
60.000000,0.000000,0.000000,0.000000,
70.000000,0.000000,0.000000,0.000000,
80.000000,0.000000,0.000000,0.000000,
90.000000,0.000000,0.000000,0.000000,
100.000000,0.000000,0.000000,0.000000,
110.000000,0.000000,0.000000,0.000000,
120.000000,0.000000,0.000000,0.000000,
130.000000,0.000000,0.000000,0.000000,
140.000000,0.000000,0.000000,0.000000,
150.000000,0.000000,0.000000,0.000000,
160.000000,0.000000,0.000000,0.000000,
170.000000,0.000000,0.000000,0.000000,
180.000000,0.000000,0.000000,0.000000,
190.000000,0.000000,0.000000,0.000000,
200.000000,0.000000,0.000000,0.000000,
210.000000,0.000000,0.000000,0.000000,
220.000000,0.000000,0.000000,0.000000,
230.000000,0.000000,0.000000,0.000000,
240.000000,0.000000,0.000000,0.000000,
250.000000,0.000000,0.000000,0.000000,
260.000000,0.000000,0.000000,0.000000,
270.000000,0.000000,0.000000,0.000000,
280.000000,0.000000,0.000000,0.000000,
290.000000,0.000000,0.000000,0.000000,
300.000000,0.000000,0.000000,0.000000,
310.000000,0.000000,0.000000,0.000000,
320.000000,0.000000,0.000000,0.000000,
330.000000,0.000000,0.000000,0.000000,
340.000000,0.000000,0.000000,0.000000,
350.000000,0.000000,0.000000,0.000000,
360.000000,0.000000,0.000000,0.000000,
370.000000,0.000000,0.000000,0.000000,
380.000000,0.000000,0.000000,0.000000,
390.000000,0.000000,0.000000,0.000000,
400.000000,0.000000,0.000000,0.000000,
410.000000,0.000000,0.000000,0.000000,
420.000000,0.000000,0.000000,0.000000,
430.000000,0.000000,0.000000,0.000000,
440.000000,0.000000,0.000000,0.000000,
450.000000,0.000000,0.000000,0.000000,
460.000000,0.000000,0.000000,0.000000,
470.000000,0.000000,0.000000,0.000000,
480.000000,0.000000,0.000000,0.000000,
490.000000,0.000000,0.000000,0.000000,
500.000000,0.000000,0.000000,0.000000,
510.000000,0.000000,0.000000,0.000000,
520.000000,0.000000,0.000000,0.000000,
530.000000,0.000000,0.000000,0.000000,
540.000000,0.000000,0.000000,0.000000,
550.000000,0.000000,0.000000,0.000000,
560.000000,0.000000,0.000000,0.000000,
570.000000,0.000000,0.000000,0.000000,
580.000000,0.000000,0.000000,0.000000,
590.000000,0.000000,0.000000,0.000000,
600.000000,0.000000,0.000000,0.000000,
610.000000,0.000000,0.000000,0.000000,
620.000000,0.000000,0.000000,0.000000,
630.000000,0.000000,0.000000,0.000000,
640.000000,0.000000,0.000000,0.000000,
650.000000,0.000000,0.000000,0.000000,
660.000000,0.000000,0.000000,0.000000,
670.000000,0.000000,0.000000,0.000000,
680.000000,0.000000,0.000000,0.000000,
690.000000,0.000000,0.000000,0.000000,
700.000000,0.000000,0.000000,0.000000,
710.000000,0.000000,0.000000,0.000000,
720.000000,0.000000,0.000000,0.000000,
730.000000,0.000000,0.000000,0.000000,
740.000000,0.000000,0.000000,0.000000,
750.000000,0.000000,0.000000,0.000000,
760.000000,0.000000,0.000000,0.000000,
770.000000,0.000000,0.000000,0.000000,
780.000000,0.000000,0.000000,0.000000,
790.000000,0.000000,0.000000,0.000000,
800.000000,0.000000,0.000000,0.000000,
810.000000,0.000000,0.000000,0.000000,
820.000000,0.000000,0.000000,0.000000,
830.000000,0.000000,0.000000,0.000000,
840.000000,0.000000,0.000000,0.000000,
850.000000,0.000000,0.000000,0.000000,
860.000000,0.000000,0.000000,0.000000,
870.000000,0.000000,0.000000,0.000000,
880.000000,0.000000,0.000000,0.000000,
890.000000,0.000000,5.440000,0.000000,
900.000000,0.000000,100.000000,0.000000,
910.000000,0.000000,100.000000,0.000000,
920.000000,0.000000,100.000000,82.040000,
930.000000,0.000000,100.000000,83.670000,
940.000000,0.000000,100.000000,58.640000,
950.000000,0.000000,100.000000,100.000000,
960.000000,0.000000,100.000000,42.310000,
970.000000,0.000000,100.000000,100.000000,
980.000000,0.000000,100.000000,100.000000,
990.000000,0.000000,100.000000,100.000000,
1000.000000,0.000000,100.000000,100.000000,
1010.000000,0.000000,100.000000,100.000000,
1020.000000,0.000000,100.000000,100.000000,
1030.000000,0.000000,100.000000,100.000000,
1040.000000,0.000000,100.000000,61.560000,
1050.000000,0.000000,100.000000,60.370000,
1060.000000,0.000000,100.000000,100.000000,
1070.000000,0.000000,100.000000,14.280000,
1080.000000,0.000000,100.000000,100.000000,
1090.000000,0.000000,100.000000,100.000000,
1100.000000,0.000000,100.000000,100.000000,
1110.000000,0.000000,100.000000,100.000000,
1120.000000,0.000000,100.000000,100.000000,
1130.000000,0.000000,100.000000,100.000000,
1140.000000,0.000000,100.000000,100.000000,
1150.000000,0.000000,100.000000,100.000000,
1160.000000,0.000000,100.000000,100.000000,
1170.000000,0.000000,100.000000,100.000000,
1180.000000,0.000000,100.000000,100.000000,
1190.000000,0.000000,100.000000,100.000000,
1200.000000,0.000000,100.000000,100.000000,
1210.000000,0.000000,100.000000,100.000000,
1220.000000,0.000000,100.000000,100.000000,
1230.000000,0.000000,100.000000,80.220000,
1240.000000,0.000000,100.000000,89.080000,
1250.000000,0.000000,100.000000,100.000000,
1260.000000,0.000000,100.000000,100.000000,
1270.000000,0.000000,100.000000,100.000000,
1280.000000,0.000000,100.000000,100.000000,
1290.000000,0.000000,100.000000,100.000000,
1300.000000,0.000000,100.000000,100.000000,
1310.000000,0.000000,100.000000,100.000000,
1320.000000,0.000000,100.000000,76.000000,
1330.000000,0.000000,100.000000,98.600000,
1340.000000,0.000000,100.000000,39.320000,
1350.000000,0.000000,100.000000,100.000000,
1360.000000,0.000000,100.000000,100.000000,
1370.000000,0.000000,100.000000,100.000000,
1380.000000,0.000000,100.000000,100.000000,
1390.000000,0.000000,100.000000,100.000000,
1400.000000,0.000000,100.000000,100.000000,
1410.000000,0.000000,100.000000,100.000000,
1420.000000,0.000000,100.000000,58.070000,
1430.000000,0.000000,100.000000,64.450000,
1440.000000,0.000000,100.000000,100.000000,
1450.000000,0.000000,100.000000,14.280000,
1460.000000,0.000000,100.000000,100.000000,
1470.000000,0.000000,100.000000,100.000000,
1480.000000,0.000000,100.000000,100.000000,
1490.000000,0.000000,100.000000,100.000000,
1500.000000,0.000000,100.000000,100.000000,
1510.000000,0.000000,100.000000,100.000000,
1520.000000,0.000000,100.000000,100.000000,
1530.000000,0.000000,100.000000,100.000000,
1540.000000,0.000000,100.000000,100.000000,
1550.000000,0.000000,100.000000,100.000000,
1560.000000,0.000000,100.000000,100.000000,
1570.000000,0.000000,100.000000,100.000000,
1580.000000,0.000000,100.000000,100.000000,
1590.000000,0.000000,100.000000,100.000000,
1600.000000,0.000000,100.000000,100.000000,
1610.000000,0.000000,100.000000,100.000000,
1620.000000,0.000000,100.000000,100.000000,
1630.000000,0.000000,100.000000,100.000000,
1640.000000,0.000000,100.000000,100.000000,
1650.000000,0.000000,100.000000,100.000000,
1660.000000,0.000000,100.000000,100.000000,
1670.000000,0.000000,100.000000,100.000000,
1680.000000,0.000000,100.000000,100.000000,
1690.000000,0.000000,100.000000,100.000000,
1700.000000,0.000000,100.000000,100.000000,
1710.000000,0.000000,100.000000,100.000000,
1720.000000,0.000000,100.000000,100.000000,
1730.000000,0.000000,100.000000,100.000000,
1740.000000,0.000000,100.000000,100.000000,
1750.000000,0.000000,100.000000,100.000000,
1760.000000,0.000000,100.000000,100.000000,
1770.000000,0.000000,100.000000,100.000000,
1780.000000,0.000000,100.000000,100.000000,
1790.000000,0.000000,100.000000,100.000000,
1800.000000,0.000000,100.000000,100.000000,
1810.000000,0.000000,100.000000,100.000000,
1820.000000,0.000000,100.000000,100.000000,
1830.000000,0.000000,100.000000,100.000000,
1840.000000,0.000000,100.000000,100.000000,
1850.000000,0.000000,100.000000,100.000000,
1860.000000,0.000000,100.000000,100.000000,
1870.000000,0.000000,100.000000,100.000000,
1880.000000,0.000000,100.000000,100.000000,
1890.000000,0.000000,100.000000,100.000000,
1900.000000,0.000000,100.000000,100.000000,
1910.000000,0.000000,100.000000,100.000000,
1920.000000,0.000000,100.000000,100.000000,
1930.000000,0.000000,100.000000,100.000000,
1940.000000,0.000000,100.000000,100.000000,
1950.000000,0.000000,100.000000,100.000000,
1960.000000,0.000000,100.000000,100.000000,
1970.000000,0.000000,100.000000,100.000000,
1980.000000,0.000000,100.000000,100.000000,
1990.000000,0.000000,100.000000,100.000000,
2000.000000,0.000000,100.000000,100.000000,
2010.000000,0.000000,100.000000,100.000000,
2020.000000,0.000000,100.000000,100.000000,
2030.000000,0.000000,100.000000,100.000000,
2040.000000,0.000000,100.000000,100.000000,
2050.000000,0.000000,100.000000,100.000000,
2060.000000,0.000000,100.000000,100.000000,
2070.000000,0.000000,100.000000,100.000000,
2080.000000,0.000000,100.000000,100.000000,
2090.000000,0.000000,100.000000,100.000000,
2100.000000,0.000000,100.000000,100.000000,
2110.000000,0.000000,100.000000,100.000000,
2120.000000,0.000000,100.000000,100.000000,
2130.000000,0.000000,100.000000,100.000000,
2140.000000,0.000000,100.000000,100.000000,
2150.000000,0.000000,100.000000,100.000000,
2160.000000,0.000000,100.000000,100.000000,
2170.000000,0.000000,100.000000,100.000000,
2180.000000,0.000000,100.000000,100.000000,
2190.000000,0.000000,100.000000,100.000000,
2200.000000,0.000000,100.000000,100.000000,
2210.000000,0.000000,100.000000,100.000000,
2220.000000,0.000000,100.000000,100.000000,
2230.000000,0.000000,100.000000,100.000000,
2240.000000,0.000000,100.000000,100.000000,
2250.000000,0.000000,100.000000,100.000000,
2260.000000,0.000000,100.000000,100.000000,
2270.000000,0.000000,100.000000,100.000000,
2280.000000,0.000000,100.000000,100.000000,
2290.000000,0.000000,100.000000,100.000000,
2300.000000,0.000000,100.000000,100.000000,
2310.000000,0.000000,100.000000,100.000000,
2320.000000,0.000000,100.000000,100.000000,
2330.000000,0.000000,100.000000,100.000000,
2340.000000,0.000000,100.000000,100.000000,
2350.000000,0.000000,100.000000,100.000000,
2360.000000,0.000000,100.000000,100.000000,
2370.000000,0.000000,100.000000,100.000000,
2380.000000,0.000000,100.000000,100.000000,
2390.000000,0.000000,100.000000,100.000000,
2400.000000,0.000000,100.000000,100.000000,
2410.000000,0.000000,100.000000,100.000000,
2420.000000,0.000000,100.000000,100.000000,
2430.000000,0.000000,100.000000,100.000000,
2440.000000,0.000000,100.000000,100.000000,
2450.000000,0.000000,100.000000,100.000000,
2460.000000,0.000000,100.000000,100.000000,
2470.000000,0.000000,100.000000,100.000000,
2480.000000,0.000000,100.000000,100.000000,
2490.000000,0.000000,100.000000,100.000000,
2500.000000,0.000000,100.000000,100.000000,
2510.000000,0.000000,100.000000,100.000000,
2520.000000,0.000000,100.000000,100.000000,
2530.000000,0.000000,100.000000,100.000000,
2540.000000,0.000000,100.000000,100.000000,
2550.000000,0.000000,100.000000,100.000000,
2560.000000,0.000000,100.000000,100.000000,
2570.000000,0.000000,100.000000,100.000000,
2580.000000,0.000000,100.000000,100.000000,
2590.000000,0.000000,100.000000,100.000000,
2600.000000,0.000000,100.000000,100.000000,
2610.000000,0.000000,100.000000,100.000000,
2620.000000,0.000000,100.000000,100.000000,
2630.000000,0.000000,100.000000,100.000000,
2640.000000,0.000000,100.000000,100.000000,
2650.000000,0.000000,100.000000,100.000000,
2660.000000,0.000000,100.000000,100.000000,
2670.000000,0.000000,100.000000,100.000000,
2680.000000,0.000000,100.000000,100.000000,
2690.000000,0.000000,100.000000,100.000000,
2700.000000,0.000000,100.000000,100.000000,
2710.000000,0.000000,100.000000,100.000000,
2720.000000,0.000000,100.000000,100.000000,
2730.000000,0.000000,100.000000,100.000000,
2740.000000,0.000000,100.000000,100.000000,
2750.000000,0.000000,100.000000,100.000000,
2760.000000,0.000000,100.000000,100.000000,
2770.000000,0.000000,100.000000,100.000000,
2780.000000,0.000000,100.000000,100.000000,
2790.000000,0.000000,100.000000,100.000000,
2800.000000,0.000000,100.000000,100.000000,
2810.000000,0.000000,100.000000,100.000000,
2820.000000,0.000000,100.000000,100.000000,
2830.000000,0.000000,100.000000,100.000000,
2840.000000,0.000000,100.000000,100.000000,
2850.000000,0.000000,100.000000,100.000000,
2860.000000,0.000000,100.000000,100.000000,
2870.000000,0.000000,100.000000,100.000000,
2880.000000,0.000000,100.000000,100.000000,
2890.000000,0.000000,100.000000,100.000000,
2900.000000,0.000000,100.000000,100.000000,
2910.000000,0.000000,100.000000,100.000000,
2920.000000,0.000000,100.000000,100.000000,
2930.000000,0.000000,100.000000,100.000000,
2940.000000,0.000000,100.000000,100.000000,
2950.000000,0.000000,100.000000,100.000000,
2960.000000,0.000000,100.000000,100.000000,
2970.000000,0.000000,100.000000,100.000000,
2980.000000,0.000000,100.000000,100.000000,
2990.000000,0.000000,100.000000,100.000000,
3000.000000,0.000000,100.000000,100.000000,
3010.000000,0.000000,100.000000,100.000000,
3020.000000,0.000000,100.000000,100.000000,
3030.000000,0.000000,100.000000,100.000000,
3040.000000,0.000000,100.000000,100.000000,
3050.000000,0.000000,100.000000,100.000000,
3060.000000,0.000000,100.000000,100.000000,
3070.000000,0.000000,100.000000,100.000000,
3080.000000,0.000000,100.000000,100.000000,
3090.000000,0.000000,100.000000,100.000000,
3100.000000,0.000000,100.000000,100.000000,
3110.000000,0.000000,100.000000,100.000000,
3120.000000,0.000000,100.000000,100.000000,
3130.000000,0.000000,100.000000,100.000000,
3140.000000,0.000000,100.000000,100.000000,
3150.000000,0.000000,100.000000,100.000000,
3160.000000,0.000000,100.000000,100.000000,
3170.000000,0.000000,100.000000,100.000000,
3180.000000,0.000000,100.000000,100.000000,
3190.000000,0.000000,100.000000,100.000000,
3200.000000,0.000000,100.000000,100.000000,
3210.000000,0.000000,100.000000,100.000000,
3220.000000,0.000000,100.000000,100.000000,
3230.000000,0.000000,100.000000,100.000000,
3240.000000,0.000000,100.000000,100.000000,
3250.000000,0.000000,100.000000,100.000000,
3260.000000,0.000000,100.000000,100.000000,
3270.000000,0.000000,100.000000,100.000000,
3280.000000,0.000000,100.000000,100.000000,
3290.000000,0.000000,100.000000,100.000000,
3300.000000,0.000000,100.000000,100.000000,
3310.000000,0.000000,100.000000,100.000000,
3320.000000,0.000000,100.000000,100.000000,
3330.000000,0.000000,100.000000,100.000000,
3340.000000,0.000000,100.000000,100.000000,
3350.000000,0.000000,100.000000,100.000000,
3360.000000,0.000000,100.000000,100.000000,
3370.000000,0.000000,100.000000,100.000000,
3380.000000,0.000000,100.000000,100.000000,
3390.000000,0.000000,100.000000,100.000000,
3400.000000,0.000000,100.000000,100.000000,
3410.000000,0.000000,100.000000,100.000000,
3420.000000,0.000000,100.000000,100.000000,
3430.000000,0.000000,100.000000,100.000000,
3440.000000,0.000000,100.000000,100.000000,
3450.000000,0.000000,100.000000,100.000000,
3460.000000,0.000000,100.000000,100.000000,
3470.000000,0.000000,100.000000,100.000000,
3480.000000,0.000000,100.000000,100.000000,
3490.000000,0.000000,100.000000,100.000000,
3500.000000,0.000000,100.000000,100.000000,
3510.000000,0.000000,100.000000,100.000000,
3520.000000,0.000000,100.000000,100.000000,
3530.000000,0.000000,100.000000,100.000000,
3540.000000,0.000000,100.000000,100.000000,
3550.000000,0.000000,100.000000,100.000000,
3560.000000,0.000000,100.000000,100.000000,
3570.000000,0.000000,100.000000,100.000000,
3580.000000,0.000000,100.000000,100.000000,
3590.000000,0.000000,100.000000,100.000000,
3600.000000,0.000000,100.000000,100.000000,
3610.000000,0.000000,100.000000,100.000000,
3620.000000,0.000000,100.000000,100.000000,
3630.000000,0.000000,100.000000,100.000000,
3640.000000,0.000000,100.000000,100.000000,
3650.000000,0.000000,100.000000,100.000000,
3660.000000,0.000000,100.000000,100.000000,
3670.000000,0.000000,100.000000,100.000000,
3680.000000,0.000000,100.000000,100.000000,
3690.000000,0.000000,100.000000,100.000000,
3700.000000,0.000000,100.000000,100.000000,
3710.000000,0.000000,100.000000,100.000000,
3720.000000,0.000000,100.000000,100.000000,
3730.000000,0.000000,100.000000,100.000000,
3740.000000,0.000000,100.000000,100.000000,
3750.000000,0.000000,100.000000,100.000000,
3760.000000,0.000000,100.000000,100.000000,
3770.000000,0.000000,100.000000,100.000000,
3780.000000,0.000000,100.000000,100.000000,
3790.000000,0.000000,100.000000,100.000000,
3800.000000,0.000000,100.000000,100.000000,
3810.000000,0.000000,100.000000,100.000000,
3820.000000,0.000000,100.000000,100.000000,
3830.000000,0.000000,100.000000,100.000000,
3840.000000,0.000000,100.000000,100.000000,
3850.000000,0.000000,100.000000,100.000000,
3860.000000,0.000000,100.000000,100.000000,
3870.000000,0.000000,100.000000,100.000000,
3880.000000,0.000000,100.000000,100.000000,
3890.000000,0.000000,100.000000,19.950000,
3900.000000,0.000000,100.000000,24.870000,
3910.000000,0.000000,100.000000,100.000000,
3920.000000,0.000000,100.000000,23.610000,
3930.000000,0.000000,100.000000,0.000000,
3940.000000,0.000000,100.000000,0.000000,
3950.000000,0.000000,100.000000,46.880000,
3960.000000,0.000000,100.000000,97.720000,
3970.000000,0.000000,100.000000,0.000000,
3980.000000,0.000000,100.000000,0.000000,
3990.000000,0.000000,100.000000,0.000000,
4000.000000,0.000000,100.000000,0.000000,
4010.000000,0.000000,100.000000,0.000000,
4020.000000,0.000000,100.000000,0.000000,
4030.000000,0.000000,100.000000,82.590000,
4040.000000,0.000000,100.000000,65.880000,
4050.000000,0.000000,100.000000,0.000000,
4060.000000,0.000000,100.000000,0.000000,
4070.000000,0.000000,100.000000,4.610000,
4080.000000,0.000000,100.000000,100.000000,
4090.000000,0.000000,100.000000,39.990000,
4100.000000,0.000000,100.000000,0.000000,
4110.000000,0.000000,100.000000,0.000000,
4120.000000,0.000000,100.000000,0.000000,
4130.000000,0.000000,100.000000,0.000000,
4140.000000,0.000000,100.000000,0.000000,
4150.000000,0.000000,100.000000,40.320000,
4160.000000,0.000000,100.000000,100.000000,
4170.000000,0.000000,100.000000,8.150000,
4180.000000,0.000000,100.000000,0.000000,
4190.000000,0.000000,100.000000,0.000000,
4200.000000,0.000000,100.000000,62.330000,
4210.000000,0.000000,100.000000,100.000000,
4220.000000,0.000000,100.000000,100.000000,
4230.000000,0.000000,100.000000,26.870000,
4240.000000,0.000000,100.000000,0.000000,
4250.000000,0.000000,100.000000,50.740000,
4260.000000,0.000000,100.000000,96.960000,
4270.000000,0.000000,100.000000,0.000000,
4280.000000,0.000000,100.000000,0.000000,
4290.000000,0.000000,100.000000,0.000000,
4300.000000,0.000000,100.000000,0.000000,
4310.000000,0.000000,100.000000,13.240000,
4320.000000,0.000000,100.000000,100.000000,
4330.000000,0.000000,100.000000,56.150000,
4340.000000,0.000000,100.000000,0.000000,
4350.000000,0.000000,100.000000,0.000000,
4360.000000,0.000000,100.000000,0.000000,
4370.000000,0.000000,100.000000,0.000000,
4380.000000,0.000000,100.000000,0.000000,
4390.000000,0.000000,100.000000,0.000000,
4400.000000,0.000000,100.000000,0.000000,
4410.000000,0.000000,100.000000,0.000000,
4420.000000,0.000000,100.000000,0.000000,
4430.000000,0.000000,100.000000,71.250000,
4440.000000,0.000000,100.000000,82.650000,
4450.000000,0.000000,100.000000,0.000000,
4460.000000,0.000000,100.000000,0.000000,
4470.000000,0.000000,100.000000,0.000000,
4480.000000,0.000000,100.000000,0.000000,
4490.000000,0.000000,100.000000,0.000000,
4500.000000,0.000000,100.000000,56.680000,
4510.000000,0.000000,100.000000,100.000000,
4520.000000,0.000000,100.000000,9.610000,
4530.000000,0.000000,100.000000,0.000000,
4540.000000,0.000000,100.000000,0.000000,
4550.000000,0.000000,100.000000,0.000000,
4560.000000,0.000000,100.000000,0.000000,
4570.000000,0.000000,100.000000,0.000000,
4580.000000,0.000000,100.000000,0.000000,
4590.000000,0.000000,100.000000,0.000000,
4600.000000,0.000000,100.000000,21.650000,
4610.000000,0.000000,100.000000,100.000000,
4620.000000,0.000000,100.000000,32.250000,
4630.000000,0.000000,100.000000,0.000000,
4640.000000,0.000000,100.000000,0.000000,
4650.000000,0.000000,100.000000,0.000000,
4660.000000,0.000000,100.000000,0.000000,
4670.000000,0.000000,100.000000,0.000000,
4680.000000,0.000000,100.000000,80.340000,
4690.000000,0.000000,100.000000,89.050000,
4700.000000,0.000000,100.000000,0.000000,
4710.000000,0.000000,100.000000,0.000000,
4720.000000,0.000000,100.000000,0.000000,
4730.000000,0.000000,100.000000,0.000000,
4740.000000,0.000000,100.000000,0.000000,
4750.000000,0.000000,100.000000,0.000000,
4760.000000,0.000000,100.000000,0.000000,
4770.000000,0.000000,100.000000,0.000000,
4780.000000,0.000000,100.000000,0.000000,
4790.000000,0.000000,100.000000,0.000000,
4800.000000,0.000000,100.000000,0.000000,
4810.000000,0.000000,100.000000,0.000000,
4820.000000,0.000000,100.000000,0.000000,
4830.000000,0.000000,100.000000,0.000000,
4840.000000,0.000000,100.000000,52.150000,
4850.000000,0.000000,100.000000,100.000000,
4860.000000,0.000000,100.000000,1.750000,
4870.000000,0.000000,100.000000,0.000000,
4880.000000,0.000000,100.000000,0.000000,
4890.000000,0.000000,100.000000,0.000000,
4900.000000,0.000000,100.000000,0.000000,
4910.000000,0.000000,100.000000,10.840000,
4920.000000,0.000000,100.000000,100.000000,
4930.000000,0.000000,100.000000,58.550000,
4940.000000,0.000000,100.000000,0.000000,
4950.000000,0.000000,100.000000,0.000000,
4960.000000,0.000000,100.000000,0.000000,
4970.000000,0.000000,100.000000,0.000000,
4980.000000,0.000000,100.000000,0.000000,
4990.000000,0.000000,100.000000,0.000000,
5000.000000,0.000000,100.000000,0.000000,
5010.000000,0.000000,100.000000,0.000000,
5020.000000,0.000000,100.000000,0.000000,
5030.000000,0.000000,100.000000,68.850000,
5040.000000,0.000000,100.000000,85.050000,
5050.000000,0.000000,100.000000,0.000000,
5060.000000,0.000000,100.000000,0.000000,
5070.000000,0.000000,100.000000,0.000000,
5080.000000,0.000000,100.000000,0.000000,
5090.000000,0.000000,100.000000,0.000000,
5100.000000,0.000000,100.000000,59.250000,
5110.000000,0.000000,100.000000,100.000000,
5120.000000,0.000000,100.000000,6.460000,
5130.000000,0.000000,100.000000,0.000000,
5140.000000,0.000000,100.000000,0.000000,
5150.000000,0.000000,100.000000,0.000000,
5160.000000,0.000000,100.000000,0.000000,
5170.000000,0.000000,100.000000,0.000000,
5180.000000,0.000000,100.000000,0.000000,
5190.000000,0.000000,34.350000,0.000000,
5200.000000,0.000000,0.000000,0.000000,
5210.000000,0.000000,0.000000,0.000000,
5220.000000,0.000000,0.000000,0.000000,
5230.000000,0.000000,0.000000,0.000000,
5240.000000,0.000000,0.000000,0.000000,
5250.000000,0.000000,89.920000,0.000000,
5260.000000,0.000000,100.000000,0.000000,
5270.000000,0.000000,100.000000,66.520000,
5280.000000,0.000000,100.000000,99.190000,
5290.000000,0.000000,100.000000,43.120000,
5300.000000,0.000000,100.000000,100.000000,
5310.000000,0.000000,100.000000,42.310000,
5320.000000,0.000000,100.000000,100.000000,
5330.000000,0.000000,100.000000,100.000000,
5340.000000,0.000000,100.000000,100.000000,
5350.000000,0.000000,100.000000,100.000000,
5360.000000,0.000000,100.000000,100.000000,
5370.000000,0.000000,100.000000,100.000000,
5380.000000,0.000000,100.000000,100.000000,
5390.000000,0.000000,100.000000,77.090000,
5400.000000,0.000000,100.000000,44.850000,
5410.000000,0.000000,100.000000,100.000000,
5420.000000,0.000000,100.000000,24.540000,
5430.000000,0.000000,100.000000,89.740000,
5440.000000,0.000000,100.000000,100.000000,
5450.000000,0.000000,100.000000,100.000000,
5460.000000,0.000000,100.000000,100.000000,
5470.000000,0.000000,100.000000,100.000000,
5480.000000,0.000000,100.000000,100.000000,
5490.000000,0.000000,100.000000,100.000000,
5500.000000,0.000000,100.000000,100.000000,
5510.000000,0.000000,100.000000,100.000000,
5520.000000,0.000000,100.000000,100.000000,
5530.000000,0.000000,100.000000,100.000000,
5540.000000,0.000000,100.000000,100.000000,
5550.000000,0.000000,100.000000,100.000000,
5560.000000,0.000000,100.000000,100.000000,
5570.000000,0.000000,100.000000,100.000000,
5580.000000,0.000000,100.000000,95.740000,
5590.000000,0.000000,100.000000,73.560000,
5600.000000,0.000000,100.000000,100.000000,
5610.000000,0.000000,100.000000,100.000000,
5620.000000,0.000000,100.000000,100.000000,
5630.000000,0.000000,100.000000,100.000000,
5640.000000,0.000000,100.000000,100.000000,
5650.000000,0.000000,100.000000,100.000000,
5660.000000,0.000000,100.000000,100.000000,
5670.000000,0.000000,100.000000,76.000000,
5680.000000,0.000000,100.000000,100.000000,
5690.000000,0.000000,100.000000,37.920000,
5700.000000,0.000000,100.000000,100.000000,
5710.000000,0.000000,100.000000,100.000000,
5720.000000,0.000000,100.000000,100.000000,
5730.000000,0.000000,100.000000,100.000000,
5740.000000,0.000000,100.000000,100.000000,
5750.000000,0.000000,100.000000,100.000000,
5760.000000,0.000000,100.000000,100.000000,
5770.000000,0.000000,100.000000,73.590000,
5780.000000,0.000000,100.000000,48.930000,
5790.000000,0.000000,100.000000,100.000000,
5800.000000,0.000000,100.000000,20.460000,
5810.000000,0.000000,100.000000,93.820000,
5820.000000,0.000000,100.000000,100.000000,
5830.000000,0.000000,100.000000,100.000000,
5840.000000,0.000000,100.000000,100.000000,
5850.000000,0.000000,100.000000,100.000000,
5860.000000,0.000000,100.000000,100.000000,
5870.000000,0.000000,100.000000,100.000000,
5880.000000,0.000000,100.000000,100.000000,
5890.000000,0.000000,100.000000,100.000000,
5900.000000,0.000000,100.000000,100.000000,
5910.000000,0.000000,100.000000,100.000000,
5920.000000,0.000000,100.000000,100.000000,
5930.000000,0.000000,100.000000,100.000000,
5940.000000,0.000000,100.000000,100.000000,
5950.000000,0.000000,100.000000,100.000000,
5960.000000,0.000000,100.000000,100.000000,
5970.000000,0.000000,100.000000,100.000000,
5980.000000,0.000000,100.000000,100.000000,
5990.000000,0.000000,100.000000,100.000000,
6000.000000,0.000000,100.000000,100.000000,
6010.000000,0.000000,100.000000,100.000000,
6020.000000,0.000000,100.000000,100.000000,
6030.000000,0.000000,100.000000,100.000000,
6040.000000,0.000000,100.000000,100.000000,
6050.000000,0.000000,100.000000,100.000000,
6060.000000,0.000000,100.000000,100.000000,
6070.000000,0.000000,100.000000,100.000000,
6080.000000,0.000000,100.000000,100.000000,
6090.000000,0.000000,100.000000,100.000000,
6100.000000,0.000000,100.000000,100.000000,
6110.000000,0.000000,100.000000,100.000000,
6120.000000,0.000000,100.000000,100.000000,
6130.000000,0.000000,100.000000,100.000000,
6140.000000,0.000000,100.000000,100.000000,
6150.000000,0.000000,100.000000,100.000000,
6160.000000,0.000000,100.000000,100.000000,
6170.000000,0.000000,100.000000,100.000000,
6180.000000,0.000000,100.000000,100.000000,
6190.000000,0.000000,100.000000,100.000000,
6200.000000,0.000000,100.000000,100.000000,
6210.000000,0.000000,100.000000,100.000000,
6220.000000,0.000000,100.000000,100.000000,
6230.000000,0.000000,100.000000,100.000000,
6240.000000,0.000000,100.000000,100.000000,
6250.000000,0.000000,100.000000,100.000000,
6260.000000,0.000000,100.000000,100.000000,
6270.000000,0.000000,100.000000,100.000000,
6280.000000,0.000000,100.000000,100.000000,
6290.000000,0.000000,100.000000,100.000000,
6300.000000,0.000000,100.000000,100.000000,
6310.000000,0.000000,100.000000,100.000000,
6320.000000,0.000000,100.000000,100.000000,
6330.000000,0.000000,100.000000,100.000000,
6340.000000,0.000000,100.000000,100.000000,
6350.000000,0.000000,100.000000,100.000000,
6360.000000,0.000000,100.000000,100.000000,
6370.000000,0.000000,100.000000,100.000000,
6380.000000,0.000000,100.000000,100.000000,
6390.000000,0.000000,100.000000,100.000000,
6400.000000,0.000000,100.000000,100.000000,
6410.000000,0.000000,100.000000,100.000000,
6420.000000,0.000000,100.000000,100.000000,
6430.000000,0.000000,100.000000,100.000000,
6440.000000,0.000000,100.000000,100.000000,
6450.000000,0.000000,100.000000,100.000000,
6460.000000,0.000000,100.000000,100.000000,
6470.000000,0.000000,100.000000,100.000000,
6480.000000,0.000000,100.000000,100.000000,
6490.000000,0.000000,100.000000,100.000000,
6500.000000,0.000000,100.000000,100.000000,
6510.000000,0.000000,100.000000,100.000000,
6520.000000,0.000000,100.000000,100.000000,
6530.000000,0.000000,100.000000,100.000000,
6540.000000,0.000000,100.000000,100.000000,
6550.000000,0.000000,100.000000,100.000000,
6560.000000,0.000000,100.000000,100.000000,
6570.000000,0.000000,100.000000,100.000000,
6580.000000,0.000000,100.000000,100.000000,
6590.000000,0.000000,100.000000,100.000000,
6600.000000,0.000000,100.000000,100.000000,
6610.000000,0.000000,100.000000,100.000000,
6620.000000,0.000000,100.000000,100.000000,
6630.000000,0.000000,100.000000,100.000000,
6640.000000,0.000000,100.000000,100.000000,
6650.000000,0.000000,100.000000,100.000000,
6660.000000,0.000000,100.000000,100.000000,
6670.000000,0.000000,100.000000,100.000000,
6680.000000,0.000000,100.000000,100.000000,
6690.000000,0.000000,100.000000,100.000000,
6700.000000,0.000000,100.000000,100.000000,
6710.000000,0.000000,100.000000,100.000000,
6720.000000,0.000000,100.000000,100.000000,
6730.000000,0.000000,100.000000,100.000000,
6740.000000,0.000000,100.000000,100.000000,
6750.000000,0.000000,100.000000,100.000000,
6760.000000,0.000000,100.000000,100.000000,
6770.000000,0.000000,100.000000,100.000000,
6780.000000,0.000000,100.000000,100.000000,
6790.000000,0.000000,100.000000,100.000000,
6800.000000,0.000000,100.000000,100.000000,
6810.000000,0.000000,100.000000,100.000000,
6820.000000,0.000000,100.000000,100.000000,
6830.000000,0.000000,100.000000,100.000000,
6840.000000,0.000000,100.000000,100.000000,
6850.000000,0.000000,100.000000,100.000000,
6860.000000,0.000000,100.000000,100.000000,
6870.000000,0.000000,100.000000,100.000000,
6880.000000,0.000000,100.000000,100.000000,
6890.000000,0.000000,100.000000,100.000000,
6900.000000,0.000000,100.000000,100.000000,
6910.000000,0.000000,100.000000,100.000000,
6920.000000,0.000000,100.000000,100.000000,
6930.000000,0.000000,100.000000,100.000000,
6940.000000,0.000000,100.000000,100.000000,
6950.000000,0.000000,100.000000,100.000000,
6960.000000,0.000000,100.000000,100.000000,
6970.000000,0.000000,100.000000,100.000000,
6980.000000,0.000000,100.000000,100.000000,
6990.000000,0.000000,100.000000,100.000000,
7000.000000,0.000000,100.000000,100.000000,
7010.000000,0.000000,100.000000,100.000000,
7020.000000,0.000000,100.000000,100.000000,
7030.000000,0.000000,100.000000,100.000000,
7040.000000,0.000000,100.000000,100.000000,
7050.000000,0.000000,100.000000,100.000000,
7060.000000,0.000000,100.000000,100.000000,
7070.000000,0.000000,100.000000,100.000000,
7080.000000,0.000000,100.000000,100.000000,
7090.000000,0.000000,100.000000,100.000000,
7100.000000,0.000000,100.000000,100.000000,
7110.000000,0.000000,100.000000,100.000000,
7120.000000,0.000000,100.000000,100.000000,
7130.000000,0.000000,100.000000,100.000000,
7140.000000,0.000000,100.000000,100.000000,
7150.000000,0.000000,100.000000,100.000000,
7160.000000,0.000000,100.000000,100.000000,
7170.000000,0.000000,100.000000,100.000000,
7180.000000,0.000000,100.000000,100.000000,
7190.000000,0.000000,100.000000,100.000000,
7200.000000,0.000000,100.000000,100.000000,
7210.000000,0.000000,100.000000,100.000000,
7220.000000,0.000000,100.000000,100.000000,
7230.000000,0.000000,100.000000,100.000000,
7240.000000,0.000000,100.000000,100.000000,
7250.000000,0.000000,100.000000,100.000000,
7260.000000,0.000000,100.000000,100.000000,
7270.000000,0.000000,100.000000,100.000000,
7280.000000,0.000000,100.000000,100.000000,
7290.000000,0.000000,100.000000,100.000000,
7300.000000,0.000000,100.000000,100.000000,
7310.000000,0.000000,100.000000,100.000000,
7320.000000,0.000000,100.000000,100.000000,
7330.000000,0.000000,100.000000,100.000000,
7340.000000,0.000000,100.000000,100.000000,
7350.000000,0.000000,100.000000,100.000000,
7360.000000,0.000000,100.000000,100.000000,
7370.000000,0.000000,100.000000,100.000000,
7380.000000,0.000000,100.000000,100.000000,
7390.000000,0.000000,100.000000,100.000000,
7400.000000,0.000000,100.000000,100.000000,
7410.000000,0.000000,100.000000,100.000000,
7420.000000,0.000000,100.000000,100.000000,
7430.000000,0.000000,100.000000,100.000000,
7440.000000,0.000000,100.000000,100.000000,
7450.000000,0.000000,100.000000,100.000000,
7460.000000,0.000000,100.000000,100.000000,
7470.000000,0.000000,100.000000,100.000000,
7480.000000,0.000000,100.000000,100.000000,
7490.000000,0.000000,100.000000,100.000000,
7500.000000,0.000000,100.000000,100.000000,
7510.000000,0.000000,100.000000,100.000000,
7520.000000,0.000000,100.000000,100.000000,
7530.000000,0.000000,100.000000,100.000000,
7540.000000,0.000000,100.000000,100.000000,
7550.000000,0.000000,100.000000,100.000000,
7560.000000,0.000000,100.000000,100.000000,
7570.000000,0.000000,100.000000,100.000000,
7580.000000,0.000000,100.000000,100.000000,
7590.000000,0.000000,100.000000,100.000000,
7600.000000,0.000000,100.000000,100.000000,
7610.000000,0.000000,100.000000,100.000000,
7620.000000,0.000000,100.000000,100.000000,
7630.000000,0.000000,100.000000,100.000000,
7640.000000,0.000000,100.000000,100.000000,
7650.000000,0.000000,100.000000,100.000000,
7660.000000,0.000000,100.000000,100.000000,
7670.000000,0.000000,100.000000,100.000000,
7680.000000,0.000000,100.000000,100.000000,
7690.000000,0.000000,100.000000,100.000000,
7700.000000,0.000000,100.000000,100.000000,
7710.000000,0.000000,100.000000,100.000000,
7720.000000,0.000000,100.000000,100.000000,
7730.000000,0.000000,100.000000,100.000000,
7740.000000,0.000000,100.000000,100.000000,
7750.000000,0.000000,100.000000,100.000000,
7760.000000,0.000000,100.000000,100.000000,
7770.000000,0.000000,100.000000,100.000000,
7780.000000,0.000000,100.000000,100.000000,
7790.000000,0.000000,100.000000,100.000000,
7800.000000,0.000000,100.000000,100.000000,
7810.000000,0.000000,100.000000,100.000000,
7820.000000,0.000000,100.000000,100.000000,
7830.000000,0.000000,100.000000,100.000000,
7840.000000,0.000000,100.000000,100.000000,
7850.000000,0.000000,100.000000,100.000000,
7860.000000,0.000000,100.000000,100.000000,
7870.000000,0.000000,100.000000,100.000000,
7880.000000,0.000000,100.000000,100.000000,
7890.000000,0.000000,100.000000,100.000000,
7900.000000,0.000000,100.000000,100.000000,
7910.000000,0.000000,100.000000,100.000000,
7920.000000,0.000000,100.000000,100.000000,
7930.000000,0.000000,100.000000,100.000000,
7940.000000,0.000000,100.000000,100.000000,
7950.000000,0.000000,100.000000,100.000000,
7960.000000,0.000000,100.000000,100.000000,
7970.000000,0.000000,100.000000,100.000000,
7980.000000,0.000000,100.000000,100.000000,
7990.000000,0.000000,100.000000,100.000000,
8000.000000,0.000000,100.000000,100.000000,
8010.000000,0.000000,100.000000,100.000000,
8020.000000,0.000000,100.000000,100.000000,
8030.000000,0.000000,100.000000,100.000000,
8040.000000,0.000000,100.000000,100.000000,
8050.000000,0.000000,100.000000,100.000000,
8060.000000,0.000000,100.000000,100.000000,
8070.000000,0.000000,100.000000,100.000000,
8080.000000,0.000000,100.000000,100.000000,
8090.000000,0.000000,100.000000,100.000000,
8100.000000,0.000000,100.000000,100.000000,
8110.000000,0.000000,100.000000,100.000000,
8120.000000,0.000000,100.000000,100.000000,
8130.000000,0.000000,100.000000,100.000000,
8140.000000,0.000000,100.000000,100.000000,
8150.000000,0.000000,100.000000,100.000000,
8160.000000,0.000000,100.000000,100.000000,
8170.000000,0.000000,100.000000,100.000000,
8180.000000,0.000000,100.000000,100.000000,
8190.000000,0.000000,100.000000,100.000000,
8200.000000,0.000000,100.000000,100.000000,
8210.000000,0.000000,100.000000,100.000000,
8220.000000,0.000000,100.000000,100.000000,
8230.000000,0.000000,100.000000,100.000000,
8240.000000,0.000000,100.000000,35.480000,
8250.000000,0.000000,100.000000,9.350000,
8260.000000,0.000000,100.000000,100.000000,
8270.000000,0.000000,100.000000,39.130000,
8280.000000,0.000000,100.000000,0.000000,
8290.000000,0.000000,100.000000,0.000000,
8300.000000,0.000000,100.000000,31.360000,
8310.000000,0.000000,100.000000,100.000000,
8320.000000,0.000000,100.000000,13.240000,
8330.000000,0.000000,100.000000,0.000000,
8340.000000,0.000000,100.000000,0.000000,
8350.000000,0.000000,100.000000,0.000000,
8360.000000,0.000000,100.000000,0.000000,
8370.000000,0.000000,100.000000,0.000000,
8380.000000,0.000000,100.000000,67.070000,
8390.000000,0.000000,100.000000,81.400000,
8400.000000,0.000000,100.000000,0.000000,
8410.000000,0.000000,100.000000,0.000000,
8420.000000,0.000000,100.000000,0.000000,
8430.000000,0.000000,100.000000,89.090000,
8440.000000,0.000000,100.000000,55.510000,
8450.000000,0.000000,100.000000,0.000000,
8460.000000,0.000000,100.000000,0.000000,
8470.000000,0.000000,100.000000,0.000000,
8480.000000,0.000000,100.000000,0.000000,
8490.000000,0.000000,100.000000,0.000000,
8500.000000,0.000000,100.000000,24.800000,
8510.000000,0.000000,100.000000,100.000000,
8520.000000,0.000000,100.000000,23.670000,
8530.000000,0.000000,100.000000,0.000000,
8540.000000,0.000000,100.000000,0.000000,
8550.000000,0.000000,100.000000,46.810000,
8560.000000,0.000000,100.000000,100.000000,
8570.000000,0.000000,100.000000,100.000000,
8580.000000,0.000000,100.000000,42.390000,
8590.000000,0.000000,100.000000,0.000000,
8600.000000,0.000000,100.000000,35.220000,
8610.000000,0.000000,100.000000,100.000000,
8620.000000,0.000000,100.000000,12.480000,
8630.000000,0.000000,100.000000,0.000000,
8640.000000,0.000000,100.000000,0.000000,
8650.000000,0.000000,100.000000,0.000000,
8660.000000,0.000000,100.000000,0.000000,
8670.000000,0.000000,100.000000,97.720000,
8680.000000,0.000000,100.000000,71.680000,
8690.000000,0.000000,100.000000,0.000000,
8700.000000,0.000000,100.000000,0.000000,
8710.000000,0.000000,100.000000,0.000000,
8720.000000,0.000000,100.000000,0.000000,
8730.000000,0.000000,100.000000,0.000000,
8740.000000,0.000000,100.000000,0.000000,
8750.000000,0.000000,100.000000,0.000000,
8760.000000,0.000000,100.000000,0.000000,
8770.000000,0.000000,100.000000,0.000000,
8780.000000,0.000000,100.000000,55.730000,
8790.000000,0.000000,100.000000,98.170000,
8800.000000,0.000000,100.000000,0.000000,
8810.000000,0.000000,100.000000,0.000000,
8820.000000,0.000000,100.000000,0.000000,
8830.000000,0.000000,100.000000,0.000000,
8840.000000,0.000000,100.000000,0.000000,
8850.000000,0.000000,100.000000,41.160000,
8860.000000,0.000000,100.000000,100.000000,
8870.000000,0.000000,100.000000,25.140000,
8880.000000,0.000000,100.000000,0.000000,
8890.000000,0.000000,100.000000,0.000000,
8900.000000,0.000000,100.000000,0.000000,
8910.000000,0.000000,100.000000,0.000000,
8920.000000,0.000000,100.000000,0.000000,
8930.000000,0.000000,100.000000,0.000000,
8940.000000,0.000000,100.000000,0.000000,
8950.000000,0.000000,100.000000,6.130000,
8960.000000,0.000000,100.000000,100.000000,
8970.000000,0.000000,100.000000,47.770000,
8980.000000,0.000000,100.000000,0.000000,
8990.000000,0.000000,100.000000,0.000000,
9000.000000,0.000000,100.000000,0.000000,
9010.000000,0.000000,100.000000,0.000000,
9020.000000,0.000000,100.000000,0.000000,
9030.000000,0.000000,100.000000,64.820000,
9040.000000,0.000000,100.000000,100.000000,
9050.000000,0.000000,100.000000,4.580000,
9060.000000,0.000000,100.000000,0.000000,
9070.000000,0.000000,100.000000,0.000000,
9080.000000,0.000000,100.000000,0.000000,
9090.000000,0.000000,100.000000,0.000000,
9100.000000,0.000000,100.000000,0.000000,
9110.000000,0.000000,100.000000,0.000000,
9120.000000,0.000000,100.000000,0.000000,
9130.000000,0.000000,100.000000,0.000000,
9140.000000,0.000000,100.000000,0.000000,
9150.000000,0.000000,100.000000,0.000000,
9160.000000,0.000000,100.000000,0.000000,
9170.000000,0.000000,100.000000,0.000000,
9180.000000,0.000000,100.000000,0.000000,
9190.000000,0.000000,100.000000,36.630000,
9200.000000,0.000000,100.000000,100.000000,
9210.000000,0.000000,100.000000,17.270000,
9220.000000,0.000000,100.000000,0.000000,
9230.000000,0.000000,100.000000,0.000000,
9240.000000,0.000000,100.000000,0.000000,
9250.000000,0.000000,100.000000,0.000000,
9260.000000,0.000000,100.000000,0.000000,
9270.000000,0.000000,100.000000,95.320000,
9280.000000,0.000000,100.000000,74.080000,
9290.000000,0.000000,100.000000,0.000000,
9300.000000,0.000000,100.000000,0.000000,
9310.000000,0.000000,100.000000,0.000000,
9320.000000,0.000000,100.000000,0.000000,
9330.000000,0.000000,100.000000,0.000000,
9340.000000,0.000000,100.000000,0.000000,
9350.000000,0.000000,100.000000,0.000000,
9360.000000,0.000000,100.000000,0.000000,
9370.000000,0.000000,100.000000,0.000000,
9380.000000,0.000000,100.000000,53.330000,
9390.000000,0.000000,100.000000,100.000000,
9400.000000,0.000000,100.000000,0.570000,
9410.000000,0.000000,100.000000,0.000000,
9420.000000,0.000000,100.000000,0.000000,
9430.000000,0.000000,100.000000,0.000000,
9440.000000,0.000000,100.000000,0.000000,
9450.000000,0.000000,100.000000,43.730000,
9460.000000,0.000000,100.000000,100.000000,
9470.000000,0.000000,100.000000,21.980000,
9480.000000,0.000000,100.000000,0.000000,
9490.000000,0.000000,100.000000,0.000000,
9500.000000,0.000000,100.000000,0.000000,
9510.000000,0.000000,100.000000,0.000000,
9520.000000,0.000000,100.000000,0.000000,
9530.000000,0.000000,100.000000,0.000000,
9540.000000,0.000000,49.870000,0.000000,
,,,
